%!PS-Adobe-2.0 EPSF-2.0
%%BoundingBox:  0 0 567 419
%%Title: dataset/plots/mvaeffs_KNN.eps: Cut efficiencies for KNN classifier
%%Creator: ROOT Version 6.16/00
%%CreationDate: Tue May 14 16:32:10 2019
%%DocumentNeededResources: ProcSet (FontSetInit)
%%EndComments
%%BeginProlog
80 dict begin
/s {stroke} def /l {lineto} def /m {moveto} def /t {translate} def
/r {rotate} def /rl {roll}  def /R {repeat} def
/d {rlineto} def /rm {rmoveto} def /gr {grestore} def /f {eofill} def
/c {setrgbcolor} def /black {0 setgray} def /sd {setdash} def
/cl {closepath} def /sf {scalefont setfont} def /lw {setlinewidth} def
/box {m dup 0 exch d exch 0 d 0 exch neg d cl} def
/NC{systemdict begin initclip end}def/C{NC box clip newpath}def
/bl {box s} def /bf {gsave box gsave f grestore 1 lw [] 0 sd s grestore} def /Y { 0 exch d} def /X { 0 d} def 
/K {{pop pop 0 moveto} exch kshow} bind def
/ita {/ang 15 def gsave [1 0 ang dup sin exch cos div 1 0 0] concat} def 
/mp {newpath /y exch def /x exch def} def
/side {[w .77 mul w .23 mul] .385 w mul sd w 0 l currentpoint t -144 r} def
/mr {mp x y w2 0 360 arc} def /m24 {mr s} def /m20 {mr f} def
/mb {mp x y w2 add m w2 neg 0 d 0 w neg d w 0 d 0 w d cl} def
/mt {mp x y w2 add m w2 neg w neg d w 0 d cl} def
/w4 {w 4 div} def
/w6 {w 6 div} def
/w8 {w 8 div} def
/m21 {mb f} def /m25 {mb s} def /m22 {mt f} def /m26{mt s} def
/m23 {mp x y w2 sub m w2 w d w neg 0 d cl f} def
/m27 {mp x y w2 add m w3 neg w2 neg d w3 w2 neg d w3 w2 d cl s} def
/m28 {mp x w2 sub y w2 sub w3 add m w3 0 d  0 w3 neg d w3 0 d 0 w3 d w3 0 d  0 w3 d w3 neg 0 d 0 w3 d w3 neg 0 d 0 w3 neg d w3 neg 0 d cl s } def
/m29 {mp gsave x w2 sub y w2 add w3 sub m currentpoint t 4 {side} repeat cl fill gr} def
/m30 {mp gsave x w2 sub y w2 add w3 sub m currentpoint t 4 {side} repeat cl s gr} def
/m31 {mp x y w2 sub m 0 w d x w2 sub y m w 0 d x w2 sub y w2 add m w w neg d x w2 sub y w2 sub m w w d s} def
/m32 {mp x y w2 sub m w2 w d w neg 0 d cl s} def
/m33 {mp x y w2 add m w3 neg w2 neg d w3 w2 neg d w3 w2 d cl f} def
/m34 {mp x w2 sub y w2 sub w3 add m w3 0 d  0 w3 neg d w3 0 d 0 w3 d w3 0 d  0 w3 d w3 neg 0 d 0 w3 d w3 neg 0 d 0 w3 neg d w3 neg 0 d cl f } def
/m35 {mp x y w2 add m w2 neg w2 neg d w2 w2 neg d w2 w2 d w2 neg w2 d x y w2 sub m 0 w d x w2 sub y m w 0 d s} def
/m36 {mb x w2 sub y w2 add m w w neg d x w2 sub y w2 sub m w w d s} def
/m37 {mp x y m w4 neg w2 d w4 neg w2 neg d w2 0 d  w4 neg w2 neg d w2 0 d w4 neg w2 d w2 0 d w4 neg w2 d w4 neg w2 neg d cl s} def
/m38 {mp x w4 sub y w2 add m w4 neg w4 neg d 0 w2 neg d w4 w4 neg d w2 0 d w4 w4 d 0 w2 d w4 neg w4 d w2 neg 0 d x y w2 sub m 0 w d x w2 sub y m w 0 d cl s} def
/m39 {mp x y m w4 neg w2 d w4 neg w2 neg d w2 0 d  w4 neg w2 neg d w2 0 d w4 neg w2 d w2 0 d w4 neg w2 d w4 neg w2 neg d cl f} def
/m40 {mp x y m w4 w2 d w4 w4 neg d w2 neg w4 neg d w2 w4 neg d w4 neg w4 neg d w4 neg w2 d w4 neg w2 neg d w4 neg w4 d w2 w4 d w2 neg w4 d w4 w4 d w4 w2 neg d cl s} def
/m41 {mp x y m w4 w2 d w4 w4 neg d w2 neg w4 neg d w2 w4 neg d w4 neg w4 neg d w4 neg w2 d w4 neg w2 neg d w4 neg w4 d w2 w4 d w2 neg w4 d w4 w4 d w4 w2 neg d cl f} def
/m42 {mp x y w2 add m w8 neg w2 -3 4 div mul d w2 -3 4 div mul w8 neg d w2 3 4 div mul w8 neg d w8 w2 -3 4 div mul d w8 w2 3 4 div mul d w2 3 4 div mul w8 d w2 -3 4 div mul w8 d w8 neg w2 3 4 div mul d cl s} def
/m43 {mp x y w2 add m w8 neg w2 -3 4 div mul d w2 -3 4 div mul w8 neg d w2 3 4 div mul w8 neg d w8 w2 -3 4 div mul d w8 w2 3 4 div mul d w2 3 4 div mul w8 d w2 -3 4 div mul w8 d w8 neg w2 3 4 div mul d cl f} def
/m44 {mp x y m w6 neg w2 d w2 2 3 div mul 0 d w6 neg w2 neg d w2 w6 d 0 w2 -2 3 div mul d w2 neg w6 d w6 w2 neg d w2 -2 3 div mul 0 d w6 w2 d w2 neg w6 neg d 0 w2 2 3 div mul d w2 w6 neg d cl s} def
/m45 {mp x y m w6 neg w2 d w2 2 3 div mul 0 d w6 neg w2 neg d w2 w6 d 0 w2 -2 3 div mul d w2 neg w6 d w6 w2 neg d w2 -2 3 div mul 0 d w6 w2 d w2 neg w6 neg d 0 w2 2 3 div mul d w2 w6 neg d cl f} def
/m46 {mp x y w4 add m w4 neg w4 d w4 neg w4 neg d  w4 w4 neg d w4 neg w4 neg d w4 w4 neg d w4 w4 d w4 w4 neg d w4 w4 d w4 neg w4 d w4 w4 d w4 neg w4 d w4 neg w4 neg d cl s} def
/m47 {mp x y w4 add m w4 neg w4 d w4 neg w4 neg d w4 w4 neg d w4 neg w4 neg d  w4 w4 neg d w4 w4 d w4 w4 neg d w4 w4 d w4 neg w4 d w4 w4 d w4 neg w4 d w4 neg w4 neg d cl f} def
/m48 {mp x y w4 add m w4 neg w4 d w4 neg w4 neg d w4 w4 neg d  w4 neg w4 neg d w4 w4 neg d w4 w4 d w4 w4 neg d w4 w4 d w4 neg w4 d w4 w4 d w4 neg w4 d w4 neg w4 neg d  w4 w4 neg d w4 neg w4 neg d w4 neg w4 d w4 w4 d cl f} def
/m49 {mp x w2 sub w3 add y w2 sub w3 add m  0 w3 neg d w3 0 d 0 w3 d w3 0 d 0 w3 d w3 neg 0 d 0 w3 d w3 neg 0 d 0 w3 neg d w3 neg 0 d 0 w3 neg d w3 0 d 0 w3 d w3 0 d 0 w3 neg d w3 neg 0 d cl f } def
/m2 {mp x y w2 sub m 0 w d x w2 sub y m w 0 d s} def
/m5 {mp x w2 sub y w2 sub m w w d x w2 sub y w2 add m w w neg d s} def
%%IncludeResource: ProcSet (FontSetInit)
%%IncludeResource: font Times-Roman
%%IncludeResource: font Times-Italic
%%IncludeResource: font Times-Bold
%%IncludeResource: font Times-BoldItalic
%%IncludeResource: font Helvetica
%%IncludeResource: font Helvetica-Oblique
%%IncludeResource: font Helvetica-Bold
%%IncludeResource: font Helvetica-BoldOblique
%%IncludeResource: font Courier
%%IncludeResource: font Courier-Oblique
%%IncludeResource: font Courier-Bold
%%IncludeResource: font Courier-BoldOblique
%%IncludeResource: font Symbol
%%IncludeResource: font ZapfDingbats
/reEncode {exch findfont dup length dict begin {1 index /FID eq  {pop pop} {def} ifelse } forall /Encoding exch def currentdict end dup /FontName get exch definefont pop } def [/Times-Bold /Times-Italic /Times-BoldItalic /Helvetica /Helvetica-Oblique
 /Helvetica-Bold /Helvetica-BoldOblique /Courier /Courier-Oblique /Courier-Bold /Courier-BoldOblique /Times-Roman /AvantGarde-Book /AvantGarde-BookOblique /AvantGarde-Demi /AvantGarde-DemiOblique /Bookman-Demi /Bookman-DemiItalic /Bookman-Light
 /Bookman-LightItalic /Helvetica-Narrow /Helvetica-Narrow-Bold /Helvetica-Narrow-BoldOblique /Helvetica-Narrow-Oblique /NewCenturySchlbk-Roman /NewCenturySchlbk-Bold /NewCenturySchlbk-BoldItalic /NewCenturySchlbk-Italic /Palatino-Bold
 /Palatino-BoldItalic /Palatino-Italic /Palatino-Roman ] {ISOLatin1Encoding reEncode } forall
%%EndProlog
%%BeginSetup
%%EndSetup
newpath  gsave  .25 .25 scale  gsave  0 0 t 0.490196 0.545098 0.615686 c[  ] 0 sd 3 lw 0.941176 0.941176 0.941176 c 2268 1676 0 0 bf black 1 1 0.992157 c 1796 1140 245 201 bf black 1796 1140 245 201 bl 1 1 0.992157 c 1796 1140 245 201 bf black 1796
 1140 245 201 bl 245 201 m 1796 X s[ 4 8] 0 sd 245 1341 m -1140 Y s 604 1341 m -1140 Y s 963 1341 m -1140 Y s 1323 1341 m -1140 Y s 1682 1341 m -1140 Y s 2041 1341 m -1140 Y s 2041 1341 m -1140 Y s[  ] 0 sd 245 201 m 1140 Y s[ 4 8] 0 sd 2041 215 m
 -1796 X s 2041 340 m -1796 X s 2041 465 m -1796 X s 2041 590 m -1796 X s 2041 716 m -1796 X s 2041 841 m -1796 X s 2041 966 m -1796 X s 2041 1091 m -1796 X s 2041 1216 m -1796 X s 2041 1341 m -1796 X s 2041 215 m -1796 X s 0 0 0.933333 c[  22 12 ] 0
 sd 6 lw 0.49 0.6 0.82 c black 0 0 0.933333 c 245 590 m 101 Y 9 X s 254 691 m 9 X s 263 691 m 95 Y 8 X s 271 786 m 9 X s 280 786 m 1 X 66 Y 8 X s 289 852 m 9 X s 298 852 m 1 X 53 Y 8 X s 307 905 m 8 X s 315 905 m 2 X 40 Y 7 X s 324 945 m 9 X s 333
 945 m 2 X 27 Y 7 X s 342 972 m 9 X s 351 972 m 2 X 21 Y 6 X s 359 993 m 9 X s 368 993 m 3 X 15 Y 6 X s 377 1008 m 9 X s 386 1008 m 3 X 11 Y 6 X s 395 1019 m 8 X s 403 1019 m 3 X 1 9 d 5 X s 412 1028 m 9 X s 421 1028 m 3 X 1 8 d 5 X s 430 1036 m 9 X
 s 439 1036 m 3 X 1 6 d 4 X s 447 1042 m 9 X s 456 1042 m 4 X 1 5 d 4 X s 465 1047 m 9 X s 474 1047 m 4 X 5 Y 5 X s 483 1052 m 8 X s 491 1052 m 5 X 4 Y 4 X s 500 1056 m 9 X s 509 1056 m 5 X 4 Y 4 X s 518 1060 m 9 X s 527 1060 m 5 X 4 Y 3 X s 535 1064
 m 9 X s 544 1064 m 6 X 4 Y 3 X s 553 1068 m 9 X s 562 1068 m 6 X 5 Y 3 X s 571 1073 m 8 X s 579 1073 m 7 X 1 Y 2 X s 588 1074 m 9 X s 597 1074 m 7 X 2 Y 2 X s 606 1076 m 9 X s 615 1076 m 7 X 3 Y 1 X s 623 1079 m 9 X s 632 1079 m 8 X 1 Y 1 X s 641
 1080 m 9 X s 650 1080 m 8 X 4 Y 1 X s 659 1084 m 8 X s 667 1084 m 9 X 1 Y s 676 1085 m 9 X s 685 1085 m 9 X s 694 1085 m 3 Y 9 X s 703 1088 m 8 X s 711 1088 m 1 X 2 Y 8 X s 720 1090 m 9 X s 729 1090 m 9 X s 738 1090 m 9 X s 747 1090 m 1 X 1 Y 7 X s
 755 1091 m 9 X s 764 1091 m 2 X 2 Y 7 X s 773 1093 m 9 X s 782 1093 m 2 X 1 Y 7 X s 791 1094 m 8 X s 799 1094 m 3 X 1 Y 6 X s 808 1095 m 9 X s 817 1095 m 3 X 2 Y 6 X s 826 1097 m 9 X s 835 1097 m 3 X 1 Y 5 X s 843 1098 m 9 X s 852 1098 m 9 X s 861
 1098 m 9 X s 870 1098 m 9 X s 879 1098 m 8 X s 887 1098 m 9 X s 896 1098 m 9 X s 905 1098 m 4 X 1 2 d 4 X s 914 1100 m 9 X s 923 1100 m 4 X -1 Y 4 X s 931 1099 m 9 X s 940 1099 m 5 X -1 Y 4 X s 949 1098 m 9 X s 958 1098 m 5 X -1 Y 4 X s 967 1097 m 8
 X s 975 1097 m 6 X -2 Y 3 X s 984 1095 m 9 X s 993 1095 m 6 X 2 Y 3 X s 1002 1097 m 9 X s 1011 1097 m 6 X -1 Y 2 X s 1019 1096 m 9 X s 1028 1096 m 9 X s 1037 1096 m 9 X s 1046 1096 m 7 X -1 Y 2 X s 1055 1095 m 8 X s 1063 1095 m 9 X s 1072 1095 m 9 X
 s 1081 1095 m 8 X -1 Y 1 X s 1090 1094 m 9 X s 1099 1094 m 8 X -1 Y s 1107 1093 m 9 X s 1116 1093 m 9 X s 1125 1093 m 9 X s 1134 1093 m 9 X s 1143 1093 m -1 Y 8 X s 1151 1092 m 9 X s 1160 1092 m 1 X 1 Y 8 X s 1169 1093 m 9 X s 1178 1093 m 1 X -1 Y 8
 X s 1187 1092 m 8 X s 1195 1092 m 9 X s 1204 1092 m 9 X s 1213 1092 m 9 X s 1222 1092 m 9 X s 1231 1092 m 2 X -1 Y 6 X s 1239 1091 m 9 X s 1248 1091 m 9 X s 1257 1091 m 9 X s 1266 1091 m 3 X -1 Y 6 X s 1275 1090 m 8 X s 1283 1090 m 4 X -1 Y 5 X s
 1292 1089 m 9 X s 1301 1089 m 9 X s 1310 1089 m 9 X s 1319 1089 m 3 X 1 -1 d 4 X s 1327 1088 m 9 X s 1336 1088 m 4 X 1 -2 d 4 X s 1345 1086 m 9 X s 1354 1086 m 9 X s 1363 1086 m 8 X s 1371 1086 m 5 X 1 -1 d 3 X s 1380 1085 m 9 X s 1389 1085 m 5 X -1
 Y 4 X s 1398 1084 m 9 X s 1407 1084 m 5 X 1 Y 3 X s 1415 1085 m 9 X s 1424 1085 m 9 X s 1433 1085 m 9 X s 1442 1085 m 6 X -2 Y 3 X s 1451 1083 m 8 X s 1459 1083 m 7 X -1 Y 2 X s 1468 1082 m 9 X s 1477 1082 m 7 X -2 Y 2 X s 1486 1080 m 9 X s 1495
 1080 m 7 X -2 Y 1 X s 1503 1078 m 9 X s 1512 1078 m 8 X -1 Y 1 X s 1521 1077 m 9 X s 1530 1077 m 9 X s 1539 1077 m 8 X s 1547 1077 m 9 X -2 Y s 1556 1075 m 9 X s 1565 1075 m 9 X s 1574 1075 m -1 Y 9 X s 1583 1074 m 8 X s 1591 1074 m 9 X s 1600 1074
 m 9 X s 1609 1074 m 1 X -2 Y 8 X s 1618 1072 m 9 X s 1627 1072 m 1 X -1 Y 7 X s 1635 1071 m 9 X s 1644 1071 m 2 X -3 Y 7 X s 1653 1068 m 9 X s 1662 1068 m 2 X -2 Y 7 X s 1671 1066 m 8 X s 1679 1066 m 3 X -2 Y 6 X s 1688 1064 m 9 X s 1697 1064 m 3 X
 -3 Y 6 X s 1706 1061 m 9 X s 1715 1061 m 3 X -3 Y 5 X s 1723 1058 m 9 X s 1732 1058 m 4 X -2 Y 5 X s 1741 1056 m 9 X s 1750 1056 m 3 X 1 -3 d 5 X s 1759 1053 m 8 X s 1767 1053 m 4 X 1 -4 d 4 X s 1776 1049 m 9 X s 1785 1049 m 4 X 1 -6 d 4 X s 1794
 1043 m 9 X s 1803 1043 m 4 X 1 -5 d 4 X s 1812 1038 m 8 X s 1820 1038 m 5 X 1 -10 d 3 X s 1829 1028 m 9 X s 1838 1028 m 5 X -15 Y 4 X s 1847 1013 m 9 X s 1856 1013 m 5 X -18 Y 3 X s 1864 995 m 9 X s 1873 995 m 6 X -28 Y 3 X s 1882 967 m 9 X s 1891
 967 m 6 X -38 Y 3 X s 1900 929 m 8 X s 1908 929 m 7 X -45 Y 2 X s 1917 884 m 9 X s 1926 884 m 7 X -56 Y 2 X s 1935 828 m 9 X s 1944 828 m 7 X -54 Y 1 X s 1952 774 m 9 X s 1961 774 m 8 X -66 Y 1 X s 1970 708 m 9 X s 1979 708 m 8 X -82 Y 1 X s 1988
 626 m 8 X s 1996 626 m 9 X -139 Y s 2005 487 m 9 X s 2014 487 m 9 X s 2023 487 m -232 Y 9 X s 2032 255 m 8 X s 2040 255 m 1 X s black[  ] 0 sd 3 lw 245 201 m 1796 X s 245 241 m -40 Y s 335 221 m -20 Y s 425 221 m -20 Y s 514 221 m -20 Y s 604 241 m
 -40 Y s 694 221 m -20 Y s 784 221 m -20 Y s 874 221 m -20 Y s 963 241 m -40 Y s 1053 221 m -20 Y s 1143 221 m -20 Y s 1233 221 m -20 Y s 1323 241 m -40 Y s 1412 221 m -20 Y s 1502 221 m -20 Y s 1592 221 m -20 Y s 1682 241 m -40 Y s 1772 221 m -20 Y
 s 1861 221 m -20 Y s 1951 221 m -20 Y s 2041 241 m -40 Y s 2041 241 m -40 Y s
 gsave  2268 1676 0 0 C 223.738 128.934 t 0 r /Helvetica-Bold findfont 64.4669 sf 0 0 m (0) show NC gr 
 gsave  2268 1676 0 0 C 557.449 128.934 t 0 r /Helvetica-Bold findfont 64.4669 sf 0 0 m (0.2) show NC gr 
 gsave  2268 1676 0 0 C 917.705 128.934 t 0 r /Helvetica-Bold findfont 64.4669 sf 0 0 m (0.4) show NC gr 
 gsave  2268 1676 0 0 C 1274.17 128.934 t 0 r /Helvetica-Bold findfont 64.4669 sf 0 0 m (0.6) show NC gr 
 gsave  2268 1676 0 0 C 1634.42 128.934 t 0 r /Helvetica-Bold findfont 64.4669 sf 0 0 m (0.8) show NC gr 
 gsave  2268 1676 0 0 C 2025.02 128.934 t 0 r /Helvetica-Bold findfont 64.4669 sf 0 0 m (1) show NC gr 
 gsave  2268 1676 0 0 C 913.913 30.3373 t 0 r /Helvetica-Bold findfont 72.0512 sf 0 0 m (Cut value applied on KNN output) show NC gr  245 201 m 1140 Y s 291 215 m -46 X s 268 240 m -23 X s 268 265 m -23 X s 268 290 m -23 X s 268 315 m -23 X s 291 340
 m -46 X s 268 365 m -23 X s 268 390 m -23 X s 268 415 m -23 X s 268 440 m -23 X s 291 465 m -46 X s 268 490 m -23 X s 268 515 m -23 X s 268 540 m -23 X s 268 565 m -23 X s 291 590 m -46 X s 268 615 m -23 X s 268 640 m -23 X s 268 666 m -23 X s 268
 691 m -23 X s 291 716 m -46 X s 268 741 m -23 X s 268 766 m -23 X s 268 791 m -23 X s 268 816 m -23 X s 291 841 m -46 X s 268 866 m -23 X s 268 891 m -23 X s 268 916 m -23 X s 268 941 m -23 X s 291 966 m -46 X s 268 991 m -23 X s 268 1016 m -23 X s
 268 1041 m -23 X s 268 1066 m -23 X s 291 1091 m -46 X s 268 1116 m -23 X s 268 1141 m -23 X s 268 1166 m -23 X s 268 1191 m -23 X s 291 1216 m -46 X s 268 1241 m -23 X s 268 1266 m -23 X s 268 1291 m -23 X s 268 1316 m -23 X s 291 1341 m -46 X s
 291 215 m -46 X s
 gsave  2268 1676 0 0 C 128.934 189.608 t 0 r /Helvetica-Bold findfont 64.4669 sf 0 0 m (0.2) show NC gr 
 gsave  2268 1676 0 0 C 128.934 314.75 t 0 r /Helvetica-Bold findfont 64.4669 sf 0 0 m (0.3) show NC gr 
 gsave  2268 1676 0 0 C 125.142 439.892 t 0 r /Helvetica-Bold findfont 64.4669 sf 0 0 m (0.4) show NC gr 
 gsave  2268 1676 0 0 C 128.934 565.033 t 0 r /Helvetica-Bold findfont 64.4669 sf 0 0 m (0.5) show NC gr 
 gsave  2268 1676 0 0 C 128.934 690.175 t 0 r /Helvetica-Bold findfont 64.4669 sf 0 0 m (0.6) show NC gr 
 gsave  2268 1676 0 0 C 125.142 815.316 t 0 r /Helvetica-Bold findfont 64.4669 sf 0 0 m (0.7) show NC gr 
 gsave  2268 1676 0 0 C 125.142 940.458 t 0 r /Helvetica-Bold findfont 64.4669 sf 0 0 m (0.8) show NC gr 
 gsave  2268 1676 0 0 C 128.934 1065.6 t 0 r /Helvetica-Bold findfont 64.4669 sf 0 0 m (0.9) show NC gr 
 gsave  2268 1676 0 0 C 189.608 1190.74 t 0 r /Helvetica-Bold findfont 64.4669 sf 0 0 m (1) show NC gr 
 gsave  2268 1676 0 0 C 136.518 1315.88 t 0 r /Helvetica-Bold findfont 64.4669 sf 0 0 m (1.1) show NC gr 
 gsave  2268 1676 0 0 C 64.4669 731.888 t 90 r /Helvetica-Bold findfont 72.0512 sf 0 0 m (Efficiency \(Purity\)) show NC gr  0 0 0.933333 c[  52 12 ] 0 sd 6 lw 0.49 0.6 0.82 c black 0 0 0.933333 c 245 590 m 102 Y 9 X s 254 692 m 9 X s 263 692 m 99 Y
 8 X s 271 791 m 9 X s 280 791 m 1 X 69 Y 8 X s 289 860 m 9 X s 298 860 m 1 X 56 Y 8 X s 307 916 m 8 X s 315 916 m 2 X 43 Y 7 X s 324 959 m 9 X s 333 959 m 2 X 29 Y 7 X s 342 988 m 9 X s 351 988 m 2 X 22 Y 6 X s 359 1010 m 9 X s 368 1010 m 3 X 17 Y 6
 X s 377 1027 m 9 X s 386 1027 m 3 X 13 Y 6 X s 395 1040 m 8 X s 403 1040 m 3 X 1 10 d 5 X s 412 1050 m 9 X s 421 1050 m 3 X 1 9 d 5 X s 430 1059 m 9 X s 439 1059 m 3 X 1 7 d 4 X s 447 1066 m 9 X s 456 1066 m 4 X 1 6 d 4 X s 465 1072 m 9 X s 474 1072
 m 4 X 7 Y 5 X s 483 1079 m 8 X s 491 1079 m 5 X 5 Y 4 X s 500 1084 m 9 X s 509 1084 m 5 X 5 Y 4 X s 518 1089 m 9 X s 527 1089 m 5 X 6 Y 3 X s 535 1095 m 9 X s 544 1095 m 6 X 5 Y 3 X s 553 1100 m 9 X s 562 1100 m 6 X 6 Y 3 X s 571 1106 m 8 X s 579
 1106 m 7 X 3 Y 2 X s 588 1109 m 9 X s 597 1109 m 7 X 4 Y 2 X s 606 1113 m 9 X s 615 1113 m 7 X 4 Y 1 X s 623 1117 m 9 X s 632 1117 m 8 X 2 Y 1 X s 641 1119 m 9 X s 650 1119 m 8 X 5 Y 1 X s 659 1124 m 8 X s 667 1124 m 9 X 3 Y s 676 1127 m 9 X s 685
 1127 m 9 X s 694 1127 m 3 Y 9 X s 703 1130 m 8 X s 711 1130 m 1 X 5 Y 8 X s 720 1135 m 9 X s 729 1135 m 1 X 2 Y 8 X s 738 1137 m 9 X s 747 1137 m 1 X 2 Y 7 X s 755 1139 m 9 X s 764 1139 m 2 X 2 Y 7 X s 773 1141 m 9 X s 782 1141 m 2 X 2 Y 7 X s 791
 1143 m 8 X s 799 1143 m 3 X 2 Y 6 X s 808 1145 m 9 X s 817 1145 m 3 X 4 Y 6 X s 826 1149 m 9 X s 835 1149 m 3 X 1 Y 5 X s 843 1150 m 9 X s 852 1150 m 3 X 1 2 d 5 X s 861 1152 m 9 X s 870 1152 m 3 X 1 1 d 5 X s 879 1153 m 8 X s 887 1153 m 4 X 1 1 d 4
 X s 896 1154 m 9 X s 905 1154 m 4 X 1 2 d 4 X s 914 1156 m 9 X s 923 1156 m 4 X 1 Y 4 X s 931 1157 m 9 X s 940 1157 m 5 X 1 Y 4 X s 949 1158 m 9 X s 958 1158 m 9 X s 967 1158 m 8 X s 975 1158 m 9 X s 984 1158 m 9 X s 993 1158 m 6 X 2 Y 3 X s 1002
 1160 m 9 X s 1011 1160 m 6 X 1 Y 2 X s 1019 1161 m 9 X s 1028 1161 m 7 X 2 Y 2 X s 1037 1163 m 9 X s 1046 1163 m 9 X s 1055 1163 m 8 X s 1063 1163 m 8 X 1 Y 1 X s 1072 1164 m 9 X s 1081 1164 m 8 X 1 Y 1 X s 1090 1165 m 9 X s 1099 1165 m 8 X s 1107
 1165 m 9 X s 1116 1165 m 9 X 1 Y s 1125 1166 m 9 X s 1134 1166 m 9 X s 1143 1166 m 1 Y 8 X s 1151 1167 m 9 X s 1160 1167 m 1 X 2 Y 8 X s 1169 1169 m 9 X s 1178 1169 m 9 X s 1187 1169 m 8 X s 1195 1169 m 2 X 1 Y 7 X s 1204 1170 m 9 X s 1213 1170 m 9
 X s 1222 1170 m 9 X s 1231 1170 m 2 X 1 Y 6 X s 1239 1171 m 9 X s 1248 1171 m 3 X 1 Y 6 X s 1257 1172 m 9 X s 1266 1172 m 9 X s 1275 1172 m 8 X s 1283 1172 m 9 X s 1292 1172 m 9 X s 1301 1172 m 3 X 1 1 d 5 X s 1310 1173 m 9 X s 1319 1173 m 3 X 1 1 d
 4 X s 1327 1174 m 9 X s 1336 1174 m 9 X s 1345 1174 m 9 X s 1354 1174 m 4 X 1 1 d 4 X s 1363 1175 m 8 X s 1371 1175 m 9 X s 1380 1175 m 9 X s 1389 1175 m 5 X 1 Y 4 X s 1398 1176 m 9 X s 1407 1176 m 5 X 1 Y 3 X s 1415 1177 m 9 X s 1424 1177 m 6 X 1 Y
 3 X s 1433 1178 m 9 X s 1442 1178 m 9 X s 1451 1178 m 8 X s 1459 1178 m 9 X s 1468 1178 m 9 X s 1477 1178 m 7 X 1 Y 2 X s 1486 1179 m 9 X s 1495 1179 m 8 X s 1503 1179 m 9 X s 1512 1179 m 9 X s 1521 1179 m 9 X s 1530 1179 m 8 X 1 Y 1 X s 1539 1180 m
 8 X s 1547 1180 m 9 X 1 Y s 1556 1181 m 9 X s 1565 1181 m 9 X s 1574 1181 m 9 X s 1583 1181 m 8 X s 1591 1181 m 1 X 2 Y 8 X s 1600 1183 m 9 X s 1609 1183 m 9 X s 1618 1183 m 9 X s 1627 1183 m 1 X 1 Y 7 X s 1635 1184 m 9 X s 1644 1184 m 9 X s 1653
 1184 m 9 X s 1662 1184 m 9 X s 1671 1184 m 8 X s 1679 1184 m 9 X s 1688 1184 m 9 X s 1697 1184 m 3 X 1 Y 6 X s 1706 1185 m 9 X s 1715 1185 m 8 X s 1723 1185 m 9 X s 1732 1185 m 4 X 2 Y 5 X s 1741 1187 m 9 X s 1750 1187 m 9 X s 1759 1187 m 8 X s 1767
 1187 m 4 X 1 1 d 4 X s 1776 1188 m 9 X s 1785 1188 m 4 X 1 -1 d 4 X s 1794 1187 m 9 X s 1803 1187 m 4 X 1 1 d 4 X s 1812 1188 m 8 X s 1820 1188 m 9 X s 1829 1188 m 9 X s 1838 1188 m 9 X s 1847 1188 m 9 X s 1856 1188 m 5 X 1 Y 3 X s 1864 1189 m 9 X s
 1873 1189 m 6 X 2 Y 3 X s 1882 1191 m 9 X s 1891 1191 m 6 X 1 Y 3 X s 1900 1192 m 8 X s 1908 1192 m 7 X 4 Y 2 X s 1917 1196 m 9 X s 1926 1196 m 7 X 1 Y 2 X s 1935 1197 m 9 X s 1944 1197 m 7 X 2 Y 1 X s 1952 1199 m 9 X s 1961 1199 m 8 X 3 Y 1 X s
 1970 1202 m 9 X s 1979 1202 m 8 X 2 Y 1 X s 1988 1204 m 8 X s 1996 1204 m 9 X 1 Y s 2005 1205 m 9 X s 2014 1205 m 9 X s 2023 1205 m 9 X s 2032 1205 m 8 X s 2040 1205 m 1 X s[  ] 0 sd 9 lw 0.49 0.6 0.82 c black 0 0 0.933333 c 245 1216 m -3 Y 9 X s
 254 1213 m 9 X s 263 1213 m -4 Y 8 X s 271 1209 m 9 X s 280 1209 m 1 X -5 Y 8 X s 289 1204 m 9 X s 298 1204 m 1 X -3 Y 8 X s 307 1201 m 8 X s 315 1201 m 2 X -2 Y 7 X s 324 1199 m 9 X s 333 1199 m 2 X -2 Y 7 X s 342 1197 m 9 X s 351 1197 m 2 X -2 Y 6
 X s 359 1195 m 9 X s 368 1195 m 3 X -2 Y 6 X s 377 1193 m 9 X s 386 1193 m 3 X -1 Y 6 X s 395 1192 m 8 X s 403 1192 m 3 X 1 -2 d 5 X s 412 1190 m 9 X s 421 1190 m 9 X s 430 1190 m 9 X s 439 1190 m 3 X 1 -2 d 4 X s 447 1188 m 9 X s 456 1188 m 4 X 1
 -1 d 4 X s 465 1187 m 9 X s 474 1187 m 4 X -1 Y 5 X s 483 1186 m 8 X s 491 1186 m 5 X -1 Y 4 X s 500 1185 m 9 X s 509 1185 m 5 X -2 Y 4 X s 518 1183 m 9 X s 527 1183 m 5 X -1 Y 3 X s 535 1182 m 9 X s 544 1182 m 6 X -1 Y 3 X s 553 1181 m 9 X s 562
 1181 m 6 X -2 Y 3 X s 571 1179 m 8 X s 579 1179 m 7 X -1 Y 2 X s 588 1178 m 9 X s 597 1178 m 7 X -2 Y 2 X s 606 1176 m 9 X s 615 1176 m 7 X -1 Y 1 X s 623 1175 m 9 X s 632 1175 m 8 X -2 Y 1 X s 641 1173 m 9 X s 650 1173 m 8 X -1 Y 1 X s 659 1172 m 8
 X s 667 1172 m 9 X -1 Y s 676 1171 m 9 X s 685 1171 m 9 X s 694 1171 m -1 Y 9 X s 703 1170 m 8 X s 711 1170 m 1 X -1 Y 8 X s 720 1169 m 9 X s 729 1169 m 1 X -3 Y 8 X s 738 1166 m 9 X s 747 1166 m 1 X -1 Y 7 X s 755 1165 m 9 X s 764 1165 m 9 X s 773
 1165 m 9 X s 782 1165 m 2 X -1 Y 7 X s 791 1164 m 8 X s 799 1164 m 3 X -2 Y 6 X s 808 1162 m 9 X s 817 1162 m 3 X -1 Y 6 X s 826 1161 m 9 X s 835 1161 m 3 X -1 Y 5 X s 843 1160 m 9 X s 852 1160 m 3 X 1 -1 d 5 X s 861 1159 m 9 X s 870 1159 m 3 X 1 -1
 d 5 X s 879 1158 m 8 X s 887 1158 m 4 X 1 -1 d 4 X s 896 1157 m 9 X s 905 1157 m 4 X 1 -1 d 4 X s 914 1156 m 9 X s 923 1156 m 4 X -1 Y 4 X s 931 1155 m 9 X s 940 1155 m 5 X -2 Y 4 X s 949 1153 m 9 X s 958 1153 m 5 X -1 Y 4 X s 967 1152 m 8 X s 975
 1152 m 6 X -2 Y 3 X s 984 1150 m 9 X s 993 1150 m 6 X -1 Y 3 X s 1002 1149 m 9 X s 1011 1149 m 6 X -1 Y 2 X s 1019 1148 m 9 X s 1028 1148 m 7 X -2 Y 2 X s 1037 1146 m 9 X s 1046 1146 m 7 X -1 Y 2 X s 1055 1145 m 8 X s 1063 1145 m 8 X -1 Y 1 X s 1072
 1144 m 9 X s 1081 1144 m 8 X -2 Y 1 X s 1090 1142 m 9 X s 1099 1142 m 8 X -1 Y s 1107 1141 m 9 X s 1116 1141 m 9 X -2 Y s 1125 1139 m 9 X s 1134 1139 m 9 X s 1143 1139 m -1 Y 8 X s 1151 1138 m 9 X s 1160 1138 m 1 X -1 Y 8 X s 1169 1137 m 9 X s 1178
 1137 m 1 X -2 Y 8 X s 1187 1135 m 8 X s 1195 1135 m 9 X s 1204 1135 m 9 X s 1213 1135 m 2 X -1 Y 7 X s 1222 1134 m 9 X s 1231 1134 m 2 X -1 Y 6 X s 1239 1133 m 9 X s 1248 1133 m 3 X -1 Y 6 X s 1257 1132 m 9 X s 1266 1132 m 3 X -1 Y 6 X s 1275 1131 m
 8 X s 1283 1131 m 4 X -1 Y 5 X s 1292 1130 m 9 X s 1301 1130 m 3 X 1 -1 d 5 X s 1310 1129 m 9 X s 1319 1129 m 3 X 1 -2 d 4 X s 1327 1127 m 9 X s 1336 1127 m 4 X 1 -2 d 4 X s 1345 1125 m 9 X s 1354 1125 m 4 X 1 -1 d 4 X s 1363 1124 m 8 X s 1371 1124
 m 5 X 1 -1 d 3 X s 1380 1123 m 9 X s 1389 1123 m 5 X -2 Y 4 X s 1398 1121 m 9 X s 1407 1121 m 8 X s 1415 1121 m 9 X s 1424 1121 m 6 X -1 Y 3 X s 1433 1120 m 9 X s 1442 1120 m 6 X -2 Y 3 X s 1451 1118 m 8 X s 1459 1118 m 7 X -1 Y 2 X s 1468 1117 m 9
 X s 1477 1117 m 7 X -3 Y 2 X s 1486 1114 m 9 X s 1495 1114 m 7 X -2 Y 1 X s 1503 1112 m 9 X s 1512 1112 m 8 X -1 Y 1 X s 1521 1111 m 9 X s 1530 1111 m 8 X -2 Y 1 X s 1539 1109 m 8 X s 1547 1109 m 9 X -2 Y s 1556 1107 m 9 X s 1565 1107 m 9 X s 1574
 1107 m -2 Y 9 X s 1583 1105 m 8 X s 1591 1105 m 1 X -1 Y 8 X s 1600 1104 m 9 X s 1609 1104 m 1 X -2 Y 8 X s 1618 1102 m 9 X s 1627 1102 m 1 X -2 Y 7 X s 1635 1100 m 9 X s 1644 1100 m 2 X -3 Y 7 X s 1653 1097 m 9 X s 1662 1097 m 2 X -3 Y 7 X s 1671
 1094 m 8 X s 1679 1094 m 3 X -2 Y 6 X s 1688 1092 m 9 X s 1697 1092 m 3 X -3 Y 6 X s 1706 1089 m 9 X s 1715 1089 m 3 X -3 Y 5 X s 1723 1086 m 9 X s 1732 1086 m 4 X -4 Y 5 X s 1741 1082 m 9 X s 1750 1082 m 3 X 1 -3 d 5 X s 1759 1079 m 8 X s 1767 1079
 m 4 X 1 -5 d 4 X s 1776 1074 m 9 X s 1785 1074 m 4 X 1 -6 d 4 X s 1794 1068 m 9 X s 1803 1068 m 4 X 1 -6 d 4 X s 1812 1062 m 8 X s 1820 1062 m 5 X 1 -10 d 3 X s 1829 1052 m 9 X s 1838 1052 m 5 X -16 Y 4 X s 1847 1036 m 9 X s 1856 1036 m 5 X -19 Y 3
 X s 1864 1017 m 9 X s 1873 1017 m 6 X -30 Y 3 X s 1882 987 m 9 X s 1891 987 m 6 X -40 Y 3 X s 1900 947 m 8 X s 1908 947 m 7 X -48 Y 2 X s 1917 899 m 9 X s 1926 899 m 7 X -58 Y 2 X s 1935 841 m 9 X s 1944 841 m 7 X -57 Y 1 X s 1952 784 m 9 X s 1961
 784 m 8 X -67 Y 1 X s 1970 717 m 9 X s 1979 717 m 8 X -85 Y 1 X s 1988 632 m 8 X s 1996 632 m 9 X -140 Y s 2005 492 m 9 X s 2014 492 m 9 X s 2023 492 m -234 Y 9 X s 2032 258 m 8 X s 2040 258 m 1 X s 1 0 0 c black 1 0 0 c 245 1216 m -353 Y 9 X s 254
 863 m 9 X s 263 863 m -257 Y 8 X s 271 606 m 9 X s 280 606 m 1 X -148 Y 8 X s 289 458 m 9 X s 298 458 m 1 X -103 Y 8 X s 307 355 m 8 X s 315 355 m 2 X -71 Y 7 X s 324 284 m 9 X s 333 284 m 2 X -44 Y 7 X s 342 240 m 9 X s 351 240 m 2 X -33 Y 6 X s
 359 207 m 9 X s 368 207 m 3 X -6 Y s 0 0.666667 0 c 1 1 1 c black 0 0.666667 0 c 245 894 m 71 Y 9 X s 254 965 m 9 X s 263 965 m 64 Y 8 X s 271 1029 m 9 X s 280 1029 m 1 X 42 Y 8 X s 289 1071 m 9 X s 298 1071 m 1 X 32 Y 8 X s 307 1103 m 8 X s 315
 1103 m 2 X 25 Y 7 X s 324 1128 m 9 X s 333 1128 m 2 X 15 Y 7 X s 342 1143 m 9 X s 351 1143 m 2 X 13 Y 6 X s 359 1156 m 9 X s 368 1156 m 3 X 8 Y 6 X s 377 1164 m 9 X s 386 1164 m 3 X 6 Y 6 X s 395 1170 m 8 X s 403 1170 m 3 X 1 5 d 5 X s 412 1175 m 9
 X s 421 1175 m 3 X 1 5 d 5 X s 430 1180 m 9 X s 439 1180 m 3 X 1 4 d 4 X s 447 1184 m 9 X s 456 1184 m 4 X 1 2 d 4 X s 465 1186 m 9 X s 474 1186 m 4 X 3 Y 5 X s 483 1189 m 8 X s 491 1189 m 5 X 2 Y 4 X s 500 1191 m 9 X s 509 1191 m 5 X 3 Y 4 X s 518
 1194 m 9 X s 527 1194 m 5 X 2 Y 3 X s 535 1196 m 9 X s 544 1196 m 6 X 2 Y 3 X s 553 1198 m 9 X s 562 1198 m 6 X 3 Y 3 X s 571 1201 m 8 X s 579 1201 m 7 X 1 Y 2 X s 588 1202 m 9 X s 597 1202 m 7 X 1 Y 2 X s 606 1203 m 9 X s 615 1203 m 7 X 1 Y 1 X s
 623 1204 m 9 X s 632 1204 m 8 X 1 Y 1 X s 641 1205 m 9 X s 650 1205 m 8 X 2 Y 1 X s 659 1207 m 8 X s 667 1207 m 9 X s 676 1207 m 9 X s 685 1207 m 9 X s 694 1207 m 2 Y 9 X s 703 1209 m 8 X s 711 1209 m 1 X 2 Y 8 X s 720 1211 m 9 X s 729 1211 m 9 X s
 738 1211 m 9 X s 747 1211 m 8 X s 755 1211 m 9 X s 764 1211 m 2 X 1 Y 7 X s 773 1212 m 9 X s 782 1212 m 2 X 1 Y 7 X s 791 1213 m 8 X s 799 1213 m 9 X s 808 1213 m 9 X s 817 1213 m 3 X 2 Y 6 X s 826 1215 m 9 X s 835 1215 m 8 X s 843 1215 m 9 X s 852
 1215 m 9 X s 861 1215 m 9 X s 870 1215 m 9 X s 879 1215 m 8 X s 887 1215 m 9 X s 896 1215 m 9 X s 905 1215 m 4 X 1 1 d 4 X s 914 1216 m 9 X s 923 1216 m 4 X -1 Y 4 X s 931 1215 m 9 X s 940 1215 m 9 X s 949 1215 m 9 X s 958 1215 m 9 X s 967 1215 m 8
 X s 975 1215 m 6 X -2 Y 3 X s 984 1213 m 9 X s 993 1213 m 6 X 1 Y 3 X s 1002 1214 m 9 X s 1011 1214 m 8 X s 1019 1214 m 9 X s 1028 1214 m 9 X s 1037 1214 m 9 X s 1046 1214 m 7 X -1 Y 2 X s 1055 1213 m 8 X s 1063 1213 m 9 X s 1072 1213 m 9 X s 1081
 1213 m 8 X -1 Y 1 X s 1090 1212 m 9 X s 1099 1212 m 8 X s 1107 1212 m 9 X s 1116 1212 m 9 X s 1125 1212 m 9 X s 1134 1212 m 9 X s 1143 1212 m -1 Y 8 X s 1151 1211 m 9 X s 1160 1211 m 1 X 1 Y 8 X s 1169 1212 m 9 X s 1178 1212 m 9 X s 1187 1212 m 8 X
 s 1195 1212 m 2 X -1 Y 7 X s 1204 1211 m 9 X s 1213 1211 m 9 X s 1222 1211 m 9 X s 1231 1211 m 8 X s 1239 1211 m 9 X s 1248 1211 m 9 X s 1257 1211 m 9 X s 1266 1211 m 3 X -1 Y 6 X s 1275 1210 m 8 X s 1283 1210 m 9 X s 1292 1210 m 9 X s 1301 1210 m 9
 X s 1310 1210 m 9 X s 1319 1210 m 8 X s 1327 1210 m 9 X s 1336 1210 m 4 X 1 -2 d 4 X s 1345 1208 m 9 X s 1354 1208 m 9 X s 1363 1208 m 8 X s 1371 1208 m 9 X s 1380 1208 m 9 X s 1389 1208 m 5 X -1 Y 4 X s 1398 1207 m 9 X s 1407 1207 m 5 X 1 Y 3 X s
 1415 1208 m 9 X s 1424 1208 m 9 X s 1433 1208 m 9 X s 1442 1208 m 6 X -1 Y 3 X s 1451 1207 m 8 X s 1459 1207 m 7 X -1 Y 2 X s 1468 1206 m 9 X s 1477 1206 m 7 X -1 Y 2 X s 1486 1205 m 9 X s 1495 1205 m 7 X -1 Y 1 X s 1503 1204 m 9 X s 1512 1204 m 8 X
 -1 Y 1 X s 1521 1203 m 9 X s 1530 1203 m 9 X s 1539 1203 m 8 X s 1547 1203 m 9 X -1 Y s 1556 1202 m 9 X s 1565 1202 m 9 X s 1574 1202 m -1 Y 9 X s 1583 1201 m 8 X s 1591 1201 m 9 X s 1600 1201 m 9 X s 1609 1201 m 9 X s 1618 1201 m 9 X s 1627 1201 m
 1 X -1 Y 7 X s 1635 1200 m 9 X s 1644 1200 m 2 X -2 Y 7 X s 1653 1198 m 9 X s 1662 1198 m 2 X -1 Y 7 X s 1671 1197 m 8 X s 1679 1197 m 3 X -1 Y 6 X s 1688 1196 m 9 X s 1697 1196 m 3 X -2 Y 6 X s 1706 1194 m 9 X s 1715 1194 m 3 X -1 Y 5 X s 1723 1193
 m 9 X s 1732 1193 m 4 X -2 Y 5 X s 1741 1191 m 9 X s 1750 1191 m 3 X 1 -1 d 5 X s 1759 1190 m 8 X s 1767 1190 m 4 X 1 -3 d 4 X s 1776 1187 m 9 X s 1785 1187 m 4 X 1 -3 d 4 X s 1794 1184 m 9 X s 1803 1184 m 4 X 1 -3 d 4 X s 1812 1181 m 8 X s 1820
 1181 m 5 X 1 -5 d 3 X s 1829 1176 m 9 X s 1838 1176 m 5 X -9 Y 4 X s 1847 1167 m 9 X s 1856 1167 m 5 X -10 Y 3 X s 1864 1157 m 9 X s 1873 1157 m 6 X -17 Y 3 X s 1882 1140 m 9 X s 1891 1140 m 6 X -22 Y 3 X s 1900 1118 m 8 X s 1908 1118 m 7 X -28 Y 2
 X s 1917 1090 m 9 X s 1926 1090 m 7 X -34 Y 2 X s 1935 1056 m 9 X s 1944 1056 m 7 X -35 Y 1 X s 1952 1021 m 9 X s 1961 1021 m 8 X -44 Y 1 X s 1970 977 m 9 X s 1979 977 m 8 X -58 Y 1 X s 1988 919 m 8 X s 1996 919 m 9 X -106 Y s 2005 813 m 9 X s 2014
 813 m 9 X s 2023 813 m -215 Y 9 X s 2032 598 m 8 X s 2040 598 m 1 X s black 3 lw 245 201 m 1796 X s 245 241 m -40 Y s 335 221 m -20 Y s 425 221 m -20 Y s 514 221 m -20 Y s 604 241 m -40 Y s 694 221 m -20 Y s 784 221 m -20 Y s 874 221 m -20 Y s 963
 241 m -40 Y s 1053 221 m -20 Y s 1143 221 m -20 Y s 1233 221 m -20 Y s 1323 241 m -40 Y s 1412 221 m -20 Y s 1502 221 m -20 Y s 1592 221 m -20 Y s 1682 241 m -40 Y s 1772 221 m -20 Y s 1861 221 m -20 Y s 1951 221 m -20 Y s 2041 241 m -40 Y s 2041
 241 m -40 Y s 245 201 m 1140 Y s 291 215 m -46 X s 268 240 m -23 X s 268 265 m -23 X s 268 290 m -23 X s 268 315 m -23 X s 291 340 m -46 X s 268 365 m -23 X s 268 390 m -23 X s 268 415 m -23 X s 268 440 m -23 X s 291 465 m -46 X s 268 490 m -23 X s
 268 515 m -23 X s 268 540 m -23 X s 268 565 m -23 X s 291 590 m -46 X s 268 615 m -23 X s 268 640 m -23 X s 268 666 m -23 X s 268 691 m -23 X s 291 716 m -46 X s 268 741 m -23 X s 268 766 m -23 X s 268 791 m -23 X s 268 816 m -23 X s 291 841 m -46 X
 s 268 866 m -23 X s 268 891 m -23 X s 268 916 m -23 X s 268 941 m -23 X s 291 966 m -46 X s 268 991 m -23 X s 268 1016 m -23 X s 268 1041 m -23 X s 268 1066 m -23 X s 291 1091 m -46 X s 268 1116 m -23 X s 268 1141 m -23 X s 268 1166 m -23 X s 268
 1191 m -23 X s 291 1216 m -46 X s 268 1241 m -23 X s 268 1266 m -23 X s 268 1291 m -23 X s 268 1316 m -23 X s 291 1341 m -46 X s 291 215 m -46 X s 0.490196 0.545098 0.615686 c 1 1 1 c 0.490196 0.545098 0.615686 c 907 201 245 1341 bl 245 1341 m 907 X
 s 1152 1341 m 201 Y s 1152 1542 m -907 X s 245 1542 m -201 Y s black
 gsave  2268 1676 0 0 C 515.735 1471.36 t 0 r /Helvetica-Bold findfont 56.8825 sf 0 0 m (Signal efficiency) show NC gr  0 0 0.933333 c 9 lw 286 1492 m 190 X s black
 gsave  2268 1676 0 0 C 515.735 1368.97 t 0 r /Helvetica-Bold findfont 56.8825 sf 0 0 m (Background efficiency) show NC gr  1 0 0 c 286 1391 m 190 X s 0.490196 0.545098 0.615686 c 3 lw 1 1 1 c 0.490196 0.545098 0.615686 c 889 201 1152 1341 bl 1152
 1341 m 889 X s 2041 1341 m 201 Y s 2041 1542 m -889 X s 1152 1542 m -201 Y s black
 gsave  2268 1676 0 0 C 1418.27 1494.11 t 0 r /Helvetica-Bold findfont 56.8825 sf 0 0 m (Signal purity) show NC gr  0 0 0.933333 c[  52 12 ] 0 sd 6 lw 1192 1509 m 187 X s black
 gsave  2268 1676 0 0 C 1418.27 1429.65 t 0 r /Helvetica-Bold findfont 56.8825 sf 0 0 m (Signal efficiency*purity) show NC gr  0 0 0.933333 c[  22 12 ] 0 sd 1192 1441 m 187 X s black
 gsave  2268 1676 0 0 C 1501.7 1361.39 t 0 r /Helvetica-Bold findfont 56.8825 sf 0 0 m (S+B) show NC gr [  ] 0 sd 1483 1407 m 7 -49 d s 3 lw 1490 1358 m 8 64 d s 1498 1422 m 114 X s
 gsave  2268 1676 0 0 C 1418.27 1361.39 t 0 r /Helvetica-Bold findfont 56.8825 sf 0 0 m (S/) show NC gr  0 0.666667 0 c 9 lw 1192 1374 m 187 X s black 3 lw 245 1216 m 1796 X s
 gsave  2268 1676 0 0 C 337.503 386.801 t 0 r /Helvetica-Bold findfont 53.0904 sf 0 0 m (For 1000 signal and 1000 background) show NC gr 
 gsave  2268 1676 0 0 C 1058.01 318.542 t 0 r /Helvetica-Bold findfont 53.0904 sf 0 0 m ( is) show NC gr 
 gsave  2268 1676 0 0 C 955.626 318.542 t 0 r /Helvetica-Bold findfont 53.0904 sf 0 0 m (S+B) show NC gr  6 lw 933 360 m 7 -45 d s 3 lw 940 315 m 8 60 d s 948 375 m 110 X s
 gsave  2268 1676 0 0 C 337.503 318.542 t 0 r /Helvetica-Bold findfont 53.0904 sf 0 0 m (events the maximum S/) show NC gr 
 gsave  2268 1676 0 0 C 337.503 254.075 t 0 r /Helvetica-Bold findfont 53.0904 sf 0 0 m (30.12 when cutting at  0.37) show NC gr  0.490196 0.545098 0.615686 c 0.364706 0.419608 0.490196 c 1471 96 23 1572 bf 0.490196 0.545098 0.615686 c 23 1572 m 1471
 X s 1494 1572 m 96 Y s 1494 1668 m -1471 X s 23 1668 m -96 Y s 1 1 1 c black 1 1 1 c
 gsave  2268 1676 0 0 C 75.8434 1600.29 t 0 r /Helvetica-Bold findfont 75.8434 sf 0 0 m (Cut efficiencies and optimal cut value) show NC gr  0 0.666667 0 c 2041 201 m 1140 Y s 1995 201 m 46 X s 2018 236 m 23 X s 2018 270 m 23 X s 2018 304 m 23 X s
 2018 339 m 23 X s 1995 373 m 46 X s 2018 408 m 23 X s 2018 442 m 23 X s 2018 476 m 23 X s 2018 511 m 23 X s 1995 545 m 46 X s 2018 580 m 23 X s 2018 614 m 23 X s 2018 648 m 23 X s 2018 683 m 23 X s 1995 717 m 46 X s 2018 752 m 23 X s 2018 786 m 23 X
 s 2018 820 m 23 X s 2018 855 m 23 X s 1995 889 m 46 X s 2018 924 m 23 X s 2018 958 m 23 X s 2018 992 m 23 X s 2018 1027 m 23 X s 1995 1061 m 46 X s 2018 1096 m 23 X s 2018 1130 m 23 X s 2018 1164 m 23 X s 2018 1199 m 23 X s 1995 1233 m 46 X s 1995
 1233 m 46 X s 2018 1268 m 23 X s 2018 1302 m 23 X s 2018 1336 m 23 X s black 0 0.666667 0 c
 gsave  2268 1676 0 0 C 2051.56 178.232 t 0 r /Helvetica-Bold findfont 64.4669 sf 0 0 m (0) show NC gr  black 0 0.666667 0 c
 gsave  2268 1676 0 0 C 2051.56 348.879 t 0 r /Helvetica-Bold findfont 64.4669 sf 0 0 m (5) show NC gr  black 0 0.666667 0 c
 gsave  2268 1676 0 0 C 2051.56 519.527 t 0 r /Helvetica-Bold findfont 64.4669 sf 0 0 m (10) show NC gr  black 0 0.666667 0 c
 gsave  2268 1676 0 0 C 2051.56 693.967 t 0 r /Helvetica-Bold findfont 64.4669 sf 0 0 m (15) show NC gr  black 0 0.666667 0 c
 gsave  2268 1676 0 0 C 2051.56 864.614 t 0 r /Helvetica-Bold findfont 64.4669 sf 0 0 m (20) show NC gr  black 0 0.666667 0 c
 gsave  2268 1676 0 0 C 2051.56 1035.26 t 0 r /Helvetica-Bold findfont 64.4669 sf 0 0 m (25) show NC gr  black 0 0.666667 0 c
 gsave  2268 1676 0 0 C 2051.56 1209.7 t 0 r /Helvetica-Bold findfont 64.4669 sf 0 0 m (30) show NC gr  black 0 0.666667 0 c
 gsave  2268 1676 0 0 C 2203.25 963.211 t 90 r /Helvetica-Bold findfont 64.4669 sf 0 0 m (Significance) show NC gr 
 gr  gr showpage
end
%%EOF
