%!PS-Adobe-2.0 EPSF-2.0
%%BoundingBox:  0 0 567 419
%%Title: dataset/plots/mvaeffs_KNN.eps: Cut efficiencies for KNN classifier
%%Creator: ROOT Version 6.16/00
%%CreationDate: Tue May 14 16:23:22 2019
%%DocumentNeededResources: ProcSet (FontSetInit)
%%EndComments
%%BeginProlog
80 dict begin
/s {stroke} def /l {lineto} def /m {moveto} def /t {translate} def
/r {rotate} def /rl {roll}  def /R {repeat} def
/d {rlineto} def /rm {rmoveto} def /gr {grestore} def /f {eofill} def
/c {setrgbcolor} def /black {0 setgray} def /sd {setdash} def
/cl {closepath} def /sf {scalefont setfont} def /lw {setlinewidth} def
/box {m dup 0 exch d exch 0 d 0 exch neg d cl} def
/NC{systemdict begin initclip end}def/C{NC box clip newpath}def
/bl {box s} def /bf {gsave box gsave f grestore 1 lw [] 0 sd s grestore} def /Y { 0 exch d} def /X { 0 d} def 
/K {{pop pop 0 moveto} exch kshow} bind def
/ita {/ang 15 def gsave [1 0 ang dup sin exch cos div 1 0 0] concat} def 
/mp {newpath /y exch def /x exch def} def
/side {[w .77 mul w .23 mul] .385 w mul sd w 0 l currentpoint t -144 r} def
/mr {mp x y w2 0 360 arc} def /m24 {mr s} def /m20 {mr f} def
/mb {mp x y w2 add m w2 neg 0 d 0 w neg d w 0 d 0 w d cl} def
/mt {mp x y w2 add m w2 neg w neg d w 0 d cl} def
/w4 {w 4 div} def
/w6 {w 6 div} def
/w8 {w 8 div} def
/m21 {mb f} def /m25 {mb s} def /m22 {mt f} def /m26{mt s} def
/m23 {mp x y w2 sub m w2 w d w neg 0 d cl f} def
/m27 {mp x y w2 add m w3 neg w2 neg d w3 w2 neg d w3 w2 d cl s} def
/m28 {mp x w2 sub y w2 sub w3 add m w3 0 d  0 w3 neg d w3 0 d 0 w3 d w3 0 d  0 w3 d w3 neg 0 d 0 w3 d w3 neg 0 d 0 w3 neg d w3 neg 0 d cl s } def
/m29 {mp gsave x w2 sub y w2 add w3 sub m currentpoint t 4 {side} repeat cl fill gr} def
/m30 {mp gsave x w2 sub y w2 add w3 sub m currentpoint t 4 {side} repeat cl s gr} def
/m31 {mp x y w2 sub m 0 w d x w2 sub y m w 0 d x w2 sub y w2 add m w w neg d x w2 sub y w2 sub m w w d s} def
/m32 {mp x y w2 sub m w2 w d w neg 0 d cl s} def
/m33 {mp x y w2 add m w3 neg w2 neg d w3 w2 neg d w3 w2 d cl f} def
/m34 {mp x w2 sub y w2 sub w3 add m w3 0 d  0 w3 neg d w3 0 d 0 w3 d w3 0 d  0 w3 d w3 neg 0 d 0 w3 d w3 neg 0 d 0 w3 neg d w3 neg 0 d cl f } def
/m35 {mp x y w2 add m w2 neg w2 neg d w2 w2 neg d w2 w2 d w2 neg w2 d x y w2 sub m 0 w d x w2 sub y m w 0 d s} def
/m36 {mb x w2 sub y w2 add m w w neg d x w2 sub y w2 sub m w w d s} def
/m37 {mp x y m w4 neg w2 d w4 neg w2 neg d w2 0 d  w4 neg w2 neg d w2 0 d w4 neg w2 d w2 0 d w4 neg w2 d w4 neg w2 neg d cl s} def
/m38 {mp x w4 sub y w2 add m w4 neg w4 neg d 0 w2 neg d w4 w4 neg d w2 0 d w4 w4 d 0 w2 d w4 neg w4 d w2 neg 0 d x y w2 sub m 0 w d x w2 sub y m w 0 d cl s} def
/m39 {mp x y m w4 neg w2 d w4 neg w2 neg d w2 0 d  w4 neg w2 neg d w2 0 d w4 neg w2 d w2 0 d w4 neg w2 d w4 neg w2 neg d cl f} def
/m40 {mp x y m w4 w2 d w4 w4 neg d w2 neg w4 neg d w2 w4 neg d w4 neg w4 neg d w4 neg w2 d w4 neg w2 neg d w4 neg w4 d w2 w4 d w2 neg w4 d w4 w4 d w4 w2 neg d cl s} def
/m41 {mp x y m w4 w2 d w4 w4 neg d w2 neg w4 neg d w2 w4 neg d w4 neg w4 neg d w4 neg w2 d w4 neg w2 neg d w4 neg w4 d w2 w4 d w2 neg w4 d w4 w4 d w4 w2 neg d cl f} def
/m42 {mp x y w2 add m w8 neg w2 -3 4 div mul d w2 -3 4 div mul w8 neg d w2 3 4 div mul w8 neg d w8 w2 -3 4 div mul d w8 w2 3 4 div mul d w2 3 4 div mul w8 d w2 -3 4 div mul w8 d w8 neg w2 3 4 div mul d cl s} def
/m43 {mp x y w2 add m w8 neg w2 -3 4 div mul d w2 -3 4 div mul w8 neg d w2 3 4 div mul w8 neg d w8 w2 -3 4 div mul d w8 w2 3 4 div mul d w2 3 4 div mul w8 d w2 -3 4 div mul w8 d w8 neg w2 3 4 div mul d cl f} def
/m44 {mp x y m w6 neg w2 d w2 2 3 div mul 0 d w6 neg w2 neg d w2 w6 d 0 w2 -2 3 div mul d w2 neg w6 d w6 w2 neg d w2 -2 3 div mul 0 d w6 w2 d w2 neg w6 neg d 0 w2 2 3 div mul d w2 w6 neg d cl s} def
/m45 {mp x y m w6 neg w2 d w2 2 3 div mul 0 d w6 neg w2 neg d w2 w6 d 0 w2 -2 3 div mul d w2 neg w6 d w6 w2 neg d w2 -2 3 div mul 0 d w6 w2 d w2 neg w6 neg d 0 w2 2 3 div mul d w2 w6 neg d cl f} def
/m46 {mp x y w4 add m w4 neg w4 d w4 neg w4 neg d  w4 w4 neg d w4 neg w4 neg d w4 w4 neg d w4 w4 d w4 w4 neg d w4 w4 d w4 neg w4 d w4 w4 d w4 neg w4 d w4 neg w4 neg d cl s} def
/m47 {mp x y w4 add m w4 neg w4 d w4 neg w4 neg d w4 w4 neg d w4 neg w4 neg d  w4 w4 neg d w4 w4 d w4 w4 neg d w4 w4 d w4 neg w4 d w4 w4 d w4 neg w4 d w4 neg w4 neg d cl f} def
/m48 {mp x y w4 add m w4 neg w4 d w4 neg w4 neg d w4 w4 neg d  w4 neg w4 neg d w4 w4 neg d w4 w4 d w4 w4 neg d w4 w4 d w4 neg w4 d w4 w4 d w4 neg w4 d w4 neg w4 neg d  w4 w4 neg d w4 neg w4 neg d w4 neg w4 d w4 w4 d cl f} def
/m49 {mp x w2 sub w3 add y w2 sub w3 add m  0 w3 neg d w3 0 d 0 w3 d w3 0 d 0 w3 d w3 neg 0 d 0 w3 d w3 neg 0 d 0 w3 neg d w3 neg 0 d 0 w3 neg d w3 0 d 0 w3 d w3 0 d 0 w3 neg d w3 neg 0 d cl f } def
/m2 {mp x y w2 sub m 0 w d x w2 sub y m w 0 d s} def
/m5 {mp x w2 sub y w2 sub m w w d x w2 sub y w2 add m w w neg d s} def
%%IncludeResource: ProcSet (FontSetInit)
%%IncludeResource: font Times-Roman
%%IncludeResource: font Times-Italic
%%IncludeResource: font Times-Bold
%%IncludeResource: font Times-BoldItalic
%%IncludeResource: font Helvetica
%%IncludeResource: font Helvetica-Oblique
%%IncludeResource: font Helvetica-Bold
%%IncludeResource: font Helvetica-BoldOblique
%%IncludeResource: font Courier
%%IncludeResource: font Courier-Oblique
%%IncludeResource: font Courier-Bold
%%IncludeResource: font Courier-BoldOblique
%%IncludeResource: font Symbol
%%IncludeResource: font ZapfDingbats
/reEncode {exch findfont dup length dict begin {1 index /FID eq  {pop pop} {def} ifelse } forall /Encoding exch def currentdict end dup /FontName get exch definefont pop } def [/Times-Bold /Times-Italic /Times-BoldItalic /Helvetica /Helvetica-Oblique
 /Helvetica-Bold /Helvetica-BoldOblique /Courier /Courier-Oblique /Courier-Bold /Courier-BoldOblique /Times-Roman /AvantGarde-Book /AvantGarde-BookOblique /AvantGarde-Demi /AvantGarde-DemiOblique /Bookman-Demi /Bookman-DemiItalic /Bookman-Light
 /Bookman-LightItalic /Helvetica-Narrow /Helvetica-Narrow-Bold /Helvetica-Narrow-BoldOblique /Helvetica-Narrow-Oblique /NewCenturySchlbk-Roman /NewCenturySchlbk-Bold /NewCenturySchlbk-BoldItalic /NewCenturySchlbk-Italic /Palatino-Bold
 /Palatino-BoldItalic /Palatino-Italic /Palatino-Roman ] {ISOLatin1Encoding reEncode } forall
%%EndProlog
%%BeginSetup
%%EndSetup
newpath  gsave  .25 .25 scale  gsave  0 0 t 0.490196 0.545098 0.615686 c[  ] 0 sd 3 lw 0.941176 0.941176 0.941176 c 2268 1676 0 0 bf black 1 1 0.992157 c 1796 1140 245 201 bf black 1796 1140 245 201 bl 1 1 0.992157 c 1796 1140 245 201 bf black 1796
 1140 245 201 bl 245 201 m 1796 X s[ 4 8] 0 sd 245 1341 m -1140 Y s 604 1341 m -1140 Y s 963 1341 m -1140 Y s 1323 1341 m -1140 Y s 1682 1341 m -1140 Y s 2041 1341 m -1140 Y s 2041 1341 m -1140 Y s[  ] 0 sd 245 201 m 1140 Y s[ 4 8] 0 sd 2041 363 m
 -1796 X s 2041 581 m -1796 X s 2041 798 m -1796 X s 2041 1015 m -1796 X s 2041 1232 m -1796 X s 2041 363 m -1796 X s 2041 1232 m -1796 X s 0 0 0.933333 c[  22 12 ] 0 sd 6 lw 0.49 0.6 0.82 c black 0 0 0.933333 c 245 689 m 3 Y 9 X s 254 692 m 9 X s
 263 692 m 10 Y 8 X s 271 702 m 9 X s 280 702 m 1 X 17 Y 8 X s 289 719 m 9 X s 298 719 m 1 X 18 Y 8 X s 307 737 m 8 X s 315 737 m 2 X 15 Y 7 X s 324 752 m 9 X s 333 752 m 2 X 243 Y 7 X s 342 995 m 9 X s 351 995 m 2 X 23 Y 6 X s 359 1018 m 9 X s 368
 1018 m 3 X 11 Y 6 X s 377 1029 m 9 X s 386 1029 m 3 X 9 Y 6 X s 395 1038 m 8 X s 403 1038 m 3 X 1 10 d 5 X s 412 1048 m 9 X s 421 1048 m 3 X 1 9 d 5 X s 430 1057 m 9 X s 439 1057 m 3 X 1 8 d 4 X s 447 1065 m 9 X s 456 1065 m 4 X 1 4 d 4 X s 465 1069
 m 9 X s 474 1069 m 4 X 6 Y 5 X s 483 1075 m 8 X s 491 1075 m 5 X 3 Y 4 X s 500 1078 m 9 X s 509 1078 m 5 X 3 Y 4 X s 518 1081 m 9 X s 527 1081 m 5 X 4 Y 3 X s 535 1085 m 9 X s 544 1085 m 6 X 3 Y 3 X s 553 1088 m 9 X s 562 1088 m 6 X 3 Y 3 X s 571
 1091 m 8 X s 579 1091 m 7 X 2 Y 2 X s 588 1093 m 9 X s 597 1093 m 7 X 3 Y 2 X s 606 1096 m 9 X s 615 1096 m 7 X 1 Y 1 X s 623 1097 m 9 X s 632 1097 m 8 X 3 Y 1 X s 641 1100 m 9 X s 650 1100 m 8 X -1 Y 1 X s 659 1099 m 8 X s 667 1099 m 9 X 2 Y s 676
 1101 m 9 X s 685 1101 m 9 X s 694 1101 m 1 Y 9 X s 703 1102 m 8 X s 711 1102 m 1 X 1 Y 8 X s 720 1103 m 9 X s 729 1103 m 1 X 1 Y 8 X s 738 1104 m 9 X s 747 1104 m 1 X 1 Y 7 X s 755 1105 m 9 X s 764 1105 m 2 X 1 Y 7 X s 773 1106 m 9 X s 782 1106 m 2
 X 2 Y 7 X s 791 1108 m 8 X s 799 1108 m 3 X -1 Y 6 X s 808 1107 m 9 X s 817 1107 m 3 X 1 Y 6 X s 826 1108 m 9 X s 835 1108 m 3 X 1 Y 5 X s 843 1109 m 9 X s 852 1109 m 9 X s 861 1109 m 9 X s 870 1109 m 3 X 1 1 d 5 X s 879 1110 m 8 X s 887 1110 m 4 X
 1 -1 d 4 X s 896 1109 m 9 X s 905 1109 m 4 X 1 1 d 4 X s 914 1110 m 9 X s 923 1110 m 4 X 1 Y 4 X s 931 1111 m 9 X s 940 1111 m 5 X -1 Y 4 X s 949 1110 m 9 X s 958 1110 m 5 X 2 Y 4 X s 967 1112 m 8 X s 975 1112 m 6 X 1 Y 3 X s 984 1113 m 9 X s 993
 1113 m 9 X s 1002 1113 m 9 X s 1011 1113 m 8 X s 1019 1113 m 9 X s 1028 1113 m 9 X s 1037 1113 m 9 X s 1046 1113 m 9 X s 1055 1113 m 8 X s 1063 1113 m 8 X 1 Y 1 X s 1072 1114 m 9 X s 1081 1114 m 8 X -1 Y 1 X s 1090 1113 m 9 X s 1099 1113 m 8 X 1 Y s
 1107 1114 m 9 X s 1116 1114 m 9 X s 1125 1114 m 9 X s 1134 1114 m 9 X s 1143 1114 m 8 X s 1151 1114 m 9 X s 1160 1114 m 9 X s 1169 1114 m 9 X s 1178 1114 m 1 X -1 Y 8 X s 1187 1113 m 8 X s 1195 1113 m 9 X s 1204 1113 m 9 X s 1213 1113 m 2 X -1 Y 7 X
 s 1222 1112 m 9 X s 1231 1112 m 8 X s 1239 1112 m 9 X s 1248 1112 m 9 X s 1257 1112 m 9 X s 1266 1112 m 3 X -2 Y 6 X s 1275 1110 m 8 X s 1283 1110 m 4 X -1 Y 5 X s 1292 1109 m 9 X s 1301 1109 m 9 X s 1310 1109 m 9 X s 1319 1109 m 3 X 1 -1 d 4 X s
 1327 1108 m 9 X s 1336 1108 m 9 X s 1345 1108 m 9 X s 1354 1108 m 4 X 1 -2 d 4 X s 1363 1106 m 8 X s 1371 1106 m 5 X 1 -1 d 3 X s 1380 1105 m 9 X s 1389 1105 m 9 X s 1398 1105 m 9 X s 1407 1105 m 5 X -1 Y 3 X s 1415 1104 m 9 X s 1424 1104 m 9 X s
 1433 1104 m 9 X s 1442 1104 m 6 X -1 Y 3 X s 1451 1103 m 8 X s 1459 1103 m 7 X -1 Y 2 X s 1468 1102 m 9 X s 1477 1102 m 7 X -1 Y 2 X s 1486 1101 m 9 X s 1495 1101 m 8 X s 1503 1101 m 9 X s 1512 1101 m 9 X s 1521 1101 m 9 X s 1530 1101 m 8 X -1 Y 1 X
 s 1539 1100 m 8 X s 1547 1100 m 9 X -1 Y s 1556 1099 m 9 X s 1565 1099 m 9 X s 1574 1099 m -1 Y 9 X s 1583 1098 m 8 X s 1591 1098 m 1 X -2 Y 8 X s 1600 1096 m 9 X s 1609 1096 m 1 X -1 Y 8 X s 1618 1095 m 9 X s 1627 1095 m 1 X -1 Y 7 X s 1635 1094 m
 9 X s 1644 1094 m 2 X -1 Y 7 X s 1653 1093 m 9 X s 1662 1093 m 2 X -3 Y 7 X s 1671 1090 m 8 X s 1679 1090 m 3 X -3 Y 6 X s 1688 1087 m 9 X s 1697 1087 m 3 X -4 Y 6 X s 1706 1083 m 9 X s 1715 1083 m 3 X -3 Y 5 X s 1723 1080 m 9 X s 1732 1080 m 4 X -4
 Y 5 X s 1741 1076 m 9 X s 1750 1076 m 3 X 1 -5 d 5 X s 1759 1071 m 8 X s 1767 1071 m 4 X 1 -3 d 4 X s 1776 1068 m 9 X s 1785 1068 m 4 X 1 -4 d 4 X s 1794 1064 m 9 X s 1803 1064 m 4 X 1 -5 d 4 X s 1812 1059 m 8 X s 1820 1059 m 5 X 1 -7 d 3 X s 1829
 1052 m 9 X s 1838 1052 m 5 X -8 Y 4 X s 1847 1044 m 9 X s 1856 1044 m 5 X -10 Y 3 X s 1864 1034 m 9 X s 1873 1034 m 6 X -13 Y 3 X s 1882 1021 m 9 X s 1891 1021 m 6 X -24 Y 3 X s 1900 997 m 8 X s 1908 997 m 7 X -33 Y 2 X s 1917 964 m 9 X s 1926 964 m
 7 X -44 Y 2 X s 1935 920 m 9 X s 1944 920 m 7 X -65 Y 1 X s 1952 855 m 9 X s 1961 855 m 8 X -94 Y 1 X s 1970 761 m 9 X s 1979 761 m 8 X -141 Y 1 X s 1988 620 m 8 X s 1996 620 m 9 X -162 Y s 2005 458 m 9 X s 2014 458 m 9 X s 2023 458 m -203 Y 9 X s
 2032 255 m 8 X s 2040 255 m 1 X s black[  ] 0 sd 3 lw 245 201 m 1796 X s 245 241 m -40 Y s 335 221 m -20 Y s 425 221 m -20 Y s 514 221 m -20 Y s 604 241 m -40 Y s 694 221 m -20 Y s 784 221 m -20 Y s 874 221 m -20 Y s 963 241 m -40 Y s 1053 221 m -20
 Y s 1143 221 m -20 Y s 1233 221 m -20 Y s 1323 241 m -40 Y s 1412 221 m -20 Y s 1502 221 m -20 Y s 1592 221 m -20 Y s 1682 241 m -40 Y s 1772 221 m -20 Y s 1861 221 m -20 Y s 1951 221 m -20 Y s 2041 241 m -40 Y s 2041 241 m -40 Y s
 gsave  2268 1676 0 0 C 223.738 128.934 t 0 r /Helvetica-Bold findfont 64.4669 sf 0 0 m (0) show NC gr 
 gsave  2268 1676 0 0 C 557.449 128.934 t 0 r /Helvetica-Bold findfont 64.4669 sf 0 0 m (0.2) show NC gr 
 gsave  2268 1676 0 0 C 917.705 128.934 t 0 r /Helvetica-Bold findfont 64.4669 sf 0 0 m (0.4) show NC gr 
 gsave  2268 1676 0 0 C 1274.17 128.934 t 0 r /Helvetica-Bold findfont 64.4669 sf 0 0 m (0.6) show NC gr 
 gsave  2268 1676 0 0 C 1634.42 128.934 t 0 r /Helvetica-Bold findfont 64.4669 sf 0 0 m (0.8) show NC gr 
 gsave  2268 1676 0 0 C 2025.02 128.934 t 0 r /Helvetica-Bold findfont 64.4669 sf 0 0 m (1) show NC gr 
 gsave  2268 1676 0 0 C 913.913 30.3373 t 0 r /Helvetica-Bold findfont 72.0512 sf 0 0 m (Cut value applied on KNN output) show NC gr  245 201 m 1140 Y s 291 363 m -46 X s 268 418 m -23 X s 268 472 m -23 X s 268 526 m -23 X s 291 581 m -46 X s 268 635
 m -23 X s 268 689 m -23 X s 268 744 m -23 X s 291 798 m -46 X s 268 852 m -23 X s 268 906 m -23 X s 268 961 m -23 X s 291 1015 m -46 X s 268 1069 m -23 X s 268 1124 m -23 X s 268 1178 m -23 X s 291 1232 m -46 X s 291 363 m -46 X s 268 309 m -23 X s
 268 255 m -23 X s 291 1232 m -46 X s 268 1287 m -23 X s
 gsave  2268 1676 0 0 C 128.934 337.503 t 0 r /Helvetica-Bold findfont 64.4669 sf 0 0 m (0.2) show NC gr 
 gsave  2268 1676 0 0 C 125.142 557.449 t 0 r /Helvetica-Bold findfont 64.4669 sf 0 0 m (0.4) show NC gr 
 gsave  2268 1676 0 0 C 128.934 773.602 t 0 r /Helvetica-Bold findfont 64.4669 sf 0 0 m (0.6) show NC gr 
 gsave  2268 1676 0 0 C 125.142 989.756 t 0 r /Helvetica-Bold findfont 64.4669 sf 0 0 m (0.8) show NC gr 
 gsave  2268 1676 0 0 C 189.608 1205.91 t 0 r /Helvetica-Bold findfont 64.4669 sf 0 0 m (1) show NC gr 
 gsave  2268 1676 0 0 C 64.4669 731.888 t 90 r /Helvetica-Bold findfont 72.0512 sf 0 0 m (Efficiency \(Purity\)) show NC gr  0 0 0.933333 c[  52 12 ] 0 sd 6 lw 0.49 0.6 0.82 c black 0 0 0.933333 c 245 689 m 3 Y 9 X s 254 692 m 9 X s 263 692 m 11 Y 8
 X s 271 703 m 9 X s 280 703 m 1 X 18 Y 8 X s 289 721 m 9 X s 298 721 m 1 X 19 Y 8 X s 307 740 m 8 X s 315 740 m 2 X 17 Y 7 X s 324 757 m 9 X s 333 757 m 2 X 256 Y 7 X s 342 1013 m 9 X s 351 1013 m 2 X 27 Y 6 X s 359 1040 m 9 X s 368 1040 m 3 X 12 Y
 6 X s 377 1052 m 9 X s 386 1052 m 3 X 11 Y 6 X s 395 1063 m 8 X s 403 1063 m 3 X 1 12 d 5 X s 412 1075 m 9 X s 421 1075 m 3 X 1 10 d 5 X s 430 1085 m 9 X s 439 1085 m 3 X 1 10 d 4 X s 447 1095 m 9 X s 456 1095 m 4 X 1 6 d 4 X s 465 1101 m 9 X s 474
 1101 m 4 X 7 Y 5 X s 483 1108 m 8 X s 491 1108 m 5 X 4 Y 4 X s 500 1112 m 9 X s 509 1112 m 5 X 3 Y 4 X s 518 1115 m 9 X s 527 1115 m 5 X 4 Y 3 X s 535 1119 m 9 X s 544 1119 m 6 X 4 Y 3 X s 553 1123 m 9 X s 562 1123 m 6 X 4 Y 3 X s 571 1127 m 8 X s
 579 1127 m 7 X 3 Y 2 X s 588 1130 m 9 X s 597 1130 m 7 X 4 Y 2 X s 606 1134 m 9 X s 615 1134 m 7 X 2 Y 1 X s 623 1136 m 9 X s 632 1136 m 8 X 3 Y 1 X s 641 1139 m 9 X s 650 1139 m 9 X s 659 1139 m 8 X s 667 1139 m 9 X 3 Y s 676 1142 m 9 X s 685 1142
 m 9 X s 694 1142 m 4 Y 9 X s 703 1146 m 8 X s 711 1146 m 1 X 2 Y 8 X s 720 1148 m 9 X s 729 1148 m 1 X 2 Y 8 X s 738 1150 m 9 X s 747 1150 m 1 X 2 Y 7 X s 755 1152 m 9 X s 764 1152 m 2 X 1 Y 7 X s 773 1153 m 9 X s 782 1153 m 2 X 2 Y 7 X s 791 1155 m
 8 X s 799 1155 m 3 X 1 Y 6 X s 808 1156 m 9 X s 817 1156 m 3 X 2 Y 6 X s 826 1158 m 9 X s 835 1158 m 3 X 2 Y 5 X s 843 1160 m 9 X s 852 1160 m 3 X 1 1 d 5 X s 861 1161 m 9 X s 870 1161 m 3 X 1 2 d 5 X s 879 1163 m 8 X s 887 1163 m 9 X s 896 1163 m 9
 X s 905 1163 m 4 X 1 2 d 4 X s 914 1165 m 9 X s 923 1165 m 4 X 1 Y 4 X s 931 1166 m 9 X s 940 1166 m 5 X 1 Y 4 X s 949 1167 m 9 X s 958 1167 m 5 X 3 Y 4 X s 967 1170 m 8 X s 975 1170 m 6 X 2 Y 3 X s 984 1172 m 9 X s 993 1172 m 9 X s 1002 1172 m 9 X
 s 1011 1172 m 6 X 1 Y 2 X s 1019 1173 m 9 X s 1028 1173 m 7 X 1 Y 2 X s 1037 1174 m 9 X s 1046 1174 m 7 X 1 Y 2 X s 1055 1175 m 8 X s 1063 1175 m 8 X 1 Y 1 X s 1072 1176 m 9 X s 1081 1176 m 8 X 1 Y 1 X s 1090 1177 m 9 X s 1099 1177 m 8 X 1 Y s 1107
 1178 m 9 X s 1116 1178 m 9 X 2 Y s 1125 1180 m 9 X s 1134 1180 m 9 X s 1143 1180 m 1 Y 8 X s 1151 1181 m 9 X s 1160 1181 m 9 X s 1169 1181 m 9 X s 1178 1181 m 1 X 1 Y 8 X s 1187 1182 m 8 X s 1195 1182 m 2 X 2 Y 7 X s 1204 1184 m 9 X s 1213 1184 m 2
 X 1 Y 7 X s 1222 1185 m 9 X s 1231 1185 m 2 X 1 Y 6 X s 1239 1186 m 9 X s 1248 1186 m 9 X s 1257 1186 m 9 X s 1266 1186 m 3 X 1 Y 6 X s 1275 1187 m 8 X s 1283 1187 m 9 X s 1292 1187 m 9 X s 1301 1187 m 3 X 1 1 d 5 X s 1310 1188 m 9 X s 1319 1188 m 3
 X 1 1 d 4 X s 1327 1189 m 9 X s 1336 1189 m 9 X s 1345 1189 m 9 X s 1354 1189 m 4 X 1 1 d 4 X s 1363 1190 m 8 X s 1371 1190 m 9 X s 1380 1190 m 9 X s 1389 1190 m 9 X s 1398 1190 m 9 X s 1407 1190 m 5 X 1 Y 3 X s 1415 1191 m 9 X s 1424 1191 m 6 X 1 Y
 3 X s 1433 1192 m 9 X s 1442 1192 m 9 X s 1451 1192 m 8 X s 1459 1192 m 7 X 1 Y 2 X s 1468 1193 m 9 X s 1477 1193 m 9 X s 1486 1193 m 9 X s 1495 1193 m 7 X 1 Y 1 X s 1503 1194 m 9 X s 1512 1194 m 8 X 1 Y 1 X s 1521 1195 m 9 X s 1530 1195 m 9 X s
 1539 1195 m 8 X s 1547 1195 m 9 X 1 Y s 1556 1196 m 9 X s 1565 1196 m 9 X s 1574 1196 m 9 X s 1583 1196 m 8 X s 1591 1196 m 9 X s 1600 1196 m 9 X s 1609 1196 m 1 X 1 Y 8 X s 1618 1197 m 9 X s 1627 1197 m 1 X 1 Y 7 X s 1635 1198 m 9 X s 1644 1198 m 2
 X 1 Y 7 X s 1653 1199 m 9 X s 1662 1199 m 2 X 1 Y 7 X s 1671 1200 m 8 X s 1679 1200 m 9 X s 1688 1200 m 9 X s 1697 1200 m 9 X s 1706 1200 m 9 X s 1715 1200 m 8 X s 1723 1200 m 9 X s 1732 1200 m 9 X s 1741 1200 m 9 X s 1750 1200 m 3 X 1 1 d 5 X s
 1759 1201 m 8 X s 1767 1201 m 4 X 1 1 d 4 X s 1776 1202 m 9 X s 1785 1202 m 4 X 1 1 d 4 X s 1794 1203 m 9 X s 1803 1203 m 9 X s 1812 1203 m 8 X s 1820 1203 m 5 X 1 1 d 3 X s 1829 1204 m 9 X s 1838 1204 m 9 X s 1847 1204 m 9 X s 1856 1204 m 5 X 1 Y 3
 X s 1864 1205 m 9 X s 1873 1205 m 9 X s 1882 1205 m 9 X s 1891 1205 m 6 X 2 Y 3 X s 1900 1207 m 8 X s 1908 1207 m 7 X 1 Y 2 X s 1917 1208 m 9 X s 1926 1208 m 7 X 1 Y 2 X s 1935 1209 m 9 X s 1944 1209 m 7 X 1 Y 1 X s 1952 1210 m 9 X s 1961 1210 m 9 X
 s 1970 1210 m 9 X s 1979 1210 m 8 X 5 Y 1 X s 1988 1215 m 8 X s 1996 1215 m 9 X 3 Y s 2005 1218 m 9 X s 2014 1218 m 9 X s 2023 1218 m 2 Y 9 X s 2032 1220 m 8 X s 2040 1220 m 1 X s[  ] 0 sd 9 lw 0.49 0.6 0.82 c black 0 0 0.933333 c 245 1232 m 9 X s
 254 1232 m 9 X s 263 1232 m -1 Y 8 X s 271 1231 m 9 X s 280 1231 m 1 X -2 Y 8 X s 289 1229 m 9 X s 298 1229 m 1 X -2 Y 8 X s 307 1227 m 8 X s 315 1227 m 2 X -3 Y 7 X s 324 1224 m 9 X s 333 1224 m 2 X -15 Y 7 X s 342 1209 m 9 X s 351 1209 m 2 X -3 Y
 6 X s 359 1206 m 9 X s 368 1206 m 3 X -1 Y 6 X s 377 1205 m 9 X s 386 1205 m 3 X -2 Y 6 X s 395 1203 m 8 X s 403 1203 m 3 X 1 -2 d 5 X s 412 1201 m 9 X s 421 1201 m 3 X 1 -2 d 5 X s 430 1199 m 9 X s 439 1199 m 3 X 1 -2 d 4 X s 447 1197 m 9 X s 456
 1197 m 4 X 1 -1 d 4 X s 465 1196 m 9 X s 474 1196 m 4 X -1 Y 5 X s 483 1195 m 8 X s 491 1195 m 5 X -1 Y 4 X s 500 1194 m 9 X s 509 1194 m 9 X s 518 1194 m 9 X s 527 1194 m 8 X s 535 1194 m 9 X s 544 1194 m 6 X -1 Y 3 X s 553 1193 m 9 X s 562 1193 m
 6 X -1 Y 3 X s 571 1192 m 8 X s 579 1192 m 7 X -1 Y 2 X s 588 1191 m 9 X s 597 1191 m 7 X -1 Y 2 X s 606 1190 m 9 X s 615 1190 m 8 X s 623 1190 m 9 X s 632 1190 m 8 X -1 Y 1 X s 641 1189 m 9 X s 650 1189 m 8 X -1 Y 1 X s 659 1188 m 8 X s 667 1188 m
 9 X -1 Y s 676 1187 m 9 X s 685 1187 m 9 X s 694 1187 m -2 Y 9 X s 703 1185 m 8 X s 711 1185 m 1 X -1 Y 8 X s 720 1184 m 9 X s 729 1184 m 1 X -1 Y 8 X s 738 1183 m 9 X s 747 1183 m 1 X -1 Y 7 X s 755 1182 m 9 X s 764 1182 m 9 X s 773 1182 m 9 X s
 782 1182 m 2 X -1 Y 7 X s 791 1181 m 8 X s 799 1181 m 3 X -1 Y 6 X s 808 1180 m 9 X s 817 1180 m 3 X -1 Y 6 X s 826 1179 m 9 X s 835 1179 m 3 X -1 Y 5 X s 843 1178 m 9 X s 852 1178 m 3 X 1 -1 d 5 X s 861 1177 m 9 X s 870 1177 m 3 X 1 -1 d 5 X s 879
 1176 m 8 X s 887 1176 m 4 X 1 -1 d 4 X s 896 1175 m 9 X s 905 1175 m 4 X 1 -1 d 4 X s 914 1174 m 9 X s 923 1174 m 8 X s 931 1174 m 9 X s 940 1174 m 5 X -2 Y 4 X s 949 1172 m 9 X s 958 1172 m 5 X -1 Y 4 X s 967 1171 m 8 X s 975 1171 m 6 X -1 Y 3 X s
 984 1170 m 9 X s 993 1170 m 9 X s 1002 1170 m 9 X s 1011 1170 m 6 X -1 Y 2 X s 1019 1169 m 9 X s 1028 1169 m 7 X -1 Y 2 X s 1037 1168 m 9 X s 1046 1168 m 7 X -1 Y 2 X s 1055 1167 m 8 X s 1063 1167 m 9 X s 1072 1167 m 9 X s 1081 1167 m 8 X -2 Y 1 X s
 1090 1165 m 9 X s 1099 1165 m 8 X -1 Y s 1107 1164 m 9 X s 1116 1164 m 9 X s 1125 1164 m 9 X s 1134 1164 m 9 X s 1143 1164 m -1 Y 8 X s 1151 1163 m 9 X s 1160 1163 m 1 X -2 Y 8 X s 1169 1161 m 9 X s 1178 1161 m 1 X -1 Y 8 X s 1187 1160 m 8 X s 1195
 1160 m 2 X -2 Y 7 X s 1204 1158 m 9 X s 1213 1158 m 2 X -2 Y 7 X s 1222 1156 m 9 X s 1231 1156 m 2 X -1 Y 6 X s 1239 1155 m 9 X s 1248 1155 m 9 X s 1257 1155 m 9 X s 1266 1155 m 3 X -3 Y 6 X s 1275 1152 m 8 X s 1283 1152 m 4 X -1 Y 5 X s 1292 1151 m
 9 X s 1301 1151 m 3 X 1 -1 d 5 X s 1310 1150 m 9 X s 1319 1150 m 3 X 1 -2 d 4 X s 1327 1148 m 9 X s 1336 1148 m 4 X 1 -1 d 4 X s 1345 1147 m 9 X s 1354 1147 m 4 X 1 -2 d 4 X s 1363 1145 m 8 X s 1371 1145 m 9 X s 1380 1145 m 9 X s 1389 1145 m 5 X -2
 Y 4 X s 1398 1143 m 9 X s 1407 1143 m 5 X -1 Y 3 X s 1415 1142 m 9 X s 1424 1142 m 6 X -1 Y 3 X s 1433 1141 m 9 X s 1442 1141 m 6 X -1 Y 3 X s 1451 1140 m 8 X s 1459 1140 m 7 X -2 Y 2 X s 1468 1138 m 9 X s 1477 1138 m 7 X -1 Y 2 X s 1486 1137 m 9 X
 s 1495 1137 m 7 X -1 Y 1 X s 1503 1136 m 9 X s 1512 1136 m 8 X -1 Y 1 X s 1521 1135 m 9 X s 1530 1135 m 8 X -1 Y 1 X s 1539 1134 m 8 X s 1547 1134 m 9 X -2 Y s 1556 1132 m 9 X s 1565 1132 m 9 X s 1574 1132 m -1 Y 9 X s 1583 1131 m 8 X s 1591 1131 m
 1 X -2 Y 8 X s 1600 1129 m 9 X s 1609 1129 m 1 X -1 Y 8 X s 1618 1128 m 9 X s 1627 1128 m 1 X -3 Y 7 X s 1635 1125 m 9 X s 1644 1125 m 2 X -2 Y 7 X s 1653 1123 m 9 X s 1662 1123 m 2 X -4 Y 7 X s 1671 1119 m 8 X s 1679 1119 m 3 X -3 Y 6 X s 1688 1116
 m 9 X s 1697 1116 m 3 X -4 Y 6 X s 1706 1112 m 9 X s 1715 1112 m 3 X -4 Y 5 X s 1723 1108 m 9 X s 1732 1108 m 4 X -4 Y 5 X s 1741 1104 m 9 X s 1750 1104 m 3 X 1 -6 d 5 X s 1759 1098 m 8 X s 1767 1098 m 4 X 1 -3 d 4 X s 1776 1095 m 9 X s 1785 1095 m
 4 X 1 -5 d 4 X s 1794 1090 m 9 X s 1803 1090 m 4 X 1 -6 d 4 X s 1812 1084 m 8 X s 1820 1084 m 5 X 1 -7 d 3 X s 1829 1077 m 9 X s 1838 1077 m 5 X -9 Y 4 X s 1847 1068 m 9 X s 1856 1068 m 5 X -11 Y 3 X s 1864 1057 m 9 X s 1873 1057 m 6 X -13 Y 3 X s
 1882 1044 m 9 X s 1891 1044 m 6 X -26 Y 3 X s 1900 1018 m 8 X s 1908 1018 m 7 X -35 Y 2 X s 1917 983 m 9 X s 1926 983 m 7 X -46 Y 2 X s 1935 937 m 9 X s 1944 937 m 7 X -67 Y 1 X s 1952 870 m 9 X s 1961 870 m 8 X -96 Y 1 X s 1970 774 m 9 X s 1979 774
 m 8 X -146 Y 1 X s 1988 628 m 8 X s 1996 628 m 9 X -166 Y s 2005 462 m 9 X s 2014 462 m 9 X s 2023 462 m -205 Y 9 X s 2032 257 m 8 X s 2040 257 m 1 X s 1 0 0 c black 1 0 0 c 245 1232 m -10 Y 9 X s 254 1222 m 9 X s 263 1222 m -43 Y 8 X s 271 1179 m 9
 X s 280 1179 m 1 X -71 Y 8 X s 289 1108 m 9 X s 298 1108 m 1 X -67 Y 8 X s 307 1041 m 8 X s 315 1041 m 2 X -56 Y 7 X s 324 985 m 9 X s 333 985 m 2 X -570 Y 7 X s 342 415 m 9 X s 351 415 m 2 X -41 Y 6 X s 359 374 m 9 X s 368 374 m 3 X -17 Y 6 X s 377
 357 m 9 X s 386 357 m 3 X -15 Y 6 X s 395 342 m 8 X s 403 342 m 3 X 1 -17 d 5 X s 412 325 m 9 X s 421 325 m 3 X 1 -14 d 5 X s 430 311 m 9 X s 439 311 m 3 X 1 -13 d 4 X s 447 298 m 9 X s 456 298 m 4 X 1 -7 d 4 X s 465 291 m 9 X s 474 291 m 4 X -9 Y 5
 X s 483 282 m 8 X s 491 282 m 5 X -6 Y 4 X s 500 276 m 9 X s 509 276 m 5 X -3 Y 4 X s 518 273 m 9 X s 527 273 m 5 X -5 Y 3 X s 535 268 m 9 X s 544 268 m 6 X -5 Y 3 X s 553 263 m 9 X s 562 263 m 6 X -5 Y 3 X s 571 258 m 8 X s 579 258 m 7 X -3 Y 2 X s
 588 255 m 9 X s 597 255 m 7 X -4 Y 2 X s 606 251 m 9 X s 615 251 m 7 X -3 Y 1 X s 623 248 m 9 X s 632 248 m 8 X -4 Y 1 X s 641 244 m 9 X s 650 244 m 9 X s 659 244 m 8 X s 667 244 m 9 X -3 Y s 676 241 m 9 X s 685 241 m 9 X s 694 241 m -5 Y 9 X s 703
 236 m 8 X s 711 236 m 1 X -2 Y 8 X s 720 234 m 9 X s 729 234 m 1 X -3 Y 8 X s 738 231 m 9 X s 747 231 m 1 X -2 Y 7 X s 755 229 m 9 X s 764 229 m 2 X -1 Y 7 X s 773 228 m 9 X s 782 228 m 2 X -3 Y 7 X s 791 225 m 8 X s 799 225 m 9 X s 808 225 m 9 X s
 817 225 m 3 X -3 Y 6 X s 826 222 m 9 X s 835 222 m 3 X -2 Y 5 X s 843 220 m 9 X s 852 220 m 3 X 1 -1 d 5 X s 861 219 m 9 X s 870 219 m 3 X 1 -2 d 5 X s 879 217 m 8 X s 887 217 m 4 X 1 -1 d 4 X s 896 216 m 9 X s 905 216 m 4 X 1 -2 d 4 X s 914 214 m 9
 X s 923 214 m 4 X -1 Y 4 X s 931 213 m 9 X s 940 213 m 5 X -1 Y 4 X s 949 212 m 9 X s 958 212 m 5 X -3 Y 4 X s 967 209 m 8 X s 975 209 m 6 X -3 Y 3 X s 984 206 m 9 X s 993 206 m 9 X s 1002 206 m 9 X s 1011 206 m 8 X s 1019 206 m 9 X s 1028 206 m 7 X
 -1 Y 2 X s 1037 205 m 9 X s 1046 205 m 7 X -2 Y 2 X s 1055 203 m 8 X s 1063 203 m 8 X -1 Y 1 X s 1072 202 m 9 X s 1081 202 m 8 X -1 Y 1 X s 1090 201 m 9 X s 1099 201 m 8 X s 0 0.666667 0 c 1 1 1 c black 0 0.666667 0 c 245 960 m 1 Y 9 X s 254 961 m 9
 X s 263 961 m 8 Y 8 X s 271 969 m 9 X s 280 969 m 1 X 13 Y 8 X s 289 982 m 9 X s 298 982 m 1 X 13 Y 8 X s 307 995 m 8 X s 315 995 m 2 X 11 Y 7 X s 324 1006 m 9 X s 333 1006 m 2 X 157 Y 7 X s 342 1163 m 9 X s 351 1163 m 2 X 14 Y 6 X s 359 1177 m 9 X
 s 368 1177 m 3 X 6 Y 6 X s 377 1183 m 9 X s 386 1183 m 3 X 6 Y 6 X s 395 1189 m 8 X s 403 1189 m 3 X 1 5 d 5 X s 412 1194 m 9 X s 421 1194 m 3 X 1 5 d 5 X s 430 1199 m 9 X s 439 1199 m 3 X 1 5 d 4 X s 447 1204 m 9 X s 456 1204 m 4 X 1 3 d 4 X s 465
 1207 m 9 X s 474 1207 m 4 X 3 Y 5 X s 483 1210 m 8 X s 491 1210 m 5 X 2 Y 4 X s 500 1212 m 9 X s 509 1212 m 5 X 1 Y 4 X s 518 1213 m 9 X s 527 1213 m 5 X 3 Y 3 X s 535 1216 m 9 X s 544 1216 m 6 X 1 Y 3 X s 553 1217 m 9 X s 562 1217 m 6 X 2 Y 3 X s
 571 1219 m 8 X s 579 1219 m 7 X 1 Y 2 X s 588 1220 m 9 X s 597 1220 m 7 X 2 Y 2 X s 606 1222 m 9 X s 615 1222 m 7 X 1 Y 1 X s 623 1223 m 9 X s 632 1223 m 8 X 1 Y 1 X s 641 1224 m 9 X s 650 1224 m 9 X s 659 1224 m 8 X s 667 1224 m 9 X 1 Y s 676 1225
 m 9 X s 685 1225 m 9 X s 694 1225 m 9 X s 703 1225 m 8 X s 711 1225 m 1 X 1 Y 8 X s 720 1226 m 9 X s 729 1226 m 1 X 1 Y 8 X s 738 1227 m 9 X s 747 1227 m 8 X s 755 1227 m 9 X s 764 1227 m 2 X 1 Y 7 X s 773 1228 m 9 X s 782 1228 m 2 X 1 Y 7 X s 791
 1229 m 8 X s 799 1229 m 3 X -1 Y 6 X s 808 1228 m 9 X s 817 1228 m 3 X 1 Y 6 X s 826 1229 m 9 X s 835 1229 m 8 X s 843 1229 m 9 X s 852 1229 m 9 X s 861 1229 m 9 X s 870 1229 m 3 X 1 1 d 5 X s 879 1230 m 8 X s 887 1230 m 4 X 1 -1 d 4 X s 896 1229 m
 9 X s 905 1229 m 4 X 1 1 d 4 X s 914 1230 m 9 X s 923 1230 m 8 X s 931 1230 m 9 X s 940 1230 m 9 X s 949 1230 m 9 X s 958 1230 m 5 X 1 Y 4 X s 967 1231 m 8 X s 975 1231 m 6 X 1 Y 3 X s 984 1232 m 9 X s 993 1232 m 6 X -1 Y 3 X s 1002 1231 m 9 X s
 1011 1231 m 8 X s 1019 1231 m 9 X s 1028 1231 m 9 X s 1037 1231 m 9 X s 1046 1231 m 7 X 1 Y 2 X s 1055 1232 m 8 X s 1063 1232 m 9 X s 1072 1232 m 9 X s 1081 1232 m 9 X s 1090 1232 m 9 X s 1099 1232 m 8 X s 1107 1232 m 9 X s 1116 1232 m 9 X s 1125
 1232 m 9 X s 1134 1232 m 9 X s 1143 1232 m 8 X s 1151 1232 m 9 X s 1160 1232 m 9 X s 1169 1232 m 9 X s 1178 1232 m 9 X s 1187 1232 m 8 X s 1195 1232 m 2 X -1 Y 7 X s 1204 1231 m 9 X s 1213 1231 m 9 X s 1222 1231 m 9 X s 1231 1231 m 8 X s 1239 1231 m
 9 X s 1248 1231 m 9 X s 1257 1231 m 9 X s 1266 1231 m 3 X -1 Y 6 X s 1275 1230 m 8 X s 1283 1230 m 9 X s 1292 1230 m 9 X s 1301 1230 m 3 X 1 -1 d 5 X s 1310 1229 m 9 X s 1319 1229 m 8 X s 1327 1229 m 9 X s 1336 1229 m 4 X 1 -1 d 4 X s 1345 1228 m 9
 X s 1354 1228 m 9 X s 1363 1228 m 8 X s 1371 1228 m 5 X 1 -1 d 3 X s 1380 1227 m 9 X s 1389 1227 m 9 X s 1398 1227 m 9 X s 1407 1227 m 5 X -1 Y 3 X s 1415 1226 m 9 X s 1424 1226 m 9 X s 1433 1226 m 9 X s 1442 1226 m 9 X s 1451 1226 m 8 X s 1459 1226
 m 7 X -1 Y 2 X s 1468 1225 m 9 X s 1477 1225 m 9 X s 1486 1225 m 9 X s 1495 1225 m 8 X s 1503 1225 m 9 X s 1512 1225 m 9 X s 1521 1225 m 9 X s 1530 1225 m 8 X -1 Y 1 X s 1539 1224 m 8 X s 1547 1224 m 9 X s 1556 1224 m 9 X s 1565 1224 m 9 X s 1574
 1224 m -1 Y 9 X s 1583 1223 m 8 X s 1591 1223 m 1 X -1 Y 8 X s 1600 1222 m 9 X s 1609 1222 m 9 X s 1618 1222 m 9 X s 1627 1222 m 1 X -1 Y 7 X s 1635 1221 m 9 X s 1644 1221 m 2 X -1 Y 7 X s 1653 1220 m 9 X s 1662 1220 m 2 X -2 Y 7 X s 1671 1218 m 8 X
 s 1679 1218 m 3 X -1 Y 6 X s 1688 1217 m 9 X s 1697 1217 m 3 X -2 Y 6 X s 1706 1215 m 9 X s 1715 1215 m 3 X -2 Y 5 X s 1723 1213 m 9 X s 1732 1213 m 4 X -3 Y 5 X s 1741 1210 m 9 X s 1750 1210 m 3 X 1 -3 d 5 X s 1759 1207 m 8 X s 1767 1207 m 4 X 1 -1
 d 4 X s 1776 1206 m 9 X s 1785 1206 m 4 X 1 -2 d 4 X s 1794 1204 m 9 X s 1803 1204 m 4 X 1 -3 d 4 X s 1812 1201 m 8 X s 1820 1201 m 5 X 1 -4 d 3 X s 1829 1197 m 9 X s 1838 1197 m 5 X -5 Y 4 X s 1847 1192 m 9 X s 1856 1192 m 5 X -6 Y 3 X s 1864 1186
 m 9 X s 1873 1186 m 6 X -7 Y 3 X s 1882 1179 m 9 X s 1891 1179 m 6 X -14 Y 3 X s 1900 1165 m 8 X s 1908 1165 m 7 X -21 Y 2 X s 1917 1144 m 9 X s 1926 1144 m 7 X -27 Y 2 X s 1935 1117 m 9 X s 1944 1117 m 7 X -42 Y 1 X s 1952 1075 m 9 X s 1961 1075 m
 8 X -63 Y 1 X s 1970 1012 m 9 X s 1979 1012 m 8 X -106 Y 1 X s 1988 906 m 8 X s 1996 906 m 9 X -144 Y s 2005 762 m 9 X s 2014 762 m 9 X s 2023 762 m -251 Y 9 X s 2032 511 m 8 X s 2040 511 m 1 X s black 3 lw 245 201 m 1796 X s 245 241 m -40 Y s 335
 221 m -20 Y s 425 221 m -20 Y s 514 221 m -20 Y s 604 241 m -40 Y s 694 221 m -20 Y s 784 221 m -20 Y s 874 221 m -20 Y s 963 241 m -40 Y s 1053 221 m -20 Y s 1143 221 m -20 Y s 1233 221 m -20 Y s 1323 241 m -40 Y s 1412 221 m -20 Y s 1502 221 m -20
 Y s 1592 221 m -20 Y s 1682 241 m -40 Y s 1772 221 m -20 Y s 1861 221 m -20 Y s 1951 221 m -20 Y s 2041 241 m -40 Y s 2041 241 m -40 Y s 245 201 m 1140 Y s 291 363 m -46 X s 268 418 m -23 X s 268 472 m -23 X s 268 526 m -23 X s 291 581 m -46 X s 268
 635 m -23 X s 268 689 m -23 X s 268 744 m -23 X s 291 798 m -46 X s 268 852 m -23 X s 268 906 m -23 X s 268 961 m -23 X s 291 1015 m -46 X s 268 1069 m -23 X s 268 1124 m -23 X s 268 1178 m -23 X s 291 1232 m -46 X s 291 363 m -46 X s 268 309 m -23
 X s 268 255 m -23 X s 291 1232 m -46 X s 268 1287 m -23 X s 0.490196 0.545098 0.615686 c 1 1 1 c 0.490196 0.545098 0.615686 c 907 201 245 1341 bl 245 1341 m 907 X s 1152 1341 m 201 Y s 1152 1542 m -907 X s 245 1542 m -201 Y s black
 gsave  2268 1676 0 0 C 515.735 1471.36 t 0 r /Helvetica-Bold findfont 56.8825 sf 0 0 m (Signal efficiency) show NC gr  0 0 0.933333 c 9 lw 286 1492 m 190 X s black
 gsave  2268 1676 0 0 C 515.735 1368.97 t 0 r /Helvetica-Bold findfont 56.8825 sf 0 0 m (Background efficiency) show NC gr  1 0 0 c 286 1391 m 190 X s 0.490196 0.545098 0.615686 c 3 lw 1 1 1 c 0.490196 0.545098 0.615686 c 889 201 1152 1341 bl 1152
 1341 m 889 X s 2041 1341 m 201 Y s 2041 1542 m -889 X s 1152 1542 m -201 Y s black
 gsave  2268 1676 0 0 C 1418.27 1494.11 t 0 r /Helvetica-Bold findfont 56.8825 sf 0 0 m (Signal purity) show NC gr  0 0 0.933333 c[  52 12 ] 0 sd 6 lw 1192 1509 m 187 X s black
 gsave  2268 1676 0 0 C 1418.27 1429.65 t 0 r /Helvetica-Bold findfont 56.8825 sf 0 0 m (Signal efficiency*purity) show NC gr  0 0 0.933333 c[  22 12 ] 0 sd 1192 1441 m 187 X s black
 gsave  2268 1676 0 0 C 1501.7 1361.39 t 0 r /Helvetica-Bold findfont 56.8825 sf 0 0 m (S+B) show NC gr [  ] 0 sd 1483 1407 m 7 -49 d s 3 lw 1490 1358 m 8 64 d s 1498 1422 m 114 X s
 gsave  2268 1676 0 0 C 1418.27 1361.39 t 0 r /Helvetica-Bold findfont 56.8825 sf 0 0 m (S/) show NC gr  0 0.666667 0 c 9 lw 1192 1374 m 187 X s black 3 lw 245 1232 m 1796 X s
 gsave  2268 1676 0 0 C 337.503 386.801 t 0 r /Helvetica-Bold findfont 53.0904 sf 0 0 m (For 1000 signal and 1000 background) show NC gr 
 gsave  2268 1676 0 0 C 1058.01 318.542 t 0 r /Helvetica-Bold findfont 53.0904 sf 0 0 m ( is) show NC gr 
 gsave  2268 1676 0 0 C 955.626 318.542 t 0 r /Helvetica-Bold findfont 53.0904 sf 0 0 m (S+B) show NC gr  6 lw 933 360 m 7 -45 d s 3 lw 940 315 m 8 60 d s 948 375 m 110 X s
 gsave  2268 1676 0 0 C 337.503 318.542 t 0 r /Helvetica-Bold findfont 53.0904 sf 0 0 m (events the maximum S/) show NC gr 
 gsave  2268 1676 0 0 C 337.503 254.075 t 0 r /Helvetica-Bold findfont 53.0904 sf 0 0 m (29.86 when cutting at  0.50) show NC gr  0.490196 0.545098 0.615686 c 0.364706 0.419608 0.490196 c 1471 96 23 1572 bf 0.490196 0.545098 0.615686 c 23 1572 m 1471
 X s 1494 1572 m 96 Y s 1494 1668 m -1471 X s 23 1668 m -96 Y s 1 1 1 c black 1 1 1 c
 gsave  2268 1676 0 0 C 75.8434 1600.29 t 0 r /Helvetica-Bold findfont 75.8434 sf 0 0 m (Cut efficiencies and optimal cut value) show NC gr  0 0.666667 0 c 2041 201 m 1140 Y s 1995 201 m 46 X s 2018 236 m 23 X s 2018 271 m 23 X s 2018 305 m 23 X s
 2018 340 m 23 X s 1995 375 m 46 X s 2018 409 m 23 X s 2018 444 m 23 X s 2018 479 m 23 X s 2018 513 m 23 X s 1995 548 m 46 X s 2018 583 m 23 X s 2018 618 m 23 X s 2018 652 m 23 X s 2018 687 m 23 X s 1995 722 m 46 X s 2018 756 m 23 X s 2018 791 m 23 X
 s 2018 826 m 23 X s 2018 861 m 23 X s 1995 895 m 46 X s 2018 930 m 23 X s 2018 965 m 23 X s 2018 999 m 23 X s 2018 1034 m 23 X s 1995 1069 m 46 X s 2018 1103 m 23 X s 2018 1138 m 23 X s 2018 1173 m 23 X s 2018 1208 m 23 X s 1995 1242 m 46 X s 1995
 1242 m 46 X s 2018 1277 m 23 X s 2018 1312 m 23 X s black 0 0.666667 0 c
 gsave  2268 1676 0 0 C 2051.56 178.232 t 0 r /Helvetica-Bold findfont 64.4669 sf 0 0 m (0) show NC gr  black 0 0.666667 0 c
 gsave  2268 1676 0 0 C 2051.56 348.879 t 0 r /Helvetica-Bold findfont 64.4669 sf 0 0 m (5) show NC gr  black 0 0.666667 0 c
 gsave  2268 1676 0 0 C 2051.56 523.319 t 0 r /Helvetica-Bold findfont 64.4669 sf 0 0 m (10) show NC gr  black 0 0.666667 0 c
 gsave  2268 1676 0 0 C 2051.56 697.759 t 0 r /Helvetica-Bold findfont 64.4669 sf 0 0 m (15) show NC gr  black 0 0.666667 0 c
 gsave  2268 1676 0 0 C 2051.56 872.199 t 0 r /Helvetica-Bold findfont 64.4669 sf 0 0 m (20) show NC gr  black 0 0.666667 0 c
 gsave  2268 1676 0 0 C 2051.56 1042.85 t 0 r /Helvetica-Bold findfont 64.4669 sf 0 0 m (25) show NC gr  black 0 0.666667 0 c
 gsave  2268 1676 0 0 C 2051.56 1217.29 t 0 r /Helvetica-Bold findfont 64.4669 sf 0 0 m (30) show NC gr  black 0 0.666667 0 c
 gsave  2268 1676 0 0 C 2203.25 963.211 t 90 r /Helvetica-Bold findfont 64.4669 sf 0 0 m (Significance) show NC gr 
 gr  gr showpage
end
%%EOF
