%!PS-Adobe-2.0 EPSF-2.0
%%BoundingBox:  0 0 567 419
%%Title: dataset/plots/mvaeffs_MLPBNN.eps: Cut efficiencies for MLPBNN classifier
%%Creator: ROOT Version 6.16/00
%%CreationDate: Wed May 15 12:38:47 2019
%%DocumentNeededResources: ProcSet (FontSetInit)
%%EndComments
%%BeginProlog
80 dict begin
/s {stroke} def /l {lineto} def /m {moveto} def /t {translate} def
/r {rotate} def /rl {roll}  def /R {repeat} def
/d {rlineto} def /rm {rmoveto} def /gr {grestore} def /f {eofill} def
/c {setrgbcolor} def /black {0 setgray} def /sd {setdash} def
/cl {closepath} def /sf {scalefont setfont} def /lw {setlinewidth} def
/box {m dup 0 exch d exch 0 d 0 exch neg d cl} def
/NC{systemdict begin initclip end}def/C{NC box clip newpath}def
/bl {box s} def /bf {gsave box gsave f grestore 1 lw [] 0 sd s grestore} def /Y { 0 exch d} def /X { 0 d} def 
/K {{pop pop 0 moveto} exch kshow} bind def
/ita {/ang 15 def gsave [1 0 ang dup sin exch cos div 1 0 0] concat} def 
/mp {newpath /y exch def /x exch def} def
/side {[w .77 mul w .23 mul] .385 w mul sd w 0 l currentpoint t -144 r} def
/mr {mp x y w2 0 360 arc} def /m24 {mr s} def /m20 {mr f} def
/mb {mp x y w2 add m w2 neg 0 d 0 w neg d w 0 d 0 w d cl} def
/mt {mp x y w2 add m w2 neg w neg d w 0 d cl} def
/w4 {w 4 div} def
/w6 {w 6 div} def
/w8 {w 8 div} def
/m21 {mb f} def /m25 {mb s} def /m22 {mt f} def /m26{mt s} def
/m23 {mp x y w2 sub m w2 w d w neg 0 d cl f} def
/m27 {mp x y w2 add m w3 neg w2 neg d w3 w2 neg d w3 w2 d cl s} def
/m28 {mp x w2 sub y w2 sub w3 add m w3 0 d  0 w3 neg d w3 0 d 0 w3 d w3 0 d  0 w3 d w3 neg 0 d 0 w3 d w3 neg 0 d 0 w3 neg d w3 neg 0 d cl s } def
/m29 {mp gsave x w2 sub y w2 add w3 sub m currentpoint t 4 {side} repeat cl fill gr} def
/m30 {mp gsave x w2 sub y w2 add w3 sub m currentpoint t 4 {side} repeat cl s gr} def
/m31 {mp x y w2 sub m 0 w d x w2 sub y m w 0 d x w2 sub y w2 add m w w neg d x w2 sub y w2 sub m w w d s} def
/m32 {mp x y w2 sub m w2 w d w neg 0 d cl s} def
/m33 {mp x y w2 add m w3 neg w2 neg d w3 w2 neg d w3 w2 d cl f} def
/m34 {mp x w2 sub y w2 sub w3 add m w3 0 d  0 w3 neg d w3 0 d 0 w3 d w3 0 d  0 w3 d w3 neg 0 d 0 w3 d w3 neg 0 d 0 w3 neg d w3 neg 0 d cl f } def
/m35 {mp x y w2 add m w2 neg w2 neg d w2 w2 neg d w2 w2 d w2 neg w2 d x y w2 sub m 0 w d x w2 sub y m w 0 d s} def
/m36 {mb x w2 sub y w2 add m w w neg d x w2 sub y w2 sub m w w d s} def
/m37 {mp x y m w4 neg w2 d w4 neg w2 neg d w2 0 d  w4 neg w2 neg d w2 0 d w4 neg w2 d w2 0 d w4 neg w2 d w4 neg w2 neg d cl s} def
/m38 {mp x w4 sub y w2 add m w4 neg w4 neg d 0 w2 neg d w4 w4 neg d w2 0 d w4 w4 d 0 w2 d w4 neg w4 d w2 neg 0 d x y w2 sub m 0 w d x w2 sub y m w 0 d cl s} def
/m39 {mp x y m w4 neg w2 d w4 neg w2 neg d w2 0 d  w4 neg w2 neg d w2 0 d w4 neg w2 d w2 0 d w4 neg w2 d w4 neg w2 neg d cl f} def
/m40 {mp x y m w4 w2 d w4 w4 neg d w2 neg w4 neg d w2 w4 neg d w4 neg w4 neg d w4 neg w2 d w4 neg w2 neg d w4 neg w4 d w2 w4 d w2 neg w4 d w4 w4 d w4 w2 neg d cl s} def
/m41 {mp x y m w4 w2 d w4 w4 neg d w2 neg w4 neg d w2 w4 neg d w4 neg w4 neg d w4 neg w2 d w4 neg w2 neg d w4 neg w4 d w2 w4 d w2 neg w4 d w4 w4 d w4 w2 neg d cl f} def
/m42 {mp x y w2 add m w8 neg w2 -3 4 div mul d w2 -3 4 div mul w8 neg d w2 3 4 div mul w8 neg d w8 w2 -3 4 div mul d w8 w2 3 4 div mul d w2 3 4 div mul w8 d w2 -3 4 div mul w8 d w8 neg w2 3 4 div mul d cl s} def
/m43 {mp x y w2 add m w8 neg w2 -3 4 div mul d w2 -3 4 div mul w8 neg d w2 3 4 div mul w8 neg d w8 w2 -3 4 div mul d w8 w2 3 4 div mul d w2 3 4 div mul w8 d w2 -3 4 div mul w8 d w8 neg w2 3 4 div mul d cl f} def
/m44 {mp x y m w6 neg w2 d w2 2 3 div mul 0 d w6 neg w2 neg d w2 w6 d 0 w2 -2 3 div mul d w2 neg w6 d w6 w2 neg d w2 -2 3 div mul 0 d w6 w2 d w2 neg w6 neg d 0 w2 2 3 div mul d w2 w6 neg d cl s} def
/m45 {mp x y m w6 neg w2 d w2 2 3 div mul 0 d w6 neg w2 neg d w2 w6 d 0 w2 -2 3 div mul d w2 neg w6 d w6 w2 neg d w2 -2 3 div mul 0 d w6 w2 d w2 neg w6 neg d 0 w2 2 3 div mul d w2 w6 neg d cl f} def
/m46 {mp x y w4 add m w4 neg w4 d w4 neg w4 neg d  w4 w4 neg d w4 neg w4 neg d w4 w4 neg d w4 w4 d w4 w4 neg d w4 w4 d w4 neg w4 d w4 w4 d w4 neg w4 d w4 neg w4 neg d cl s} def
/m47 {mp x y w4 add m w4 neg w4 d w4 neg w4 neg d w4 w4 neg d w4 neg w4 neg d  w4 w4 neg d w4 w4 d w4 w4 neg d w4 w4 d w4 neg w4 d w4 w4 d w4 neg w4 d w4 neg w4 neg d cl f} def
/m48 {mp x y w4 add m w4 neg w4 d w4 neg w4 neg d w4 w4 neg d  w4 neg w4 neg d w4 w4 neg d w4 w4 d w4 w4 neg d w4 w4 d w4 neg w4 d w4 w4 d w4 neg w4 d w4 neg w4 neg d  w4 w4 neg d w4 neg w4 neg d w4 neg w4 d w4 w4 d cl f} def
/m49 {mp x w2 sub w3 add y w2 sub w3 add m  0 w3 neg d w3 0 d 0 w3 d w3 0 d 0 w3 d w3 neg 0 d 0 w3 d w3 neg 0 d 0 w3 neg d w3 neg 0 d 0 w3 neg d w3 0 d 0 w3 d w3 0 d 0 w3 neg d w3 neg 0 d cl f } def
/m2 {mp x y w2 sub m 0 w d x w2 sub y m w 0 d s} def
/m5 {mp x w2 sub y w2 sub m w w d x w2 sub y w2 add m w w neg d s} def
%%IncludeResource: ProcSet (FontSetInit)
%%IncludeResource: font Times-Roman
%%IncludeResource: font Times-Italic
%%IncludeResource: font Times-Bold
%%IncludeResource: font Times-BoldItalic
%%IncludeResource: font Helvetica
%%IncludeResource: font Helvetica-Oblique
%%IncludeResource: font Helvetica-Bold
%%IncludeResource: font Helvetica-BoldOblique
%%IncludeResource: font Courier
%%IncludeResource: font Courier-Oblique
%%IncludeResource: font Courier-Bold
%%IncludeResource: font Courier-BoldOblique
%%IncludeResource: font Symbol
%%IncludeResource: font ZapfDingbats
/reEncode {exch findfont dup length dict begin {1 index /FID eq  {pop pop} {def} ifelse } forall /Encoding exch def currentdict end dup /FontName get exch definefont pop } def [/Times-Bold /Times-Italic /Times-BoldItalic /Helvetica /Helvetica-Oblique
 /Helvetica-Bold /Helvetica-BoldOblique /Courier /Courier-Oblique /Courier-Bold /Courier-BoldOblique /Times-Roman /AvantGarde-Book /AvantGarde-BookOblique /AvantGarde-Demi /AvantGarde-DemiOblique /Bookman-Demi /Bookman-DemiItalic /Bookman-Light
 /Bookman-LightItalic /Helvetica-Narrow /Helvetica-Narrow-Bold /Helvetica-Narrow-BoldOblique /Helvetica-Narrow-Oblique /NewCenturySchlbk-Roman /NewCenturySchlbk-Bold /NewCenturySchlbk-BoldItalic /NewCenturySchlbk-Italic /Palatino-Bold
 /Palatino-BoldItalic /Palatino-Italic /Palatino-Roman ] {ISOLatin1Encoding reEncode } forall
%%EndProlog
%%BeginSetup
%%EndSetup
newpath  gsave  .25 .25 scale  gsave  0 0 t 0.490196 0.545098 0.615686 c[  ] 0 sd 3 lw 0.941176 0.941176 0.941176 c 2268 1676 0 0 bf black 1 1 0.992157 c 1796 1140 245 201 bf black 1796 1140 245 201 bl 1 1 0.992157 c 1796 1140 245 201 bf black 1796
 1140 245 201 bl 245 201 m 1796 X s[ 4 8] 0 sd 412 1341 m -1140 Y s 594 1341 m -1140 Y s 775 1341 m -1140 Y s 956 1341 m -1140 Y s 1137 1341 m -1140 Y s 1318 1341 m -1140 Y s 1500 1341 m -1140 Y s 1681 1341 m -1140 Y s 1862 1341 m -1140 Y s 412 1341
 m -1140 Y s 1862 1341 m -1140 Y s[  ] 0 sd 245 201 m 1140 Y s[ 4 8] 0 sd 2041 201 m -1796 X s 2041 408 m -1796 X s 2041 616 m -1796 X s 2041 823 m -1796 X s 2041 1030 m -1796 X s 2041 1237 m -1796 X s 2041 1237 m -1796 X s 0 0 0.933333 c[  22 12 ] 0
 sd 6 lw 0.49 0.6 0.82 c black 0 0 0.933333 c 245 719 m 2 X 1 1 d 4 Y 1 1 d 7 Y 1 2 d 5 Y 1 1 d 6 Y 1 2 d 6 Y 1 1 d 6 Y 1 1 d 1 Y s 254 763 m 4 Y 1 1 d 8 Y 1 2 d 7 Y 1 1 d 5 Y 1 1 d 8 Y 1 1 d 5 Y 1 2 d 6 Y 1 1 d 5 Y 1 1 d 5 Y 1 1 d s 263 827 m 2 Y 1
 1 d 5 Y 1 1 d 4 Y 1 1 d 3 Y 1 X 4 Y 1 1 d 3 Y 1 X 3 Y 1 1 d 3 Y 1 X 3 Y s 271 862 m 1 1 d 3 Y 1 X 2 Y 1 X 4 Y 1 X 2 Y 1 1 d 3 Y 1 1 d 3 Y 1 X 3 Y 1 X 3 Y 1 1 d 1 Y s 280 890 m 1 Y 1 X 3 Y 1 1 d 1 Y 1 X 3 Y 1 1 d 1 Y 1 X 3 Y 1 X 3 Y 1 X 2 Y 1 1 d 2 Y
 1 X 1 Y s 289 913 m 1 Y 1 X 2 Y 1 1 d 2 Y 1 X 2 Y 1 1 d 1 Y 1 X 1 Y 1 1 d 1 Y 1 1 d 1 Y 1 X 1 Y 1 X 1 Y s 298 930 m 1 Y 1 X 1 Y 1 X 2 Y 1 X 1 Y 1 1 d 2 Y 1 -1 d 2 Y 1 X 1 Y 1 X 1 Y 1 1 d 2 Y 1 X s 307 944 m 1 Y 1 X 1 Y 1 X 2 Y 1 X 1 Y 1 1 d 2 Y 1 1
 d -1 Y 2 Y 1 X 2 Y 1 X 1 Y 1 X 2 Y s 315 959 m 1 X 1 Y 1 X 1 Y 1 X 1 Y 1 X 1 Y 1 X 1 Y -1 Y 1 Y 1 X 1 Y 1 X 1 Y 1 1 d 1 1 d 1 Y s 324 969 m 1 X 1 1 d 1 Y 2 X 3 Y 1 X 1 Y 1 X 1 Y 1 1 d 1 Y 1 X 1 Y 1 X s 333 979 m 1 Y 1 X 1 Y 1 X 1 Y 1 X 1 1 d 1 Y 1 X
 1 Y 1 1 d 1 X 1 Y 1 X 1 1 d s 342 988 m 1 Y 1 X 1 Y 1 X 1 Y 1 X 1 Y 1 X 2 Y 1 X 1 Y 1 1 d 1 X 1 Y 1 X 1 Y 1 X s 351 998 m 1 Y 1 X 1 Y 1 X 1 Y 1 -1 d 1 Y 1 X 2 Y 1 X 1 Y 1 X 1 Y 2 X 1 Y s 359 1006 m 1 1 d 1 1 d 1 X 1 Y 1 X 1 Y 1 X 1 Y 1 X 1 1 d 1 1 d
 1 X 1 Y s 368 1014 m 1 X 1 Y 1 X 1 1 d 2 X 1 Y 2 X 1 1 d 1 X s 377 1018 m 1 Y 3 X 1 Y 1 X 1 1 d 1 1 d 2 X 1 Y 1 X s 386 1023 m 1 X 1 Y 2 X 1 Y 1 X 1 Y 1 X 1 Y 2 X 1 1 d 1 X s 395 1028 m 1 Y 2 X 1 Y 1 X 1 1 d 1 X 1 Y 1 X 1 Y 2 X s 403 1033 m 1 1 d 2
 X 1 Y 1 X 1 Y 1 X -1 Y 1 1 d 1 X 1 Y 2 X 1 Y -1 Y 1 Y s 412 1038 m 2 X 2 Y 2 X 1 Y 3 X 1 1 d 1 X s 421 1042 m 1 X 1 Y 1 1 d 1 X 1 Y 1 X 1 Y 2 X 1 Y 2 X 1 1 d s 430 1048 m 1 X 1 Y 2 X 1 Y 1 X 1 Y 2 X 1 Y 3 X s 439 1052 m 1 1 d 4 X 1 Y 2 X 1 Y 1 X s
 447 1055 m 2 X 1 1 d 2 X 1 Y 3 X 1 Y 1 X s 456 1058 m 1 1 d 1 X 1 Y 4 X 1 Y 2 X 1 Y 1 X s 465 1062 m 1 X 1 Y 2 X 1 Y 2 X 1 Y 1 X 1 Y 3 X s 474 1066 m 1 X 1 Y 2 X 1 Y 4 X 1 Y 2 X s 483 1069 m 1 Y 4 X 1 Y 4 X 1 Y s 491 1072 m 1 X 1 1 d 2 X 1 Y 5 X s
 500 1074 m 1 X 1 Y 5 X 1 Y 3 X s 509 1076 m 1 X 1 Y 4 X 1 Y 4 X s 518 1078 m 1 X 1 Y 2 X 1 Y 3 X 1 Y 3 X s 527 1081 m 2 X 1 Y 4 X 1 1 d 1 X s 535 1083 m 4 X 1 Y 4 X 1 1 d s 544 1085 m 1 X 1 Y 5 X 1 1 d 2 X s 553 1087 m 5 X 1 1 d 3 X s 562 1088 m 1 X
 1 Y 5 X 1 1 d 2 X s 571 1090 m 5 X 1 1 d 1 X 1 1 d s 579 1092 m 5 X 1 1 d 1 X -1 Y 1 1 d 1 X s 588 1093 m 1 X 1 Y -1 Y 1 1 d 4 X 1 Y 3 X s 597 1095 m 2 X 1 1 d 1 X 1 Y 5 X s 606 1097 m 2 X 1 Y 7 X s 615 1098 m 1 Y 4 X 1 Y 4 X 1 Y s 623 1101 m 7 X 1
 Y 2 X s 632 1102 m 5 X 1 1 d 2 X 1 1 d s 641 1104 m 5 X 1 Y 3 X 1 Y -1 Y 1 X s 650 1105 m 1 Y 8 X 1 Y 1 X s 659 1107 m 3 X 1 Y 5 X s 667 1108 m 4 X 1 -1 d 1 X 1 Y 3 X 1 Y s 676 1109 m 5 X 1 Y 1 X 1 -1 d 2 X s 685 1109 m 1 Y 9 X s 694 1110 m 6 X 1 Y
 3 X s 703 1111 m 7 X 1 Y 1 X s 711 1112 m 4 X 1 1 d 4 X s 720 1113 m 1 X 1 Y 2 X -1 Y 1 X 1 1 d 1 X 1 1 d 2 X s 729 1115 m 2 X 1 1 d 6 X s 738 1116 m 9 X s 747 1116 m 2 X 1 Y 5 X 1 Y -1 Y 1 X s 755 1117 m 1 X 1 Y 2 X 1 1 d 5 X s 764 1119 m 3 X 1 Y 5
 X 1 Y 1 X s 773 1121 m 9 X s 782 1121 m 3 X 1 1 d 1 X -1 Y 2 X 1 1 d -1 Y 1 X s 791 1121 m 1 1 d 6 X 1 Y 1 X s 799 1123 m 9 X s 808 1123 m 5 X 1 Y 4 X s 817 1124 m 9 X s 826 1124 m 2 X 1 Y -1 Y 1 X 1 Y 6 X s 835 1125 m 8 X s 843 1125 m 9 X s 852
 1125 m 1 X 1 Y 6 X 1 Y 2 X s 861 1127 m 7 X -1 Y 1 X 1 Y 1 X s 870 1127 m 7 X 1 Y 2 X s 879 1128 m 1 X 1 -1 d 6 X s 887 1127 m 2 X 1 Y 7 X s 896 1128 m 1 Y 1 X -1 Y 1 1 d 7 X s 905 1129 m 9 X s 914 1129 m 9 X s 923 1129 m 8 X s 931 1129 m 9 X s 940
 1129 m 9 X s 949 1129 m 5 X 1 Y 2 X -1 Y 2 X 1 Y s 958 1130 m 9 X s 967 1130 m 8 X s 975 1130 m 6 X 1 Y 3 X s 984 1131 m 9 X s 993 1131 m 1 X 1 Y 1 X -1 Y 4 X 1 Y 3 X s 1002 1132 m 9 X s 1011 1132 m 8 X s 1019 1132 m 9 X s 1028 1132 m 9 X s 1037
 1132 m 9 X s 1046 1132 m 5 X 1 Y 4 X s 1055 1133 m 2 X 1 1 d 3 X 1 Y 2 X s 1063 1135 m 9 X s 1072 1135 m 1 1 d 8 X s 1081 1136 m 9 X s 1090 1136 m 4 X 1 1 d 4 X s 1099 1137 m 4 X 1 1 d 1 X -1 Y 1 X 1 1 d s 1107 1138 m 9 X s 1116 1138 m 7 X 1 Y 2 X s
 1125 1139 m 4 X 1 Y -1 Y 5 X s 1134 1139 m 8 X 1 Y 1 X s 1143 1140 m 8 X s 1151 1140 m 9 X s 1160 1140 m 9 X s 1169 1140 m 9 X s 1178 1140 m 9 X s 1187 1140 m 8 X s 1195 1140 m 9 X s 1204 1140 m 5 X -1 Y 1 Y 4 X s 1213 1140 m 9 X s 1222 1140 m -1 Y
 2 X 1 Y 1 X -1 Y 1 X 1 Y 5 X s 1231 1140 m 1 X -1 Y 2 X 1 Y 2 X -1 Y 2 X 1 Y 1 X s 1239 1140 m 1 X -1 Y 8 X s 1248 1139 m 9 X s 1257 1139 m 9 X s 1266 1139 m 8 X 1 Y 1 -1 d s 1275 1139 m 1 Y 8 X s 1283 1140 m 9 X s 1292 1140 m 9 X s 1301 1140 m 9 X
 s 1310 1140 m 9 X s 1319 1140 m 8 X s 1327 1140 m 9 X s 1336 1140 m 9 X s 1345 1140 m 9 X s 1354 1140 m 8 X -1 Y 1 X s 1363 1139 m 5 X 1 Y 3 X s 1371 1140 m 6 X -1 Y 3 X s 1380 1139 m 9 X s 1389 1139 m 4 X 1 -1 d 4 X s 1398 1138 m 9 X s 1407 1138 m
 8 X s 1415 1138 m 9 X s 1424 1138 m 9 X s 1433 1138 m 9 X s 1442 1138 m 9 X s 1451 1138 m 8 X s 1459 1138 m 9 X s 1468 1138 m 1 -1 d 1 X 1 Y 6 X -1 Y 1 X s 1477 1137 m 9 X s 1486 1137 m 6 X 1 1 d -1 Y 1 X 1 1 d s 1495 1138 m -1 Y 8 X s 1503 1137 m 4
 X 1 Y 5 X -1 Y 1 Y s 1512 1138 m 3 X 1 -1 d 1 X 1 Y 4 X s 1521 1138 m 1 X -1 Y 8 X s 1530 1137 m 9 X s 1539 1137 m 5 X -1 Y 2 X 1 Y 1 X s 1547 1137 m 3 X 1 -1 d 1 Y 5 X s 1556 1137 m 1 -1 d 1 X 1 Y 3 X -1 Y 4 X s 1565 1136 m 7 X -1 Y 2 X s 1574 1135
 m 9 X s 1583 1135 m 8 X s 1591 1135 m 1 X 1 -1 d 7 X s 1600 1134 m 5 X -1 Y 4 X s 1609 1133 m 9 X s 1618 1133 m 9 X s 1627 1133 m 3 X -1 Y 5 X s 1635 1132 m 9 X s 1644 1132 m 6 X 1 -1 d 2 X s 1653 1131 m 3 X 1 1 d -1 Y 5 X s 1662 1131 m 9 X s 1671
 1131 m 3 X -1 Y 5 X s 1679 1130 m 9 X s 1688 1130 m 5 X 1 -1 d 3 X s 1697 1129 m 7 X 1 1 d 1 X s 1706 1130 m 3 X -1 Y 6 X s 1715 1129 m 8 X -1 Y s 1723 1128 m 9 X s 1732 1128 m 9 X s 1741 1128 m 3 X -1 Y 1 Y 2 X -1 Y 4 X s 1750 1127 m 7 X -1 Y 2 X s
 1759 1126 m 8 X s 1767 1126 m 4 X -1 Y 5 X s 1776 1125 m 7 X -1 Y 2 X s 1785 1124 m 9 X -1 Y s 1794 1123 m 8 X -1 Y 1 X s 1803 1122 m 1 X -1 Y 2 X 1 Y 2 X -1 Y 4 X s 1812 1121 m 4 X -1 Y 1 X 1 Y 1 X -1 Y 2 X s 1820 1120 m 7 X -1 Y 2 X s 1829 1119 m
 6 X -1 Y 1 X 1 1 d -1 Y 1 X s 1838 1118 m 7 X 1 -1 d 1 X s 1847 1117 m 4 X 1 -1 d 4 X s 1856 1116 m 1 X 1 Y 2 X -1 Y 4 X -1 Y 1 X 1 Y -1 Y s 1864 1115 m 3 X 1 -1 d 1 Y 1 X -1 Y 4 X s 1873 1114 m 1 X -1 Y 4 X -1 Y 3 X 1 -1 d s 1882 1111 m 2 X -1 Y 3
 X 1 -1 d 1 X -1 Y 2 X s 1891 1108 m -1 Y 3 X -1 Y 3 X 1 -1 d 2 X s 1900 1105 m 2 X 1 -1 d 3 X -1 Y 2 X s 1908 1103 m 1 X -1 Y 5 X -1 Y 3 X s 1917 1101 m 1 -1 d 3 X -1 Y 1 X -1 Y 2 X -1 Y 1 X -1 Y 1 X s 1926 1096 m 1 X -1 Y 1 -1 d 1 -1 d 1 X -1 Y 1 X
 -1 Y 1 X -1 Y 2 X -1 Y 1 X s 1935 1089 m 1 X -1 Y 1 X -1 Y 1 X -1 Y 1 -1 d 1 X -1 Y 1 X -1 Y 1 X -1 Y 1 X -1 Y 1 -1 d s 1944 1080 m 1 -1 d -1 Y 1 X -1 Y 1 X -2 Y 1 X -1 Y 1 -1 d -1 Y 1 -1 d -1 Y 1 X -3 Y 1 -1 d -1 Y s 1952 1065 m -1 Y 1 X -1 Y 1 X
 -3 Y 1 X -2 Y 1 X -3 Y 1 -1 d -1 Y 1 -1 d -2 Y 1 -1 d -3 Y 1 -1 d -3 Y 1 X -2 Y s 1961 1040 m 1 -1 d -2 Y 1 X -4 Y 1 X -4 Y 1 X -4 Y 1 -1 d -4 Y 1 -1 d -2 Y 1 X -3 Y 1 X -4 Y 1 X -1 Y s 1970 1009 m -3 Y 1 X -3 Y 1 -1 d -3 Y 1 -1 d -3 Y 1 -1 d -5 Y 1
 -1 d -3 Y 1 -1 d -3 Y 1 -1 d -4 Y 1 -1 d -3 Y 1 X -1 Y s 1979 971 m -4 Y 1 -1 d -2 Y 1 X -4 Y 1 X -4 Y 1 -1 d -4 Y 1 X -4 Y 1 -1 d -3 Y 1 -2 d -3 Y 1 -1 d -2 Y 1 -1 d s 1988 934 m -3 Y 1 -1 d -5 Y 1 -1 d -3 Y 1 X -4 Y 1 -1 d -3 Y 1 -1 d -4 Y 1 -1 d
 -4 Y 1 X -4 Y 1 -1 d -2 Y s 1996 896 m -1 Y 1 X -3 Y 1 -1 d -4 Y 1 -1 d -4 Y 1 X -4 Y 1 -2 d -4 Y 1 -1 d -3 Y 1 -1 d -5 Y 1 -1 d -3 Y 1 -1 d -2 Y s 2005 855 m -1 Y 1 -1 d -5 Y 1 -1 d -3 Y 1 -1 d -3 Y 1 -1 d -6 Y 1 -1 d -4 Y 1 -2 d -5 Y 1 -1 d -5 Y 1
 X -4 Y 1 -2 d -3 Y s 2014 806 m -3 Y 1 -1 d -5 Y 1 -2 d -5 Y 1 -1 d -5 Y 1 -2 d -7 Y 1 -2 d -9 Y 1 -1 d -6 Y 1 -2 d -12 Y 1 -3 d -8 Y 1 -3 d -2 Y s 2023 727 m -10 Y 1 -4 d -14 Y 1 -5 d -14 Y 1 -4 d -18 Y 1 -3 d -12 Y 1 -4 d -12 Y 1 -4 d -10 Y 1 -4 d
 -18 Y 1 -3 d -13 Y 1 -5 d s 2032 570 m -16 Y 1 -4 d -21 Y 1 -4 d -18 Y 1 -4 d -24 Y 1 -6 d -27 Y 1 -7 d -34 Y 1 -8 d -29 Y 1 -8 d -59 Y 1 -14 d -55 Y s 2040 232 m -13 Y 1 -9 d -7 Y s black[  ] 0 sd 3 lw 245 201 m 1796 X s 412 241 m -40 Y s 449 221 m
 -20 Y s 485 221 m -20 Y s 521 221 m -20 Y s 557 221 m -20 Y s 594 241 m -40 Y s 630 221 m -20 Y s 666 221 m -20 Y s 702 221 m -20 Y s 739 221 m -20 Y s 775 241 m -40 Y s 811 221 m -20 Y s 847 221 m -20 Y s 884 221 m -20 Y s 920 221 m -20 Y s 956 241
 m -40 Y s 992 221 m -20 Y s 1028 221 m -20 Y s 1065 221 m -20 Y s 1101 221 m -20 Y s 1137 241 m -40 Y s 1173 221 m -20 Y s 1210 221 m -20 Y s 1246 221 m -20 Y s 1282 221 m -20 Y s 1318 241 m -40 Y s 1355 221 m -20 Y s 1391 221 m -20 Y s 1427 221 m
 -20 Y s 1463 221 m -20 Y s 1500 241 m -40 Y s 1536 221 m -20 Y s 1572 221 m -20 Y s 1608 221 m -20 Y s 1645 221 m -20 Y s 1681 241 m -40 Y s 1717 221 m -20 Y s 1753 221 m -20 Y s 1790 221 m -20 Y s 1826 221 m -20 Y s 1862 241 m -40 Y s 412 241 m -40
 Y s 376 221 m -20 Y s 340 221 m -20 Y s 304 221 m -20 Y s 267 221 m -20 Y s 1862 241 m -40 Y s 1898 221 m -20 Y s 1935 221 m -20 Y s 1971 221 m -20 Y s 2007 221 m -20 Y s
 gsave  2268 1676 0 0 C 367.84 128.934 t 0 r /Helvetica-Bold findfont 64.4669 sf 0 0 m (0.1) show NC gr 
 gsave  2268 1676 0 0 C 546.072 128.934 t 0 r /Helvetica-Bold findfont 64.4669 sf 0 0 m (0.2) show NC gr 
 gsave  2268 1676 0 0 C 728.096 128.934 t 0 r /Helvetica-Bold findfont 64.4669 sf 0 0 m (0.3) show NC gr 
 gsave  2268 1676 0 0 C 910.12 128.934 t 0 r /Helvetica-Bold findfont 64.4669 sf 0 0 m (0.4) show NC gr 
 gsave  2268 1676 0 0 C 1088.35 128.934 t 0 r /Helvetica-Bold findfont 64.4669 sf 0 0 m (0.5) show NC gr 
 gsave  2268 1676 0 0 C 1270.38 128.934 t 0 r /Helvetica-Bold findfont 64.4669 sf 0 0 m (0.6) show NC gr 
 gsave  2268 1676 0 0 C 1452.4 128.934 t 0 r /Helvetica-Bold findfont 64.4669 sf 0 0 m (0.7) show NC gr 
 gsave  2268 1676 0 0 C 1634.42 128.934 t 0 r /Helvetica-Bold findfont 64.4669 sf 0 0 m (0.8) show NC gr 
 gsave  2268 1676 0 0 C 1816.45 128.934 t 0 r /Helvetica-Bold findfont 64.4669 sf 0 0 m (0.9) show NC gr 
 gsave  2268 1676 0 0 C 762.226 30.3373 t 0 r /Helvetica-Bold findfont 72.0512 sf 0 0 m (Cut value applied on MLPBNN output) show NC gr  245 201 m 1140 Y s 291 201 m -46 X s 268 253 m -23 X s 268 305 m -23 X s 268 357 m -23 X s 291 408 m -46 X s 268
 460 m -23 X s 268 512 m -23 X s 268 564 m -23 X s 291 616 m -46 X s 268 667 m -23 X s 268 719 m -23 X s 268 771 m -23 X s 291 823 m -46 X s 268 875 m -23 X s 268 926 m -23 X s 268 978 m -23 X s 291 1030 m -46 X s 268 1082 m -23 X s 268 1134 m -23 X
 s 268 1185 m -23 X s 291 1237 m -46 X s 291 1237 m -46 X s 268 1289 m -23 X s 268 1341 m -23 X s
 gsave  2268 1676 0 0 C 182.024 178.232 t 0 r /Helvetica-Bold findfont 64.4669 sf 0 0 m (0) show NC gr 
 gsave  2268 1676 0 0 C 128.934 383.009 t 0 r /Helvetica-Bold findfont 64.4669 sf 0 0 m (0.2) show NC gr 
 gsave  2268 1676 0 0 C 125.142 591.578 t 0 r /Helvetica-Bold findfont 64.4669 sf 0 0 m (0.4) show NC gr 
 gsave  2268 1676 0 0 C 128.934 796.355 t 0 r /Helvetica-Bold findfont 64.4669 sf 0 0 m (0.6) show NC gr 
 gsave  2268 1676 0 0 C 125.142 1004.92 t 0 r /Helvetica-Bold findfont 64.4669 sf 0 0 m (0.8) show NC gr 
 gsave  2268 1676 0 0 C 189.608 1213.49 t 0 r /Helvetica-Bold findfont 64.4669 sf 0 0 m (1) show NC gr 
 gsave  2268 1676 0 0 C 64.4669 731.888 t 90 r /Helvetica-Bold findfont 72.0512 sf 0 0 m (Efficiency \(Purity\)) show NC gr  0 0 0.933333 c[  52 12 ] 0 sd 6 lw 0.49 0.6 0.82 c black 0 0 0.933333 c 245 719 m 2 X 1 1 d 4 Y 1 1 d 7 Y 1 2 d 5 Y 1 1 d 6 Y
 1 2 d 6 Y 1 1 d 7 Y 1 1 d 1 Y s 254 764 m 4 Y 1 1 d 9 Y 1 1 d 7 Y 1 1 d 5 Y 1 2 d 8 Y 1 1 d 5 Y 1 1 d 6 Y 1 1 d 5 Y 1 2 d 5 Y 1 1 d s 263 829 m 2 Y 1 1 d 5 Y 1 1 d 4 Y 1 1 d 3 Y 1 1 d 4 Y 1 X 4 Y 1 X 3 Y 1 1 d 3 Y 1 X 3 Y s 271 865 m 1 1 d 3 Y 1 1 d
 1 Y 1 X 4 Y 1 1 d 2 Y 1 X 4 Y 1 X 3 Y 1 1 d 2 Y 1 1 d 3 Y 1 1 d 1 Y s 280 894 m 1 1 d 3 Y 1 X 2 Y 1 X 3 Y 1 1 d 1 Y 1 X 3 Y 1 X 3 Y 1 X 2 Y 1 1 d 2 Y 1 X 1 Y s 289 917 m 1 Y 1 1 d 1 Y 1 1 d 2 Y 1 1 d 2 Y 1 X 1 Y 1 1 d 1 Y 1 1 d 1 Y 1 X 2 Y 1 X 1 Y 1
 X s 298 934 m 2 Y 1 X 1 Y 1 X 2 Y 1 X 2 Y 1 X 2 Y 1 X 1 Y 1 X 2 Y 1 X 1 Y 1 1 d 2 Y 1 X s 307 950 m 1 Y 1 X 1 Y 1 X 2 Y 1 X 2 Y 1 X 3 Y 1 X 1 Y 1 1 d 1 Y 1 X 2 Y 1 X 1 Y s 315 965 m 1 X 1 Y 1 1 d 1 Y 1 X 1 Y 1 X 1 Y 1 X 2 Y 1 -1 d 1 Y 1 1 d 1 Y 1 X
 1 Y 1 X 1 Y s 324 976 m 1 X 1 Y 1 X 1 Y 1 1 d 1 X 2 Y 1 X 2 Y 1 X 1 Y 1 1 d 1 Y 1 X 1 Y 1 X 1 Y s 333 988 m 1 X 1 Y 1 1 d 1 X 1 Y 1 X 1 Y 1 1 d 1 Y 1 X 1 Y 1 X 1 Y 1 X -1 Y 1 Y 1 1 d s 342 997 m 1 Y 1 X 1 1 d 1 Y 1 X 1 Y 1 X 2 Y 1 X 1 Y 1 1 d 1 X 1
 Y 1 X 1 Y 1 X s 351 1007 m 1 Y 1 X 1 Y 1 X 1 Y 1 X 1 Y 1 X 2 Y 1 X 1 Y 2 X 1 Y 1 X 1 Y s 359 1016 m 1 1 d 1 1 d 1 X 1 Y 1 X 1 Y 1 X 1 Y 1 X 1 Y 1 X 1 Y 1 X 1 Y 1 X s 368 1024 m 1 X 1 Y 1 X 1 Y 2 X 1 Y 3 X 1 Y 1 X 1 Y 1 X s 377 1029 m 1 X 1 Y 2 X 1 Y
 1 X 1 1 d 1 1 d 2 X 1 Y 1 X s 386 1034 m 1 X 1 Y 1 X 1 Y 1 X 1 1 d 1 X 1 Y 1 X 1 1 d 1 1 d 1 X s 395 1040 m 1 X 1 Y 1 X 1 Y 2 X 1 Y 1 X 1 Y 1 X 1 Y 2 X s 403 1045 m 1 1 d 2 X 1 Y 1 X 1 Y 3 X 1 Y 1 X 1 Y 1 X s 412 1050 m 1 Y 2 X 2 Y 3 X 1 Y 2 X 1 1 d
 1 X s 421 1055 m 1 X 1 Y 1 1 d 1 X 1 Y 1 X 1 Y 2 X 1 Y 1 X 1 Y 2 X s 430 1061 m 1 Y 2 X 1 Y 1 X 1 Y 1 X 1 Y 2 X 1 1 d 2 X s 439 1066 m 1 1 d 3 X 1 Y 2 X 1 Y 2 X s 447 1069 m 1 X 1 Y 2 X 1 Y 3 X 1 Y 2 X 1 Y 1 X s 456 1073 m 1 X 1 Y 2 X 1 Y 4 X 1 Y 2
 X s 465 1076 m 1 Y 2 X 1 Y 1 X 1 Y 2 X 1 Y 1 X 1 Y 3 X 1 Y s 474 1082 m 2 X 1 Y 2 X 1 1 d 3 X 1 Y 1 X s 483 1085 m 1 X 1 Y 4 X 1 1 d 2 X 1 Y s 491 1088 m 2 X 1 Y 3 X 1 Y 4 X s 500 1090 m 1 X 1 Y 3 X 1 Y 4 X 1 1 d s 509 1093 m 3 X 1 Y 2 X 1 Y 4 X s
 518 1095 m 1 X 1 Y 2 X 1 Y 3 X 1 Y 1 X 1 Y 1 -1 d 1 Y 1 X s 527 1099 m 4 X 1 1 d 3 X s 535 1100 m 1 X 1 Y 6 X 1 Y 2 X 1 Y s 544 1103 m 1 X 1 Y 5 X 1 1 d 2 X s 553 1105 m 3 X 1 Y 6 X s 562 1106 m 1 X 1 Y 3 X 1 1 d 4 X s 571 1108 m 1 X 1 Y 5 X 1 Y 2 X
 1 Y s 579 1111 m 5 X 1 Y 4 X 1 Y s 588 1113 m 4 X 1 Y 2 X 1 Y 3 X s 597 1115 m 2 X 1 1 d 1 X 1 Y 4 X 1 1 d s 606 1118 m 8 X 1 Y 1 X s 615 1119 m 2 X 1 Y 4 X 1 Y 2 X s 623 1121 m 3 X 1 1 d 3 X 1 Y 2 X s 632 1123 m 5 X 1 1 d 2 X 1 Y 1 X s 641 1125 m 3
 X 1 Y 3 X 1 Y 3 X s 650 1127 m 1 Y 4 X 1 Y 5 X s 659 1129 m 1 X 1 1 d 6 X s 667 1130 m 2 X 1 Y 6 X 1 1 d s 676 1132 m 2 X 1 Y 7 X s 685 1133 m 2 X 1 Y 7 X s 694 1134 m 1 X 1 Y 5 X 1 Y 3 X s 703 1136 m 6 X 1 Y 2 X s 711 1137 m 2 X 1 Y 6 X 1 Y 1 X s
 720 1139 m 5 X 1 Y 2 X 1 Y 2 X s 729 1141 m 2 X 1 Y 7 X s 738 1142 m 1 Y 9 X s 747 1143 m 1 X 1 Y 5 X 1 Y 2 X s 755 1145 m 3 X 1 Y 6 X 1 Y s 764 1147 m 3 X 1 Y 5 X 1 Y 1 X s 773 1149 m 8 X 1 Y 1 X s 782 1150 m 3 X 1 1 d 5 X s 791 1151 m 3 X 1 Y 5 X
 s 799 1152 m 9 X 1 Y s 808 1153 m 9 X 1 Y s 817 1154 m 8 X 1 1 d s 826 1155 m 9 X s 835 1155 m 8 X 1 Y s 843 1156 m 9 X s 852 1156 m 1 X 1 Y 6 X 1 Y 2 X s 861 1158 m 9 X s 870 1158 m 1 Y 9 X s 879 1159 m 2 X 1 1 d 5 X s 887 1160 m 3 X 1 Y 6 X s 896
 1161 m 6 X 1 Y 3 X s 905 1162 m 8 X 1 Y 1 X s 914 1163 m 9 X s 923 1163 m 8 X s 931 1163 m 7 X 1 Y 2 X s 940 1164 m 9 X 1 Y s 949 1165 m 9 X s 958 1165 m 1 Y 9 X s 967 1166 m 8 X s 975 1166 m 3 X 1 1 d 5 X s 984 1167 m 5 X 1 Y 4 X s 993 1168 m 7 X 1
 1 d 1 X s 1002 1169 m 9 X s 1011 1169 m 8 X s 1019 1169 m 5 X 1 1 d 3 X s 1028 1170 m 9 X s 1037 1170 m 1 X 1 Y 1 X -1 Y 2 X 1 Y 5 X s 1046 1171 m 4 X 1 Y 5 X s 1055 1172 m 1 X 1 Y 4 X 1 Y 3 X 1 Y s 1063 1175 m 9 X s 1072 1175 m 1 1 d 3 X 1 1 d 1 X
 -1 Y 1 X 1 Y 2 X s 1081 1177 m 9 X s 1090 1177 m 3 X 1 Y 6 X s 1099 1178 m 1 1 d 6 X 1 1 d s 1107 1180 m 9 X s 1116 1180 m 5 X 1 Y 4 X s 1125 1181 m 2 X 1 Y 7 X s 1134 1182 m 7 X 1 Y 2 X s 1143 1183 m 7 X 1 Y 1 X s 1151 1184 m 9 X s 1160 1184 m 7 X
 1 Y 2 X s 1169 1185 m 9 X s 1178 1185 m 9 X s 1187 1185 m 1 Y 8 X s 1195 1186 m 9 X s 1204 1186 m 9 X s 1213 1186 m 3 X 1 Y 6 X s 1222 1187 m 8 X 1 1 d s 1231 1188 m 1 X -1 Y 2 X 1 Y 5 X s 1239 1188 m 9 X s 1248 1188 m 9 X s 1257 1188 m 3 X 1 Y 6 X
 s 1266 1189 m 9 X s 1275 1189 m 4 X 1 Y 3 X 1 Y 1 X s 1283 1191 m 9 X s 1292 1191 m 9 X s 1301 1191 m 2 X 1 Y 7 X s 1310 1192 m 9 X s 1319 1192 m 8 X s 1327 1192 m 1 X 1 Y 8 X s 1336 1193 m 9 X s 1345 1193 m 9 X s 1354 1193 m 9 X s 1363 1193 m 5 X 1
 Y 3 X s 1371 1194 m 9 X s 1380 1194 m 9 X s 1389 1194 m 9 X s 1398 1194 m 9 X s 1407 1194 m 1 Y 8 X s 1415 1195 m 9 X s 1424 1195 m 1 Y 9 X s 1433 1196 m 9 X s 1442 1196 m 9 X s 1451 1196 m 5 X 1 Y 3 X s 1459 1197 m 9 X s 1468 1197 m 9 X s 1477 1197
 m 9 X s 1486 1197 m 3 X 1 Y 6 X s 1495 1198 m 6 X 1 Y 2 X s 1503 1199 m 9 X 1 Y s 1512 1200 m 9 X s 1521 1200 m 9 X s 1530 1200 m 9 X s 1539 1200 m 7 X 1 1 d s 1547 1201 m 9 X s 1556 1201 m 9 X s 1565 1201 m 9 X s 1574 1201 m 5 X 1 Y 4 X s 1583 1202
 m 8 X s 1591 1202 m 9 X s 1600 1202 m 9 X s 1609 1202 m 9 X s 1618 1202 m 9 X s 1627 1202 m -1 Y 8 X s 1635 1201 m 7 X 1 Y 2 X s 1644 1202 m 9 X s 1653 1202 m 9 X s 1662 1202 m 3 X 1 Y 6 X s 1671 1203 m 8 X s 1679 1203 m 7 X 1 Y 2 X s 1688 1204 m 9
 X s 1697 1204 m 7 X 1 Y 2 X s 1706 1205 m 9 X s 1715 1205 m 4 X 1 Y 4 X s 1723 1206 m 9 X s 1732 1206 m 9 X s 1741 1206 m 7 X 1 Y 2 X s 1750 1207 m 9 X s 1759 1207 m 8 X s 1767 1207 m 9 X s 1776 1207 m 2 X 1 Y 7 X s 1785 1208 m 9 X s 1794 1208 m 6 X
 1 Y 3 X s 1803 1209 m 9 X s 1812 1209 m 5 X 1 Y 3 X s 1820 1210 m 9 X s 1829 1210 m 9 X s 1838 1210 m 1 Y 9 X s 1847 1211 m 9 X s 1856 1211 m 8 X 1 Y s 1864 1212 m 9 X s 1873 1212 m 9 X s 1882 1212 m 9 X s 1891 1212 m 4 X 1 Y 5 X s 1900 1213 m 8 X s
 1908 1213 m 7 X 1 Y 2 X s 1917 1214 m 9 X s 1926 1214 m 5 X 1 Y -1 Y 2 X 1 Y 2 X s 1935 1215 m 8 X 1 Y 1 X s 1944 1216 m -1 Y 8 X s 1952 1215 m 3 X 1 Y 1 -1 d 1 Y 5 X s 1961 1216 m 4 X 1 Y 5 X 1 Y s 1970 1218 m 1 X 1 Y 4 X 1 Y 4 X s 1979 1220 m 3 X
 1 Y 1 -1 d 1 1 d 2 X 1 Y 2 X s 1988 1222 m 5 X 1 Y 2 X 1 Y 1 -1 d s 1996 1223 m 2 X 1 Y 6 X 1 Y 1 X s 2005 1225 m 2 Y 1 X -1 Y 1 X 1 Y 1 X 1 Y 6 X s 2014 1228 m 5 X 1 Y 3 X 1 Y 1 -1 d s 2023 1229 m 1 Y 5 X -1 Y 1 X 1 Y 3 X s 2032 1230 m 2 Y 1 X -1 Y
 1 Y 2 X -1 Y 1 X -1 Y 1 X -1 Y 2 Y 1 X 1 Y -1 Y 1 X 1 Y -1 Y 1 Y 1 X -3 Y 8 Y s 2040 1237 m 1 X s[  ] 0 sd 9 lw 0.49 0.6 0.82 c black 0 0 0.933333 c 245 1237 m 6 X -1 Y 3 X s 254 1236 m 1 X -1 Y 5 X -1 Y 3 X s 263 1234 m 1 X -1 Y 6 X -1 Y 1 X s 271
 1232 m 9 X s 280 1232 m 1 -1 d 8 X s 289 1231 m 9 X s 298 1231 m -1 Y 7 X -1 Y 2 X s 307 1229 m 5 X -1 Y 3 X s 315 1228 m 5 X 1 -1 d 3 X s 324 1227 m 8 X -1 Y 1 X s 333 1226 m 9 X s 342 1226 m 8 X -1 Y 1 X s 351 1225 m 8 X s 359 1225 m 6 X -1 Y 3 X
 s 368 1224 m 9 X s 377 1224 m 5 X -1 Y 4 X s 386 1223 m 9 X s 395 1223 m 8 X s 403 1223 m 4 X -1 Y 5 X s 412 1222 m 6 X -1 Y 3 X s 421 1221 m 9 X s 430 1221 m 7 X 1 -1 d 1 X s 439 1220 m 8 X s 447 1220 m 9 X s 456 1220 m 9 X s 465 1220 m 8 X -1 Y 1
 X s 474 1219 m 9 X s 483 1219 m 8 X s 491 1219 m 9 X -1 Y s 500 1218 m 9 X s 509 1218 m 9 X s 518 1218 m 1 -1 d 8 X s 527 1217 m 8 X s 535 1217 m 9 X s 544 1217 m 9 X s 553 1217 m 4 X -1 Y 5 X s 562 1216 m 9 X s 571 1216 m 8 X s 579 1216 m 4 X -1 Y
 5 X s 588 1215 m 9 X s 597 1215 m 9 X s 606 1215 m 3 X -1 Y 6 X s 615 1214 m 8 X s 623 1214 m 9 X s 632 1214 m 9 X s 641 1214 m 1 X -1 Y 8 X s 650 1213 m 4 X -1 Y 5 X s 659 1212 m 8 X s 667 1212 m 4 X -1 Y 5 X s 676 1211 m 9 X s 685 1211 m 8 X -1 Y
 1 X s 694 1210 m 9 X s 703 1210 m 4 X -1 Y 4 X s 711 1209 m 9 X s 720 1209 m 8 X -1 Y 1 X s 729 1208 m 9 X s 738 1208 m 6 X -1 Y 3 X s 747 1207 m 8 X s 755 1207 m 9 X s 764 1207 m 9 X s 773 1207 m 2 X -1 Y 7 X s 782 1206 m 5 X -1 Y 4 X s 791 1205 m
 8 X s 799 1205 m 9 X s 808 1205 m 9 X s 817 1205 m 3 X -1 Y 6 X s 826 1204 m 9 X s 835 1204 m 8 X s 843 1204 m 9 X s 852 1204 m 9 X s 861 1204 m 3 X -1 Y 6 X s 870 1203 m 9 X s 879 1203 m 3 X -1 Y 5 X s 887 1202 m 9 X s 896 1202 m 9 X s 905 1202 m 2
 X -1 Y 7 X s 914 1201 m 9 X s 923 1201 m 6 X -1 Y 2 X s 931 1200 m 9 X s 940 1200 m 4 X -1 Y 5 X s 949 1199 m 9 X s 958 1199 m 9 X s 967 1199 m 8 X s 975 1199 m 1 X -1 Y 8 X s 984 1198 m 9 X s 993 1198 m 9 X s 1002 1198 m 9 X s 1011 1198 m 8 X s
 1019 1198 m 3 X -1 Y 6 X s 1028 1197 m 9 X s 1037 1197 m 2 X -1 Y 7 X s 1046 1196 m 6 X -1 Y 3 X s 1055 1195 m 8 X s 1063 1195 m 9 X s 1072 1195 m 6 X -1 Y 3 X s 1081 1194 m 9 X s 1090 1194 m 5 X -1 Y 4 X s 1099 1193 m 8 X s 1107 1193 m 9 X s 1116
 1193 m 9 X s 1125 1193 m 4 X -1 Y 5 X s 1134 1192 m 9 X s 1143 1192 m 8 X s 1151 1192 m 3 X -1 Y 6 X s 1160 1191 m 9 X -1 Y s 1169 1190 m 9 X s 1178 1190 m 4 X -1 Y 5 X s 1187 1189 m 8 X s 1195 1189 m 9 X s 1204 1189 m 2 X 1 -1 d 6 X s 1213 1188 m 9
 X s 1222 1188 m 3 X -1 Y 6 X s 1231 1187 m 5 X -1 Y 3 X s 1239 1186 m 9 X s 1248 1186 m 9 X s 1257 1186 m 9 X s 1266 1186 m 1 -1 d 8 X s 1275 1185 m 8 X s 1283 1185 m 1 X -1 Y 8 X s 1292 1184 m 8 X -1 Y 1 X s 1301 1183 m 9 X s 1310 1183 m 9 X s 1319
 1183 m 8 X s 1327 1183 m 2 X 1 -1 d 6 X s 1336 1182 m 9 X s 1345 1182 m 7 X 1 -1 d 1 X s 1354 1181 m 9 X s 1363 1181 m 8 X s 1371 1181 m 6 X -1 Y 3 X s 1380 1180 m 9 X s 1389 1180 m 4 X 1 -1 d 4 X s 1398 1179 m 5 X 1 -1 d 3 X s 1407 1178 m 8 X s
 1415 1178 m 9 X s 1424 1178 m 4 X -1 Y 5 X s 1433 1177 m 9 X s 1442 1177 m 9 X s 1451 1177 m 2 X -1 Y 6 X s 1459 1176 m 9 X s 1468 1176 m 1 -1 d 8 X s 1477 1175 m 9 X s 1486 1175 m 7 X -1 Y 2 X s 1495 1174 m 8 X -1 Y s 1503 1173 m 9 X s 1512 1173 m
 9 X s 1521 1173 m 3 X -1 Y 6 X s 1530 1172 m 9 X s 1539 1172 m 1 X -1 Y 7 X s 1547 1171 m 9 X s 1556 1171 m 1 -1 d 8 X s 1565 1170 m 1 X 1 -1 d 7 X s 1574 1169 m 3 X -1 Y 6 X s 1583 1168 m 8 X s 1591 1168 m 4 X -1 Y 5 X s 1600 1167 m 9 X s 1609 1167
 m 1 X -1 Y 8 X s 1618 1166 m 9 X s 1627 1166 m 8 X -1 Y s 1635 1165 m 9 X s 1644 1165 m 6 X -1 Y 3 X s 1653 1164 m 9 X s 1662 1164 m 1 -1 d 8 X s 1671 1163 m 3 X -1 Y 5 X s 1679 1162 m 5 X -1 Y 4 X s 1688 1161 m 5 X 1 -1 d 3 X s 1697 1160 m 9 X s
 1706 1160 m 2 X -1 Y 7 X s 1715 1159 m 3 X -1 Y 5 X s 1723 1158 m 1 -1 d 8 X s 1732 1157 m 9 X s 1741 1157 m 2 X -1 Y 7 X -1 Y s 1750 1155 m 7 X -1 Y 2 X s 1759 1154 m 8 X s 1767 1154 m 1 X -1 Y 8 X s 1776 1153 m -1 Y 8 X 1 -1 d s 1785 1151 m 5 X -1
 Y 4 X s 1794 1150 m 4 X -1 Y 4 X -1 Y 1 X s 1803 1148 m 3 X -1 Y 6 X s 1812 1147 m 1 X -1 Y 6 X -1 Y 1 X s 1820 1145 m 5 X 1 -1 d 3 X s 1829 1144 m 5 X -1 Y 4 X s 1838 1143 m 1 X -1 Y 7 X -1 Y 1 X s 1847 1141 m 4 X 1 -1 d 4 X s 1856 1140 m 3 X -1 Y
 5 X s 1864 1139 m 1 -1 d 4 X -1 Y 4 X -1 Y s 1873 1136 m 5 X -1 Y 2 X -1 Y 2 X s 1882 1134 m 1 X -1 Y 1 X 1 -1 d 3 X -1 Y 2 X 1 -1 d s 1891 1130 m 2 X -1 Y 2 X -1 Y 3 X -1 Y 2 X s 1900 1127 m 2 X 1 -1 d 2 X -1 Y 3 X -1 Y s 1908 1124 m 4 X 1 -1 d 1 X
 -1 Y 3 X s 1917 1122 m 1 -1 d 3 X -1 Y 1 X -1 Y 2 X -1 Y 1 X -1 Y 1 X s 1926 1117 m -1 Y 1 X -1 Y 1 X -1 Y 1 X -1 Y 1 X -1 Y 1 X -1 Y 1 X -1 Y 2 X -1 Y 1 X s 1935 1109 m 1 -1 d 1 X -2 Y 1 X -1 Y 1 X -1 Y 1 X -1 Y 1 X -1 Y 1 X -1 Y 1 X -1 Y 1 -1 d s
 1944 1099 m -1 Y 1 X -1 Y 1 X -1 Y 1 X -2 Y 1 X -1 Y 1 -1 d -2 Y 1 X -1 Y 1 -1 d -2 Y 1 -1 d -1 Y s 1952 1084 m -1 Y 1 X -1 Y 1 X -3 Y 1 X -2 Y 1 -1 d -3 Y 1 -1 d -2 Y 1 -1 d -2 Y 1 X -3 Y 1 -1 d -3 Y 1 X -2 Y s 1961 1058 m -1 Y 1 X -3 Y 1 X -4 Y 1
 X -4 Y 1 X -4 Y 1 -1 d -4 Y 1 -1 d -3 Y 1 X -3 Y 1 X -4 Y 1 X -1 Y s 1970 1025 m -3 Y 1 -1 d -4 Y 1 X -4 Y 1 X -4 Y 1 -1 d -5 Y 1 -1 d -4 Y 1 X -4 Y 1 X -5 Y 1 -1 d -3 Y 1 X s 1979 985 m -4 Y 1 -2 d -2 Y 1 X -4 Y 1 -1 d -4 Y 1 -1 d -4 Y 1 X -4 Y 1
 -1 d -4 Y 1 -1 d -4 Y 1 X -3 Y 1 -1 d s 1988 945 m -3 Y 1 -2 d -4 Y 1 -1 d -3 Y 1 -1 d -3 Y 1 -1 d -3 Y 1 -2 d -3 Y 1 -2 d -4 Y 1 -1 d -4 Y 1 -1 d -2 Y s 1996 905 m 1 X -4 Y 1 X -5 Y 1 -1 d -3 Y 1 -1 d -5 Y 1 -1 d -4 Y 1 -1 d -4 Y 1 -1 d -4 Y 1 -2 d
 -3 Y 1 -1 d -3 Y s 2005 862 m -2 Y 1 -1 d -4 Y 1 -1 d -4 Y 1 X -4 Y 1 -1 d -6 Y 1 -1 d -5 Y 1 -1 d -6 Y 1 -1 d -4 Y 1 -1 d -4 Y 1 -1 d -3 Y s 2014 812 m -3 Y 1 -2 d -5 Y 1 -1 d -5 Y 1 -2 d -5 Y 1 -1 d -8 Y 1 -2 d -9 Y 1 -1 d -6 Y 1 -2 d -13 Y 1 -2 d
 -9 Y 1 -3 d -2 Y s 2023 731 m -10 Y 1 -4 d -15 Y 1 -4 d -15 Y 1 -4 d -17 Y 1 -3 d -13 Y 1 -3 d -13 Y 1 -3 d -11 Y 1 -4 d -18 Y 1 -4 d -13 Y 1 -4 d s 2032 573 m -18 Y 1 -3 d -21 Y 1 -4 d -18 Y 1 -4 d -24 Y 1 -7 d -26 Y 1 -7 d -34 Y 1 -9 d -29 Y 1 -8
 d -59 Y 1 -15 d -55 Y s 2040 232 m -13 Y 1 -9 d -7 Y s 1 0 0 c black 1 0 0 c 245 1237 m 2 X 1 -2 d -16 Y 1 -4 d -29 Y 1 -5 d -20 Y 1 -5 d -23 Y 1 -6 d -21 Y 1 -4 d -23 Y 1 -4 d -4 Y s 254 1071 m -12 Y 1 -4 d -29 Y 1 -5 d -23 Y 1 -3 d -15 Y 1 -5 d
 -24 Y 1 -3 d -14 Y 1 -6 d -17 Y 1 -3 d -14 Y 1 -4 d -13 Y 1 -3 d s 263 874 m -8 Y 1 -2 d -14 Y 1 -2 d -11 Y 1 -3 d -7 Y 1 -1 d -11 Y 1 -2 d -7 Y 1 -1 d -9 Y 1 -1 d -8 Y 1 -1 d -8 Y s 271 778 m 1 -2 d -7 Y 1 -1 d -4 Y 1 X -9 Y 1 -1 d -5 Y 1 -2 d -7 Y
 1 -2 d -7 Y 1 X -6 Y 1 -2 d -6 Y 1 -2 d -3 Y s 280 712 m -1 Y 1 -1 d -7 Y 1 -1 d -4 Y 1 -1 d -6 Y 1 -1 d -3 Y 1 -1 d -4 Y 1 X -7 Y 1 X -5 Y 1 -1 d -5 Y 1 X -2 Y s 289 662 m -3 Y 1 -1 d -3 Y 1 -2 d -4 Y 1 -1 d -4 Y 1 -1 d -3 Y 1 X -3 Y 1 -1 d -3 Y 1
 X -3 Y 1 -1 d -2 Y 1 X s 298 627 m -3 Y 1 X -4 Y 1 X -2 Y 1 -1 d -3 Y 1 -1 d -3 Y 1 X -4 Y 1 X -2 Y 1 X -3 Y 1 -1 d -4 Y 1 X s 307 596 m -2 Y 1 X -2 Y 1 -1 d -3 Y 1 -1 d -2 Y 1 -1 d -5 Y 1 X -3 Y 1 -1 d -3 Y 1 X -3 Y 1 X -2 Y s 315 567 m 1 X -2 Y 1
 -1 d -2 Y 1 -1 d -1 Y 1 X -2 Y 1 -1 d -2 Y 1 X -1 Y 1 -1 d -2 Y 1 X -2 Y 1 X -2 Y s 324 547 m 1 X -1 Y 1 -1 d -2 Y 1 -1 d 1 X -4 Y 1 X -3 Y 1 X -3 Y 1 X -2 Y 1 X -2 Y 1 -1 d s 333 527 m -1 Y 1 X -2 Y 1 -1 d -1 Y 1 X -1 Y 1 -1 d -2 Y 1 X -2 Y 1 X -1
 Y 1 -1 d -1 Y 1 X -1 Y 1 -1 d s 342 511 m -1 Y 1 -1 d -1 Y 1 X -2 Y 1 -1 d -1 Y 1 -1 d -2 Y 1 X -2 Y 1 -1 d -1 Y 1 X -1 Y 1 -1 d -1 Y 1 X s 351 494 m -2 Y 1 X -2 Y 1 X -1 Y 1 X -2 Y 1 X -3 Y 1 X -1 Y 1 -1 d 1 X -2 Y 1 X -1 Y s 359 479 m 1 -1 d -1 Y
 1 X -1 Y 1 X -1 Y 1 -1 d -1 Y 1 X -2 Y 1 X -1 Y 1 X -1 Y 1 -1 d -1 Y 1 X -1 Y s 368 466 m 1 X -1 Y 1 X -1 Y 1 -1 d 1 X -1 Y 1 X -1 Y 2 X -1 Y 1 X -1 Y 1 X -1 Y s 377 458 m 1 X -1 Y 1 X 1 -1 d 1 X -1 Y 1 X -2 Y 1 X -1 Y 2 X -1 Y 1 X -1 Y s 386 450 m
 1 X -1 Y 1 X -1 Y 1 X -1 Y 1 X -2 Y 1 X -1 Y 1 X 1 -1 d 1 -1 d -1 Y 1 X s 395 441 m 1 X -1 Y 1 X -1 Y 1 X -1 Y 1 X -1 Y 1 X -1 Y 1 X -2 Y 2 X -1 Y s 403 433 m 2 X -1 Y 1 X -1 Y 1 -1 d 2 X -1 Y 1 X -1 Y 1 X -2 Y 1 X s 412 426 m -1 Y 1 X 1 -1 d -2 Y 2
 X -1 Y 1 X 1 -1 d 2 X -1 Y 1 X s 421 419 m 1 X -2 Y 1 -1 d -1 Y 1 X -1 Y 1 X -1 Y 2 X -2 Y 1 X 1 -1 d 1 X s 430 410 m -1 Y 1 X -1 Y 1 X 1 -1 d -1 Y 1 X -1 Y 1 X -1 Y 2 X -1 Y 1 X -1 Y 1 X s 439 402 m 2 X 1 -1 d 2 X -1 Y 1 X -1 Y 2 X -1 Y s 447 398 m
 2 X -1 Y 1 X -1 Y 2 X 1 -1 d 1 X 1 -1 d -1 Y 1 X s 456 393 m 1 X -1 Y 1 X -1 Y 3 X -1 Y 2 X -1 Y 1 X -1 Y 1 X s 465 388 m 1 X -1 Y 1 X -1 Y 1 X -1 Y 2 X -1 Y 1 X -1 Y 1 -1 d 1 X -1 Y 1 X s 474 381 m 2 X -1 Y 1 X -1 Y 3 X -1 Y 1 X -1 Y 2 X s 483 377
 m -1 Y 2 X -1 Y 3 X 1 -1 d 2 X -1 Y s 491 373 m 1 X -1 Y 1 X 1 -1 d 1 X -1 Y 4 X 1 -1 d s 500 369 m 3 X -1 Y 2 X -1 Y 2 X -1 Y 2 X s 509 366 m 1 X -1 Y 3 X -1 Y 1 X -1 Y 3 X -1 Y 1 X s 518 362 m 1 X 1 -1 d 1 X -1 Y 3 X -1 Y 1 X -1 Y 2 X s 527 358 m
 4 X -1 Y 2 X 1 -1 d 1 X s 535 356 m 1 X -1 Y 6 X -1 Y 1 X 1 -1 d -1 Y s 544 352 m 3 X -1 Y 3 X -1 Y 3 X s 553 350 m 1 X 1 -1 d 6 X -1 Y 1 X s 562 348 m 1 X -1 Y 3 X 1 -1 d 2 X -1 Y 2 X s 571 345 m 3 X -1 Y 4 X -1 Y 1 X -1 Y s 579 342 m 4 X -1 Y 3 X
 1 -1 d 1 X s 588 340 m 1 X -1 Y 3 X -1 Y 2 X -1 Y 3 X s 597 337 m 1 -1 d 2 X 1 -1 d -1 Y 5 X s 606 334 m 2 X -1 Y 5 X -1 Y 2 X s 615 332 m 2 X -1 Y 2 X -1 Y 2 X -1 Y 2 X s 623 329 m 5 X -1 Y 2 X -1 Y 2 X s 632 327 m 1 X 1 -1 d 4 X -1 Y 2 X 1 -1 d s
 641 324 m 3 X 1 -1 d 2 X -1 Y 2 X -1 Y 1 X s 650 321 m 1 X -1 Y 4 X -1 Y 4 X s 659 319 m 1 X 1 -1 d 5 X -1 Y 1 X s 667 317 m 7 X -1 Y 2 X -1 Y s 676 315 m 4 X -1 Y 5 X s 685 314 m 2 X -1 Y 6 X -1 Y 1 X s 694 312 m 5 X -1 Y 4 X s 703 311 m 1 X -1 Y 6
 X -1 Y 1 X s 711 309 m 3 X -1 Y 5 X -1 Y 1 X s 720 307 m 4 X 1 -1 d 1 X -1 Y 2 X -1 Y 1 X s 729 304 m 2 X 1 -1 d 6 X s 738 303 m -1 Y 9 X s 747 302 m -1 Y 4 X -1 Y 4 X s 755 300 m 1 X -1 Y 2 X 1 -1 d 5 X s 764 298 m 1 X -1 Y 2 X -1 Y 4 X -1 Y 2 X s
 773 295 m 1 -1 d 8 X s 782 294 m 3 X -1 Y 6 X s 791 293 m 1 -1 d 5 X 1 -1 d 1 X s 799 291 m 9 X -1 Y s 808 290 m 7 X -1 Y 2 X s 817 289 m 6 X -1 Y 3 X s 826 288 m 3 X -1 Y 6 X s 835 287 m 8 X s 843 287 m 3 X -1 Y 6 X s 852 286 m 2 X -1 Y 5 X -1 Y 2
 X s 861 284 m 9 X s 870 284 m 5 X -1 Y 4 X s 879 283 m 2 X 1 -1 d 5 X s 887 282 m 2 X -1 Y 7 X s 896 281 m -1 Y 9 X s 905 280 m -1 Y 9 X s 914 279 m 4 X -1 Y 5 X s 923 278 m 8 X s 931 278 m 8 X -1 Y 1 X s 940 277 m 9 X -1 Y s 949 276 m 9 X s 958 276
 m -1 Y 9 X s 967 275 m 6 X -1 Y 2 X s 975 274 m 9 X s 984 274 m 2 X -1 Y 7 X s 993 273 m 6 X -1 Y 3 X s 1002 272 m 9 X s 1011 272 m 1 X 1 -1 d 6 X s 1019 271 m 9 X s 1028 271 m 2 X -1 Y 7 X s 1037 270 m 4 X -1 Y 5 X s 1046 269 m 5 X -1 Y 4 X s 1055
 268 m 1 X -1 Y 4 X -1 Y 1 X -1 Y 2 X s 1063 265 m 8 X -1 Y 1 X s 1072 264 m 3 X -1 Y 6 X s 1081 263 m 5 X -1 Y 4 X s 1090 262 m 5 X -1 Y 4 X s 1099 261 m 1 -1 d 7 X s 1107 260 m 2 X -1 Y 7 X s 1116 259 m 7 X -1 Y 2 X s 1125 258 m 2 X -1 Y 7 X s 1134
 257 m 7 X -1 Y 2 X s 1143 256 m 4 X -1 Y 4 X s 1151 255 m 9 X s 1160 255 m 6 X -1 Y 3 X s 1169 254 m 9 X s 1178 254 m 3 X -1 Y 6 X s 1187 253 m 8 X s 1195 253 m 9 X s 1204 253 m 5 X -1 Y 4 X s 1213 252 m 9 X s 1222 252 m 4 X -1 Y 5 X s 1231 251 m 3
 X -1 Y 5 X s 1239 250 m 9 X s 1248 250 m 9 X s 1257 250 m 9 X s 1266 250 m 4 X -1 Y 5 X s 1275 249 m 4 X -1 Y 4 X s 1283 248 m 5 X -1 Y 4 X s 1292 247 m 9 X s 1301 247 m 2 X -1 Y 7 X s 1310 246 m 9 X s 1319 246 m 8 X s 1327 246 m 1 X -1 Y 8 X s 1336
 245 m 9 X s 1345 245 m 5 X 1 -1 d 3 X s 1354 244 m 9 X s 1363 244 m 8 X s 1371 244 m 9 X s 1380 244 m 9 X s 1389 244 m 9 X s 1398 244 m 5 X -1 Y 4 X s 1407 243 m 8 X s 1415 243 m 9 X -1 Y s 1424 242 m 9 X s 1433 242 m 9 X s 1442 242 m 9 X s 1451 242
 m -1 Y 8 X s 1459 241 m 9 X s 1468 241 m 2 X -1 Y 7 X s 1477 240 m 9 X s 1486 240 m 6 X 1 -1 d 2 X s 1495 239 m 8 X s 1503 239 m 4 X -1 Y 5 X s 1512 238 m 9 X s 1521 238 m 4 X -1 Y 5 X s 1530 237 m 9 X s 1539 237 m 8 X s 1547 237 m 4 X -1 Y 5 X s
 1556 236 m 9 X s 1565 236 m 9 X s 1574 236 m 9 X s 1583 236 m 8 X s 1591 236 m 9 X s 1600 236 m 9 X s 1609 236 m 9 X s 1618 236 m 9 X s 1627 236 m 8 X s 1635 236 m 7 X -1 Y 2 X s 1644 235 m 9 X s 1653 235 m 9 X s 1662 235 m 3 X -1 Y 6 X s 1671 234 m
 8 X s 1679 234 m 7 X -1 Y 2 X s 1688 233 m 9 X s 1697 233 m 7 X -1 Y 2 X s 1706 232 m 9 X s 1715 232 m 4 X -1 Y 4 X s 1723 231 m 9 X s 1732 231 m 9 X s 1741 231 m 3 X -1 Y 6 X s 1750 230 m 9 X s 1759 230 m 8 X s 1767 230 m 2 X -1 Y 7 X s 1776 229 m
 9 X s 1785 229 m 9 X s 1794 229 m 3 X 1 -1 d 5 X s 1803 228 m 8 X -1 Y 1 X s 1812 227 m 8 X s 1820 227 m 6 X -1 Y 3 X s 1829 226 m 9 X s 1838 226 m 9 X s 1847 226 m 9 X s 1856 226 m 1 X -1 Y 7 X s 1864 225 m 8 X 1 -1 d s 1873 224 m 9 X s 1882 224 m
 9 X s 1891 224 m 9 X s 1900 224 m 4 X 1 -1 d 3 X s 1908 223 m 9 X s 1917 223 m 9 X -1 Y s 1926 222 m 7 X -1 Y 2 X s 1935 221 m 8 X -1 Y 1 X s 1944 220 m 8 X s 1952 220 m 5 X -1 Y 4 X s 1961 219 m 4 X -1 Y 4 X -1 Y 1 X s 1970 217 m 1 -1 d 2 X -1 Y 6
 X s 1979 215 m 1 -1 d 4 X -1 Y 3 X -1 Y 1 X s 1988 212 m 5 X -1 Y 3 X s 1996 211 m 2 X -1 Y 6 X -1 Y 1 X s 2005 209 m -1 Y 3 X -1 Y 6 X s 2014 207 m 3 X -1 Y 3 X -1 Y 3 X s 2023 205 m 1 X -1 Y 8 X s 2032 204 m -1 Y 5 X -1 Y 3 X -1 Y s 2040 201 m 1 X
 s 0 0.666667 0 c 1 1 1 c black 0 0.666667 0 c 245 971 m 3 X 3 Y 1 1 d 5 Y 1 1 d 4 Y 1 1 d 4 Y 1 2 d 4 Y 1 1 d 4 Y 1 1 d 1 Y s 254 1003 m 2 Y 1 1 d 6 Y 1 1 d 5 Y 1 1 d 3 Y 1 1 d 6 Y 1 X 4 Y 1 1 d 4 Y 1 1 d 3 Y 1 1 d 3 Y 1 1 d s 263 1047 m 1 Y 1 1 d 3
 Y 1 1 d 3 Y 1 X 2 Y 1 X 3 Y 1 X 2 Y 1 1 d 2 Y 1 X 2 Y 1 X 2 Y s 271 1070 m 1 1 d 2 Y 1 X 1 Y 1 X 3 Y 1 X 1 Y 1 1 d 2 Y 1 X 2 Y 1 X 2 Y 1 X 2 Y 1 1 d s 280 1088 m 1 Y 1 X 2 Y 1 X 1 Y 1 1 d 1 Y 1 1 d 1 Y 1 X 1 Y 1 X 2 Y 1 X 2 Y 1 X 1 Y 1 X 1 Y s 289
 1103 m 1 Y 1 X 1 Y 1 X 2 Y 1 X 1 Y 1 1 d 1 1 d 1 1 d 1 Y 1 X 1 Y 2 X 1 Y s 298 1114 m 1 X 1 Y 1 X 1 Y 1 X 1 Y 1 1 d 1 Y 2 X 1 Y 1 X 1 Y 1 X 1 Y 1 1 d s 307 1123 m 1 X 1 Y 1 X 1 Y 1 X 1 Y 1 X 2 Y 1 X 1 Y 1 X 1 Y 1 X 1 Y 1 X 1 Y s 315 1132 m 2 X 1 Y 1
 X 1 Y 1 X 1 1 d 1 X 1 Y 2 X 1 Y 1 X 1 Y s 324 1138 m 2 X 1 Y 2 X 2 Y 1 X 1 Y 1 -1 d 1 Y 1 1 d 1 X 1 Y 1 X s 333 1144 m 1 1 d 1 X 1 Y 2 X 1 Y 1 X 1 Y 2 X 1 Y 2 X s 342 1149 m 1 Y 1 X 1 1 d 1 X 1 Y 1 X 1 Y 1 X 1 Y 2 X 1 Y 2 X s 351 1155 m 1 Y 1 X 1 Y
 3 X 2 Y 3 X 1 Y 1 X s 359 1160 m 1 1 d 1 X 1 1 d 1 X 1 1 d 1 X 1 1 d 1 X 1 Y 1 X s 368 1165 m 1 X 1 1 d 3 X 1 Y 3 X 1 Y 1 X s 377 1168 m 4 X 1 Y 2 X 1 Y 3 X s 386 1170 m 1 X 1 Y 2 X 1 1 d 1 X 1 Y 4 X s 395 1173 m 1 Y 3 X 1 Y 2 X 1 1 d 2 X 1 Y s 403
 1177 m 3 X 1 1 d 3 X 1 Y -1 Y 1 X 1 Y 1 X s 412 1179 m 2 X 1 Y 2 X 1 Y 4 X 1 Y 1 X s 421 1182 m 2 X 1 Y 2 X 1 Y 3 X 1 Y -1 Y 1 1 d 1 X s 430 1185 m 2 X 1 Y 2 X 1 Y 4 X 1 Y 1 X s 439 1188 m 5 X 1 1 d 2 X s 447 1189 m 3 X 1 Y 5 X 1 Y 1 X s 456 1191 m
 2 X 1 Y 5 X 1 1 d 1 X s 465 1193 m 2 X 1 Y 3 X 1 Y 3 X 1 Y 1 X s 474 1196 m 4 X 1 1 d 4 X s 483 1197 m 1 X 1 Y 7 X 1 Y s 491 1199 m 3 X 1 1 d 5 X s 500 1200 m 3 X 1 Y 6 X s 509 1201 m 2 X 1 Y 6 X 1 Y 1 X s 518 1203 m 1 -1 d 1 Y 5 X 1 Y 3 X s 527
 1204 m 4 X 1 Y 4 X s 535 1205 m 6 X 1 1 d 2 X s 544 1206 m 1 X 1 Y 8 X s 553 1207 m 3 X 1 Y 6 X s 562 1208 m 3 X 1 Y 6 X s 571 1209 m 6 X 1 Y 2 X s 579 1210 m 5 X 1 1 d 1 X -1 Y 1 1 d 1 X s 588 1211 m 6 X 1 Y 3 X s 597 1212 m 4 X 1 Y 5 X s 606 1213
 m 4 X 1 Y 5 X s 615 1214 m 5 X 1 Y 3 X s 623 1215 m 6 X 1 Y 3 X s 632 1216 m 7 X 1 Y 2 X s 641 1217 m 6 X 1 Y 3 X s 650 1218 m 9 X s 659 1218 m 1 1 d 7 X s 667 1219 m 9 X 1 Y s 676 1220 m 9 X s 685 1220 m 3 X 1 Y 1 X 1 -1 d 4 X s 694 1220 m 5 X 1 Y
 4 X s 703 1221 m 8 X s 711 1221 m 2 X 1 Y 7 X s 720 1222 m 5 X 1 Y 4 X s 729 1223 m 4 X 1 Y 5 X s 738 1224 m 9 X s 747 1224 m 7 X 1 Y 1 X s 755 1225 m 9 X s 764 1225 m 2 X 1 1 d 5 X 1 Y 1 X s 773 1227 m 2 X -1 Y 1 1 d 1 X -1 Y 5 X s 782 1226 m 2 X 1
 Y 7 X s 791 1227 m 8 X s 799 1227 m 2 X 1 Y 7 X s 808 1228 m 9 X s 817 1228 m 9 X s 826 1228 m 2 X 1 Y -1 Y 1 X 1 Y 6 X s 835 1229 m 8 X s 843 1229 m 9 X s 852 1229 m 7 X 1 Y 2 X s 861 1230 m 9 X s 870 1230 m 9 X s 879 1230 m 8 X s 887 1230 m 6 X 1
 Y 3 X s 896 1231 m 9 X s 905 1231 m 9 X s 914 1231 m 9 X s 923 1231 m 8 X s 931 1231 m 9 X s 940 1231 m 9 X s 949 1231 m 9 X s 958 1231 m 1 Y 9 X s 967 1232 m 8 X s 975 1232 m 9 X s 984 1232 m 9 X s 993 1232 m 6 X 1 Y 1 X -1 Y 1 1 d 1 X s 1002 1233
 m 9 X s 1011 1233 m 8 X s 1019 1233 m 9 X s 1028 1233 m 9 X s 1037 1233 m 9 X s 1046 1233 m 9 X s 1055 1233 m 4 X 1 Y 4 X s 1063 1234 m 8 X 1 Y 1 X s 1072 1235 m 9 X s 1081 1235 m 9 X s 1090 1235 m 9 X s 1099 1235 m 1 1 d 7 X s 1107 1236 m 9 X s
 1116 1236 m 9 X s 1125 1236 m 1 1 d 8 X s 1134 1237 m 3 X -1 Y 1 X 1 Y 1 X 1 -1 d 1 X 1 Y 2 X s 1143 1237 m 8 X s 1151 1237 m 9 X s 1160 1237 m 9 X s 1169 1237 m 9 X s 1178 1237 m 9 X s 1187 1237 m 8 X s 1195 1237 m 9 X s 1204 1237 m 9 X s 1213 1237
 m 9 X s 1222 1237 m 9 X s 1231 1237 m 8 X s 1239 1237 m 9 X s 1248 1237 m 9 X s 1257 1237 m 9 X s 1266 1237 m 9 X s 1275 1237 m 8 X s 1283 1237 m 9 X s 1292 1237 m 9 X s 1301 1237 m 9 X s 1310 1237 m 9 X s 1319 1237 m 8 X s 1327 1237 m 9 X s 1336
 1237 m 9 X s 1345 1237 m 9 X s 1354 1237 m 9 X s 1363 1237 m 8 X s 1371 1237 m 9 X s 1380 1237 m 7 X 1 -1 d 1 X s 1389 1236 m 9 X s 1398 1236 m 9 X s 1407 1236 m 8 X s 1415 1236 m 9 X s 1424 1236 m 9 X s 1433 1236 m 9 X s 1442 1236 m 9 X s 1451 1236
 m 8 X s 1459 1236 m 9 X s 1468 1236 m 9 X s 1477 1236 m 9 X s 1486 1236 m 1 X 1 -1 d 1 X 1 Y 5 X -1 Y 1 Y 1 X s 1495 1236 m 8 X s 1503 1236 m 9 X s 1512 1236 m 9 X s 1521 1236 m 6 X -1 Y 3 X s 1530 1235 m 9 X s 1539 1235 m 8 X s 1547 1235 m 9 X s
 1556 1235 m 9 X s 1565 1235 m 7 X -1 Y 2 X s 1574 1234 m 9 X s 1583 1234 m 8 X s 1591 1234 m 9 X s 1600 1234 m -1 Y 9 X s 1609 1233 m 9 X s 1618 1233 m 9 X s 1627 1233 m 8 X s 1635 1233 m 5 X -1 Y 4 X 1 Y s 1644 1233 m 5 X -1 Y 4 X s 1653 1232 m 9 X
 s 1662 1232 m 9 X s 1671 1232 m 8 X s 1679 1232 m 1 X -1 Y 3 X 1 Y 1 X -1 Y 1 1 d 3 X s 1688 1232 m 1 X -1 Y 8 X s 1697 1231 m 9 X s 1706 1231 m 9 X s 1715 1231 m 8 X s 1723 1231 m 1 -1 d 2 X 1 Y 6 X s 1732 1231 m 2 X -1 Y 7 X s 1741 1230 m 9 X s
 1750 1230 m 7 X 1 -1 d 1 X s 1759 1229 m 3 X 1 1 d -1 Y 4 X s 1767 1229 m 9 X s 1776 1229 m 7 X -1 Y 2 X s 1785 1228 m 9 X s 1794 1228 m 4 X 1 -1 d 1 X 1 Y -1 Y 3 X s 1803 1227 m 8 X -1 Y 1 Y 1 X s 1812 1227 m 1 X -1 Y 7 X s 1820 1226 m 9 X s 1829
 1226 m -1 Y 9 X s 1838 1225 m 8 X -1 Y 1 X s 1847 1224 m 9 X s 1856 1224 m 6 X -1 Y 2 X s 1864 1223 m 8 X -1 Y 1 X s 1873 1222 m 6 X -1 Y 3 X s 1882 1221 m 2 X 1 -1 d 5 X -1 Y 1 X s 1891 1219 m 2 X 1 -1 d 6 X s 1900 1218 m -1 Y 7 X -1 Y 1 X s 1908
 1216 m 6 X -1 Y 3 X s 1917 1215 m 4 X -1 Y 2 X 1 -1 d 1 X -1 Y 1 X s 1926 1212 m 2 X -1 Y 2 X -1 Y 2 X -1 Y 3 X s 1935 1209 m -1 Y 2 X -1 Y 2 X -1 Y 2 X -1 Y 1 X -1 Y 2 X s 1944 1204 m -1 Y 1 X -1 Y 1 X 1 -1 d 1 -1 d 1 X -1 Y 1 -1 d 1 -1 d -1 Y 1 X
 -1 Y s 1952 1195 m -1 Y 2 X -2 Y 1 X -1 Y 1 X -2 Y 1 X -1 Y 1 -1 d -1 Y 1 Y -1 Y 1 X -2 Y 1 -1 d -1 Y 1 X -2 Y s 1961 1180 m 1 X -1 Y 1 -1 d -2 Y 1 X -2 Y 1 X -2 Y 1 -1 d -2 Y 1 -1 d -1 Y 1 X -2 Y 1 X -2 Y 1 X -1 Y s 1970 1162 m -1 Y 1 -1 d -2 Y 1 X
 -2 Y 1 X -2 Y 1 -1 d -3 Y 1 -1 d -1 Y 1 -1 d -2 Y 1 X -3 Y 1 X -2 Y 1 X -1 Y s 1979 1139 m -2 Y 1 -1 d -1 Y 1 X -2 Y 1 -1 d -2 Y 1 -1 d -2 Y 1 X -3 Y 1 X -2 Y 1 -1 d -2 Y 1 X -2 Y 1 -1 d s 1988 1116 m -2 Y 1 X -3 Y 1 -1 d -2 Y 1 X -2 Y 1 -1 d -2 Y 1
 X -3 Y 1 -1 d -2 Y 1 X -3 Y 1 -1 d -1 Y s 1996 1092 m 1 X -2 Y 1 -1 d -3 Y 1 X -2 Y 1 -1 d -3 Y 1 X -3 Y 1 -1 d -2 Y 1 X -4 Y 1 X -3 Y 1 X -2 Y s 2005 1065 m 1 -1 d -3 Y 1 X -3 Y 1 X -3 Y 1 X -4 Y 1 -1 d -3 Y 1 -1 d -3 Y 1 -1 d -3 Y 1 -1 d -2 Y 1 -1
 d -2 Y s 2014 1033 m -2 Y 1 -1 d -4 Y 1 -1 d -3 Y 1 -1 d -4 Y 1 -1 d -5 Y 1 -2 d -6 Y 1 X -5 Y 1 -1 d -9 Y 1 -2 d -6 Y 1 -2 d -2 Y s 2023 976 m -7 Y 1 -3 d -11 Y 1 -3 d -11 Y 1 -3 d -14 Y 1 -2 d -10 Y 1 -3 d -11 Y 1 -2 d -9 Y 1 -3 d -15 Y 1 -3 d -12
 Y 1 -3 d s 2032 851 m -15 Y 1 -4 d -18 Y 1 -4 d -17 Y 1 -4 d -24 Y 1 -7 d -28 Y 1 -7 d -39 Y 1 -9 d -37 Y 1 -11 d -88 Y 1 -25 d -126 Y s 2040 388 m -43 Y 1 -44 d -53 Y s black 3 lw 245 201 m 1796 X s 412 241 m -40 Y s 449 221 m -20 Y s 485 221 m -20
 Y s 521 221 m -20 Y s 557 221 m -20 Y s 594 241 m -40 Y s 630 221 m -20 Y s 666 221 m -20 Y s 702 221 m -20 Y s 739 221 m -20 Y s 775 241 m -40 Y s 811 221 m -20 Y s 847 221 m -20 Y s 884 221 m -20 Y s 920 221 m -20 Y s 956 241 m -40 Y s 992 221 m
 -20 Y s 1028 221 m -20 Y s 1065 221 m -20 Y s 1101 221 m -20 Y s 1137 241 m -40 Y s 1173 221 m -20 Y s 1210 221 m -20 Y s 1246 221 m -20 Y s 1282 221 m -20 Y s 1318 241 m -40 Y s 1355 221 m -20 Y s 1391 221 m -20 Y s 1427 221 m -20 Y s 1463 221 m
 -20 Y s 1500 241 m -40 Y s 1536 221 m -20 Y s 1572 221 m -20 Y s 1608 221 m -20 Y s 1645 221 m -20 Y s 1681 241 m -40 Y s 1717 221 m -20 Y s 1753 221 m -20 Y s 1790 221 m -20 Y s 1826 221 m -20 Y s 1862 241 m -40 Y s 412 241 m -40 Y s 376 221 m -20
 Y s 340 221 m -20 Y s 304 221 m -20 Y s 267 221 m -20 Y s 1862 241 m -40 Y s 1898 221 m -20 Y s 1935 221 m -20 Y s 1971 221 m -20 Y s 2007 221 m -20 Y s 245 201 m 1140 Y s 291 201 m -46 X s 268 253 m -23 X s 268 305 m -23 X s 268 357 m -23 X s 291
 408 m -46 X s 268 460 m -23 X s 268 512 m -23 X s 268 564 m -23 X s 291 616 m -46 X s 268 667 m -23 X s 268 719 m -23 X s 268 771 m -23 X s 291 823 m -46 X s 268 875 m -23 X s 268 926 m -23 X s 268 978 m -23 X s 291 1030 m -46 X s 268 1082 m -23 X s
 268 1134 m -23 X s 268 1185 m -23 X s 291 1237 m -46 X s 291 1237 m -46 X s 268 1289 m -23 X s 268 1341 m -23 X s 0.490196 0.545098 0.615686 c 1 1 1 c 0.490196 0.545098 0.615686 c 907 201 245 1341 bl 245 1341 m 907 X s 1152 1341 m 201 Y s 1152 1542
 m -907 X s 245 1542 m -201 Y s black
 gsave  2268 1676 0 0 C 515.735 1471.36 t 0 r /Helvetica-Bold findfont 56.8825 sf 0 0 m (Signal efficiency) show NC gr  0 0 0.933333 c 9 lw 286 1492 m 190 X s black
 gsave  2268 1676 0 0 C 515.735 1368.97 t 0 r /Helvetica-Bold findfont 56.8825 sf 0 0 m (Background efficiency) show NC gr  1 0 0 c 286 1391 m 190 X s 0.490196 0.545098 0.615686 c 3 lw 1 1 1 c 0.490196 0.545098 0.615686 c 889 201 1152 1341 bl 1152
 1341 m 889 X s 2041 1341 m 201 Y s 2041 1542 m -889 X s 1152 1542 m -201 Y s black
 gsave  2268 1676 0 0 C 1418.27 1494.11 t 0 r /Helvetica-Bold findfont 56.8825 sf 0 0 m (Signal purity) show NC gr  0 0 0.933333 c[  52 12 ] 0 sd 6 lw 1192 1509 m 187 X s black
 gsave  2268 1676 0 0 C 1418.27 1429.65 t 0 r /Helvetica-Bold findfont 56.8825 sf 0 0 m (Signal efficiency*purity) show NC gr  0 0 0.933333 c[  22 12 ] 0 sd 1192 1441 m 187 X s black
 gsave  2268 1676 0 0 C 1501.7 1361.39 t 0 r /Helvetica-Bold findfont 56.8825 sf 0 0 m (S+B) show NC gr [  ] 0 sd 1483 1407 m 7 -49 d s 3 lw 1490 1358 m 8 64 d s 1498 1422 m 114 X s
 gsave  2268 1676 0 0 C 1418.27 1361.39 t 0 r /Helvetica-Bold findfont 56.8825 sf 0 0 m (S/) show NC gr  0 0.666667 0 c 9 lw 1192 1374 m 187 X s black 3 lw 245 1237 m 1796 X s
 gsave  2268 1676 0 0 C 337.503 386.801 t 0 r /Helvetica-Bold findfont 53.0904 sf 0 0 m (For 1000 signal and 1000 background) show NC gr 
 gsave  2268 1676 0 0 C 1058.01 318.542 t 0 r /Helvetica-Bold findfont 53.0904 sf 0 0 m ( is) show NC gr 
 gsave  2268 1676 0 0 C 955.626 318.542 t 0 r /Helvetica-Bold findfont 53.0904 sf 0 0 m (S+B) show NC gr  6 lw 933 360 m 7 -45 d s 3 lw 940 315 m 8 60 d s 948 375 m 110 X s
 gsave  2268 1676 0 0 C 337.503 318.542 t 0 r /Helvetica-Bold findfont 53.0904 sf 0 0 m (events the maximum S/) show NC gr 
 gsave  2268 1676 0 0 C 337.503 254.075 t 0 r /Helvetica-Bold findfont 53.0904 sf 0 0 m (30.11 when cutting at  0.58) show NC gr  0.490196 0.545098 0.615686 c 0.364706 0.419608 0.490196 c 1471 96 23 1572 bf 0.490196 0.545098 0.615686 c 23 1572 m 1471
 X s 1494 1572 m 96 Y s 1494 1668 m -1471 X s 23 1668 m -96 Y s 1 1 1 c black 1 1 1 c
 gsave  2268 1676 0 0 C 75.8434 1600.29 t 0 r /Helvetica-Bold findfont 75.8434 sf 0 0 m (Cut efficiencies and optimal cut value) show NC gr  0 0.666667 0 c 2041 201 m 1140 Y s 1995 201 m 46 X s 2018 236 m 23 X s 2018 270 m 23 X s 2018 304 m 23 X s
 2018 339 m 23 X s 1995 373 m 46 X s 2018 408 m 23 X s 2018 442 m 23 X s 2018 476 m 23 X s 2018 511 m 23 X s 1995 545 m 46 X s 2018 580 m 23 X s 2018 614 m 23 X s 2018 649 m 23 X s 2018 683 m 23 X s 1995 717 m 46 X s 2018 752 m 23 X s 2018 786 m 23 X
 s 2018 821 m 23 X s 2018 855 m 23 X s 1995 889 m 46 X s 2018 924 m 23 X s 2018 958 m 23 X s 2018 993 m 23 X s 2018 1027 m 23 X s 1995 1061 m 46 X s 2018 1096 m 23 X s 2018 1130 m 23 X s 2018 1165 m 23 X s 2018 1199 m 23 X s 1995 1234 m 46 X s 1995
 1234 m 46 X s 2018 1268 m 23 X s 2018 1302 m 23 X s 2018 1337 m 23 X s black 0 0.666667 0 c
 gsave  2268 1676 0 0 C 2051.56 178.232 t 0 r /Helvetica-Bold findfont 64.4669 sf 0 0 m (0) show NC gr  black 0 0.666667 0 c
 gsave  2268 1676 0 0 C 2051.56 348.879 t 0 r /Helvetica-Bold findfont 64.4669 sf 0 0 m (5) show NC gr  black 0 0.666667 0 c
 gsave  2268 1676 0 0 C 2051.56 519.527 t 0 r /Helvetica-Bold findfont 64.4669 sf 0 0 m (10) show NC gr  black 0 0.666667 0 c
 gsave  2268 1676 0 0 C 2051.56 693.967 t 0 r /Helvetica-Bold findfont 64.4669 sf 0 0 m (15) show NC gr  black 0 0.666667 0 c
 gsave  2268 1676 0 0 C 2051.56 864.614 t 0 r /Helvetica-Bold findfont 64.4669 sf 0 0 m (20) show NC gr  black 0 0.666667 0 c
 gsave  2268 1676 0 0 C 2051.56 1035.26 t 0 r /Helvetica-Bold findfont 64.4669 sf 0 0 m (25) show NC gr  black 0 0.666667 0 c
 gsave  2268 1676 0 0 C 2051.56 1209.7 t 0 r /Helvetica-Bold findfont 64.4669 sf 0 0 m (30) show NC gr  black 0 0.666667 0 c
 gsave  2268 1676 0 0 C 2203.25 963.211 t 90 r /Helvetica-Bold findfont 64.4669 sf 0 0 m (Significance) show NC gr 
 gr  gr showpage
end
%%EOF
